Las Vegas,NV,36.17,-115.14
Orlando,FL,28.54,-81.38
New York,NY,40.71,-74.01
Phoenix,AZ,33.45,-112.07
Orange County,CA,33.7175,-117.8311
Miami,FL,25.76,-80.19
Chicago,IL,41.88,-87.63
New Orleans,LA,29.95,-90.07
San Diego,CA,32.72,-117.16
San Francisco,CA,37.77,-122.42
Los Angeles,CA,34.05,-118.24
San Antonio,TX,29.42,-98.49
Dallas,TX,32.78,-96.8
Washington,DC,38.9072,-77.0369
Fort Lauderdale,FL,26.12,-80.14
Nashville,TN,36.16,-86.78
Atlanta,GA,33.75,-84.39
Houston,TX,29.76,-95.37
Seattle,WA,47.61,-122.33
Denver,CO,39.74,-104.99
Austin,TX,30.27,-97.74
Minneapolis,MN,44.98,-93.27
St Petersburg,FL,27.75,-82.63
Boston,MA,42.36,-71.06
Fort Myers,FL,26.64,-81.87
St Louis,MO,38.63,-90.2
Tampa,FL,27.95,-82.46
Savannah,GA,32.08,-81.1
City of Key West,FL,24.5551,-81.78
Palm Springs,CA,33.83,-116.55
Portland,OR,43.66,-70.26
San Jose,CA,37.34,-121.89
Columbus,OH,39.96,-83
Daytona Beach,FL,29.21,-81.02
Atlantic City,NJ,39.36,-74.42
Kansas City,MO,39.1,-94.58
Indianapolis,IN,39.77,-86.16
Panama City,FL,30.1588,-85.6602
Oahu,HI,21.4389,-158.0001
Charleston,SC,32.78,-79.93
Sarasota,FL,27.34,-82.53
Monterey,CA,36.6,-121.89
Charlotte,NC,35.23,-80.84
Cincinnati,OH,39.1,-84.51
Asheville,NC,35.6,-82.55
Louisville,KY,38.25,-85.76
Santa Fe,NM,35.69,-105.94
Portland,ME,43.66,-70.26
