{
  "ALAARX": [
    "BFWARX",
    "BILARX",
    "BVCARX",
    "CBNARX",
    "CHYARX",
    "CSPARX",
    "DENAMT",
    "DENAMT2",
    "DUGARX",
    "FMGBTW",
    "FNTARX",
    "FPLARX",
    "GISBTW",
    "GNNARX",
    "GNNARX2",
    "HPHARX",
    "KNYBTW",
    "LNKGLI",
    "LXNBTW",
    "MDIARX",
    "MFFARX",
    "NBEARX",
    "NLKARX",
    "NTTBTW",
    "OLLBTW",
    "OMAARX",
    "OMABTW",
    "PJTARX",
    "PNCARX",
    "SCYARX",
    "SDAARX",
    "SHRARX",
    "SLGBTW",
    "WHTARX"
  ],
  "BFWARX": [
    "ALAARX",
    "BILARX",
    "BVCARX",
    "CBNARX",
    "CHYARX",
    "CSPARX",
    "DENAMT",
    "DENAMT2",
    "DUGARX",
    "FMGBTW",
    "FNTARX",
    "FPLARX",
    "GEEARX",
    "GISBTW",
    "GNNARX",
    "GNNARX2",
    "HPHARX",
    "KNYBTW",
    "LNKGLI",
    "LXNBTW",
    "MDIARX",
    "MFFARX",
    "NBEARX",
    "NLKARX",
    "NTTBTW",
    "OLLBTW",
    "OMAARX",
    "OMABTW",
    "PJTARX",
    "PNCARX",
    "SCYARX",
    "SDAARX",
    "SHRARX",
    "SLGBTW",
    "WHTARX"
  ],
  "BILARX": [
    "BFWARX",
    "CBNARX",
    "CHYARX",
    "CSPARX",
    "DENAMT",
    "DENAMT2",
    "DUGARX",
    "FMGBTW",
    "FNTARX",
    "GEEARX",
    "GISBTW",
    "HPHARX",
    "KNYBTW",
    "LNKGLI",
    "LXNBTW",
    "MDIARX",
    "NBEARX",
    "NLKARX",
    "NTTBTW",
    "OLLBTW",
    "OMAARX",
    "OMABTW",
    "SCYARX",
    "SHRARX",
    "SLGBTW",
    "WHTARX"
  ],
  "BVCARX": [
    "ALAARX",
    "BFWARX",
    "BILARX",
    "CBNARX",
    "CHYARX",
    "CSPARX",
    "DENAMT",
    "DENAMT2",
    "DUGARX",
    "FMGBTW",
    "FNTARX",
    "FPLARX",
    "GISBTW",
    "GNNARX",
    "GNNARX2",
    "HPHARX",
    "KNYBTW",
    "LNKGLI",
    "LXNBTW",
    "MDIARX",
    "MFFARX",
    "NBEARX",
    "NLKARX",
    "NTTBTW",
    "OLLBTW",
    "OMAARX",
    "OMABTW",
    "PJTARX",
    "PNCARX",
    "SCYARX",
    "SDAARX",
    "SHRARX",
    "SLGBTW",
    "WHTARX"
  ],
  "CBNARX": [
    "ALAARX",
    "BFWARX",
    "BILARX",
    "BVCARX",
    "CSPARX",
    "DENAMT",
    "DENAMT2",
    "DUGARX",
    "FMGBTW",
    "FNTARX",
    "FPLARX",
    "GEEARX",
    "GISBTW",
    "GNNARX",
    "GNNARX2",
    "HPHARX",
    "KNYBTW",
    "LNKGLI",
    "LXNBTW",
    "MDIARX",
    "MFFARX",
    "NBEARX",
    "NLKARX",
    "NTTBTW",
    "OLLBTW",
    "OMAARX",
    "OMABTW",
    "PJTARX",
    "PNCARX",
    "SCYARX",
    "SDAARX",
    "SHRARX",
    "SLGBTW",
    "WHTARX"
  ],
  "CHYARX": [
    "ALAARX",
    "BFWARX",
    "BILARX",
    "BVCARX",
    "CSPARX",
    "DENAMT",
    "DENAMT2",
    "DUGARX",
    "FMGBTW",
    "FPLARX",
    "GEEARX",
    "GISBTW",
    "GNNARX",
    "GNNARX2",
    "KNYBTW",
    "LNKGLI",
    "LXNBTW",
    "MFFARX",
    "NTTBTW",
    "OLLBTW",
    "OMABTW",
    "PJTARX",
    "PNCARX",
    "SDAARX",
    "SHRARX",
    "SLGBTW",
    "WHTARX"
  ],
  "CSPARX": [
    "ALAARX",
    "BFWARX",
    "BILARX",
    "BVCARX",
    "CBNARX",
    "CHYARX",
    "DENAMT",
    "DENAMT2",
    "DUGARX",
    "FMGBTW",
    "FNTARX",
    "FPLARX",
    "GEEARX",
    "GISBTW",
    "GNNARX",
    "GNNARX2",
    "HPHARX",
    "KNYBTW",
    "LNKGLI",
    "LXNBTW",
    "MDIARX",
    "MFFARX",
    "NBEARX",
    "NLKARX",
    "NTTBTW",
    "OLLBTW",
    "OMAARX",
    "OMABTW",
    "PJTARX",
    "PNCARX",
    "SCYARX",
    "SDAARX",
    "SHRARX",
    "SLGBTW",
    "WHTARX"
  ],
  "DENAMT": [
    "ALAARX",
    "BVCARX",
    "DENAMT2",
    "FPLARX",
    "GNNARX",
    "GNNARX2",
    "MFFARX",
    "PJTARX",
    "PNCARX",
    "SDAARX"
  ],
  "DENAMT2": [
    "ALAARX",
    "BFWARX",
    "BILARX",
    "BVCARX",
    "CBNARX",
    "CHYARX",
    "CSPARX",
    "DENAMT",
    "DUGARX",
    "FMGBTW",
    "FNTARX",
    "FPLARX",
    "GEEARX",
    "GISBTW",
    "GNNARX",
    "GNNARX2",
    "HPHARX",
    "KNYBTW",
    "LNKGLI",
    "LXNBTW",
    "MDIARX",
    "MFFARX",
    "NBEARX",
    "NLKARX",
    "NTTBTW",
    "OLLBTW",
    "OMAARX",
    "OMABTW",
    "PJTARX",
    "PNCARX",
    "SCYARX",
    "SDAARX",
    "SHRARX",
    "SLGBTW",
    "WHTARX"
  ],
  "DUGARX": [
    "ALAARX",
    "BFWARX",
    "BILARX",
    "BVCARX",
    "CBNARX",
    "CHYARX",
    "CSPARX",
    "DENAMT",
    "DENAMT2",
    "FMGBTW",
    "FNTARX",
    "FPLARX",
    "GEEARX",
    "GISBTW",
    "GNNARX",
    "GNNARX2",
    "HPHARX",
    "KNYBTW",
    "LNKGLI",
    "LXNBTW",
    "MDIARX",
    "MFFARX",
    "NBEARX",
    "NLKARX",
    "NTTBTW",
    "OLLBTW",
    "OMAARX",
    "OMABTW",
    "PJTARX",
    "PNCARX",
    "SCYARX",
    "SDAARX",
    "SHRARX",
    "SLGBTW",
    "WHTARX"
  ],
  "FMGBTW": [
    "ALAARX",
    "BFWARX",
    "BILARX",
    "BVCARX",
    "CBNARX",
    "CHYARX",
    "CSPARX",
    "DENAMT",
    "DENAMT2",
    "DUGARX",
    "FNTARX",
    "FPLARX",
    "GEEARX",
    "GISBTW",
    "GNNARX",
    "GNNARX2",
    "HPHARX",
    "KNYBTW",
    "LNKGLI",
    "LXNBTW",
    "MDIARX",
    "MFFARX",
    "NBEARX",
    "NLKARX",
    "NTTBTW",
    "OLLBTW",
    "OMAARX",
    "OMABTW",
    "PJTARX",
    "PNCARX",
    "SCYARX",
    "SDAARX",
    "SHRARX",
    "SLGBTW",
    "WHTARX"
  ],
  "FNTARX": [
    "ALAARX",
    "BFWARX",
    "BILARX",
    "BVCARX",
    "CBNARX",
    "CSPARX",
    "DENAMT",
    "DENAMT2",
    "DUGARX",
    "FMGBTW",
    "FPLARX",
    "GEEARX",
    "GISBTW",
    "GNNARX",
    "GNNARX2",
    "HPHARX",
    "KNYBTW",
    "LNKGLI",
    "LXNBTW",
    "MDIARX",
    "MFFARX",
    "NBEARX",
    "NLKARX",
    "NTTBTW",
    "OLLBTW",
    "OMAARX",
    "OMABTW",
    "PJTARX",
    "PNCARX",
    "SCYARX",
    "SDAARX",
    "SHRARX",
    "SLGBTW",
    "WHTARX"
  ],
  "FPLARX": [
    "ALAARX",
    "BFWARX",
    "BILARX",
    "BVCARX",
    "CBNARX",
    "CHYARX",
    "CSPARX",
    "DENAMT",
    "DENAMT2",
    "DUGARX",
    "FMGBTW",
    "FNTARX",
    "GISBTW",
    "GNNARX",
    "GNNARX2",
    "HPHARX",
    "KNYBTW",
    "LNKGLI",
    "LXNBTW",
    "MDIARX",
    "MFFARX",
    "NBEARX",
    "NLKARX",
    "NTTBTW",
    "OLLBTW",
    "OMAARX",
    "OMABTW",
    "PJTARX",
    "PNCARX",
    "SCYARX",
    "SDAARX",
    "SHRARX",
    "SLGBTW",
    "WHTARX"
  ],
  "GEEARX": [
    "BFWARX",
    "BILARX",
    "CBNARX",
    "CHYARX",
    "CSPARX",
    "DENAMT",
    "DENAMT2",
    "DUGARX",
    "FMGBTW",
    "FNTARX",
    "GISBTW",
    "HPHARX",
    "KNYBTW",
    "LNKGLI",
    "LXNBTW",
    "MDIARX",
    "NBEARX",
    "NLKARX",
    "NTTBTW",
    "OLLBTW",
    "OMAARX",
    "OMABTW",
    "SCYARX",
    "SHRARX",
    "SLGBTW",
    "WHTARX"
  ],
  "GISBTW": [
    "ALAARX",
    "BFWARX",
    "BILARX",
    "BVCARX",
    "CBNARX",
    "CHYARX",
    "CSPARX",
    "DENAMT",
    "DENAMT2",
    "DUGARX",
    "FMGBTW",
    "FNTARX",
    "FPLARX",
    "GEEARX",
    "GNNARX",
    "GNNARX2",
    "HPHARX",
    "KNYBTW",
    "LNKGLI",
    "LXNBTW",
    "MDIARX",
    "MFFARX",
    "NBEARX",
    "NLKARX",
    "NTTBTW",
    "OLLBTW",
    "OMAARX",
    "OMABTW",
    "PJTARX",
    "PNCARX",
    "SCYARX",
    "SDAARX",
    "SHRARX",
    "SLGBTW",
    "WHTARX"
  ],
  "GNNARX": [
    "ALAARX",
    "BFWARX",
    "BILARX",
    "BVCARX",
    "CBNARX",
    "CHYARX",
    "CSPARX",
    "DENAMT",
    "DENAMT2",
    "DUGARX",
    "FMGBTW",
    "FNTARX",
    "FPLARX",
    "GISBTW",
    "GNNARX2",
    "HPHARX",
    "KNYBTW",
    "LNKGLI",
    "LXNBTW",
    "MDIARX",
    "MFFARX",
    "NBEARX",
    "NLKARX",
    "NTTBTW",
    "OLLBTW",
    "OMAARX",
    "OMABTW",
    "PJTARX",
    "PNCARX",
    "SCYARX",
    "SDAARX",
    "SHRARX",
    "SLGBTW",
    "WHTARX"
  ],
  "GNNARX2": [
    "ALAARX",
    "BFWARX",
    "BILARX",
    "BVCARX",
    "CBNARX",
    "CHYARX",
    "CSPARX",
    "DENAMT",
    "DENAMT2",
    "DUGARX",
    "FMGBTW",
    "FNTARX",
    "FPLARX",
    "GISBTW",
    "GNNARX",
    "HPHARX",
    "KNYBTW",
    "LNKGLI",
    "LXNBTW",
    "MDIARX",
    "MFFARX",
    "NBEARX",
    "NLKARX",
    "NTTBTW",
    "OLLBTW",
    "OMAARX",
    "OMABTW",
    "PJTARX",
    "PNCARX",
    "SCYARX",
    "SDAARX",
    "SHRARX",
    "SLGBTW",
    "WHTARX"
  ],
  "HPHARX": [
    "ALAARX",
    "BFWARX",
    "BILARX",
    "BVCARX",
    "CBNARX",
    "CSPARX",
    "DENAMT",
    "DENAMT2",
    "DUGARX",
    "FMGBTW",
    "FNTARX",
    "FPLARX",
    "GEEARX",
    "GISBTW",
    "GNNARX",
    "GNNARX2",
    "KNYBTW",
    "LNKGLI",
    "LXNBTW",
    "MDIARX",
    "MFFARX",
    "NBEARX",
    "NLKARX",
    "NTTBTW",
    "OLLBTW",
    "OMAARX",
    "OMABTW",
    "PJTARX",
    "PNCARX",
    "SCYARX",
    "SDAARX",
    "SHRARX",
    "SLGBTW",
    "WHTARX"
  ],
  "KNYBTW": [
    "ALAARX",
    "BFWARX",
    "BILARX",
    "BVCARX",
    "CBNARX",
    "CHYARX",
    "CSPARX",
    "DENAMT",
    "DENAMT2",
    "DUGARX",
    "FMGBTW",
    "FNTARX",
    "FPLARX",
    "GEEARX",
    "GISBTW",
    "GNNARX",
    "GNNARX2",
    "HPHARX",
    "LNKGLI",
    "LXNBTW",
    "MDIARX",
    "MFFARX",
    "NBEARX",
    "NLKARX",
    "NTTBTW",
    "OLLBTW",
    "OMAARX",
    "OMABTW",
    "PJTARX",
    "PNCARX",
    "SCYARX",
    "SDAARX",
    "SHRARX",
    "SLGBTW",
    "WHTARX"
  ],
  "LNKGLI": [
    "ALAARX",
    "BFWARX",
    "BILARX",
    "BVCARX",
    "CBNARX",
    "CHYARX",
    "CSPARX",
    "DENAMT",
    "DENAMT2",
    "DUGARX",
    "FMGBTW",
    "FNTARX",
    "FPLARX",
    "GEEARX",
    "GISBTW",
    "GNNARX",
    "GNNARX2",
    "HPHARX",
    "KNYBTW",
    "LXNBTW",
    "MDIARX",
    "MFFARX",
    "NBEARX",
    "NLKARX",
    "NTTBTW",
    "OLLBTW",
    "OMAARX",
    "OMABTW",
    "PJTARX",
    "PNCARX",
    "SCYARX",
    "SDAARX",
    "SHRARX",
    "SLGBTW",
    "WHTARX"
  ],
  "LXNBTW": [
    "ALAARX",
    "BFWARX",
    "BILARX",
    "BVCARX",
    "CBNARX",
    "CHYARX",
    "CSPARX",
    "DENAMT",
    "DENAMT2",
    "DUGARX",
    "FMGBTW",
    "FNTARX",
    "FPLARX",
    "GEEARX",
    "GISBTW",
    "GNNARX",
    "GNNARX2",
    "HPHARX",
    "KNYBTW",
    "LNKGLI",
    "MDIARX",
    "MFFARX",
    "NBEARX",
    "NLKARX",
    "NTTBTW",
    "OLLBTW",
    "OMAARX",
    "OMABTW",
    "PJTARX",
    "PNCARX",
    "SCYARX",
    "SDAARX",
    "SHRARX",
    "SLGBTW",
    "WHTARX"
  ],
  "MDIARX": [
    "ALAARX",
    "BFWARX",
    "BILARX",
    "BVCARX",
    "CBNARX",
    "CSPARX",
    "DENAMT",
    "DENAMT2",
    "DUGARX",
    "FMGBTW",
    "FNTARX",
    "FPLARX",
    "GEEARX",
    "GISBTW",
    "GNNARX",
    "GNNARX2",
    "HPHARX",
    "KNYBTW",
    "LNKGLI",
    "LXNBTW",
    "MFFARX",
    "NBEARX",
    "NLKARX",
    "NTTBTW",
    "OLLBTW",
    "OMAARX",
    "OMABTW",
    "PJTARX",
    "PNCARX",
    "SCYARX",
    "SDAARX",
    "SHRARX",
    "SLGBTW",
    "WHTARX"
  ],
  "MFFARX": [
    "ALAARX",
    "BFWARX",
    "BILARX",
    "BVCARX",
    "CBNARX",
    "CHYARX",
    "CSPARX",
    "DENAMT",
    "DENAMT2",
    "DUGARX",
    "FMGBTW",
    "FNTARX",
    "FPLARX",
    "GISBTW",
    "GNNARX",
    "GNNARX2",
    "HPHARX",
    "KNYBTW",
    "LNKGLI",
    "LXNBTW",
    "MDIARX",
    "NBEARX",
    "NLKARX",
    "NTTBTW",
    "OLLBTW",
    "OMAARX",
    "OMABTW",
    "PJTARX",
    "PNCARX",
    "SCYARX",
    "SDAARX",
    "SHRARX",
    "SLGBTW",
    "WHTARX"
  ],
  "NBEARX": [
    "ALAARX",
    "BFWARX",
    "BILARX",
    "BVCARX",
    "CBNARX",
    "CSPARX",
    "DENAMT",
    "DENAMT2",
    "DUGARX",
    "FMGBTW",
    "FNTARX",
    "FPLARX",
    "GEEARX",
    "GISBTW",
    "GNNARX",
    "GNNARX2",
    "HPHARX",
    "KNYBTW",
    "LNKGLI",
    "LXNBTW",
    "MDIARX",
    "MFFARX",
    "NLKARX",
    "NTTBTW",
    "OLLBTW",
    "OMAARX",
    "OMABTW",
    "PJTARX",
    "PNCARX",
    "SCYARX",
    "SDAARX",
    "SHRARX",
    "SLGBTW",
    "WHTARX"
  ],
  "NLKARX": [
    "ALAARX",
    "BFWARX",
    "BILARX",
    "BVCARX",
    "CBNARX",
    "CSPARX",
    "DENAMT",
    "DENAMT2",
    "DUGARX",
    "FMGBTW",
    "FNTARX",
    "FPLARX",
    "GEEARX",
    "GISBTW",
    "GNNARX",
    "GNNARX2",
    "HPHARX",
    "KNYBTW",
    "LNKGLI",
    "LXNBTW",
    "MDIARX",
    "MFFARX",
    "NBEARX",
    "NTTBTW",
    "OLLBTW",
    "OMAARX",
    "OMABTW",
    "PJTARX",
    "PNCARX",
    "SCYARX",
    "SDAARX",
    "SHRARX",
    "SLGBTW",
    "WHTARX"
  ],
  "NTTBTW": [
    "ALAARX",
    "BFWARX",
    "BILARX",
    "BVCARX",
    "CBNARX",
    "CHYARX",
    "CSPARX",
    "DENAMT",
    "DENAMT2",
    "DUGARX",
    "FMGBTW",
    "FNTARX",
    "FPLARX",
    "GEEARX",
    "GISBTW",
    "GNNARX",
    "GNNARX2",
    "HPHARX",
    "KNYBTW",
    "LNKGLI",
    "LXNBTW",
    "MDIARX",
    "MFFARX",
    "NBEARX",
    "NLKARX",
    "OLLBTW",
    "OMAARX",
    "OMABTW",
    "PJTARX",
    "PNCARX",
    "SCYARX",
    "SDAARX",
    "SHRARX",
    "SLGBTW",
    "WHTARX"
  ],
  "OLLBTW": [
    "ALAARX",
    "BFWARX",
    "BILARX",
    "BVCARX",
    "CBNARX",
    "CHYARX",
    "CSPARX",
    "DENAMT",
    "DENAMT2",
    "DUGARX",
    "FMGBTW",
    "FNTARX",
    "FPLARX",
    "GEEARX",
    "GISBTW",
    "GNNARX",
    "GNNARX2",
    "HPHARX",
    "KNYBTW",
    "LNKGLI",
    "LXNBTW",
    "MDIARX",
    "MFFARX",
    "NBEARX",
    "NLKARX",
    "NTTBTW",
    "OMAARX",
    "OMABTW",
    "PJTARX",
    "PNCARX",
    "SCYARX",
    "SDAARX",
    "SHRARX",
    "SLGBTW",
    "WHTARX"
  ],
  "OMAARX": [
    "ALAARX",
    "BFWARX",
    "BILARX",
    "BVCARX",
    "CBNARX",
    "CSPARX",
    "DENAMT",
    "DENAMT2",
    "DUGARX",
    "FMGBTW",
    "FNTARX",
    "FPLARX",
    "GEEARX",
    "GISBTW",
    "GNNARX",
    "GNNARX2",
    "HPHARX",
    "KNYBTW",
    "LNKGLI",
    "LXNBTW",
    "MDIARX",
    "MFFARX",
    "NBEARX",
    "NLKARX",
    "NTTBTW",
    "OLLBTW",
    "OMABTW",
    "PJTARX",
    "PNCARX",
    "SCYARX",
    "SDAARX",
    "SHRARX",
    "SLGBTW",
    "WHTARX"
  ],
  "OMABTW": [
    "ALAARX",
    "BFWARX",
    "BILARX",
    "BVCARX",
    "CBNARX",
    "CHYARX",
    "CSPARX",
    "DENAMT",
    "DENAMT2",
    "DUGARX",
    "FMGBTW",
    "FNTARX",
    "FPLARX",
    "GEEARX",
    "GISBTW",
    "GNNARX",
    "GNNARX2",
    "HPHARX",
    "KNYBTW",
    "LNKGLI",
    "LXNBTW",
    "MDIARX",
    "MFFARX",
    "NBEARX",
    "NLKARX",
    "NTTBTW",
    "OLLBTW",
    "OMAARX",
    "PJTARX",
    "PNCARX",
    "SCYARX",
    "SDAARX",
    "SHRARX",
    "SLGBTW",
    "WHTARX"
  ],
  "PJTARX": [
    "ALAARX",
    "BFWARX",
    "BILARX",
    "BVCARX",
    "CBNARX",
    "CHYARX",
    "CSPARX",
    "DENAMT",
    "DENAMT2",
    "DUGARX",
    "FMGBTW",
    "FNTARX",
    "FPLARX",
    "GISBTW",
    "GNNARX",
    "GNNARX2",
    "HPHARX",
    "KNYBTW",
    "LNKGLI",
    "LXNBTW",
    "MDIARX",
    "MFFARX",
    "NBEARX",
    "NLKARX",
    "NTTBTW",
    "OLLBTW",
    "OMAARX",
    "OMABTW",
    "PNCARX",
    "SCYARX",
    "SDAARX",
    "SHRARX",
    "SLGBTW",
    "WHTARX"
  ],
  "PNCARX": [
    "ALAARX",
    "BFWARX",
    "BILARX",
    "BVCARX",
    "CBNARX",
    "CHYARX",
    "CSPARX",
    "DENAMT",
    "DENAMT2",
    "DUGARX",
    "FMGBTW",
    "FNTARX",
    "FPLARX",
    "GISBTW",
    "GNNARX",
    "GNNARX2",
    "HPHARX",
    "KNYBTW",
    "LNKGLI",
    "LXNBTW",
    "MDIARX",
    "MFFARX",
    "NBEARX",
    "NLKARX",
    "NTTBTW",
    "OLLBTW",
    "OMAARX",
    "OMABTW",
    "PJTARX",
    "SCYARX",
    "SDAARX",
    "SHRARX",
    "SLGBTW",
    "WHTARX"
  ],
  "SCYARX": [
    "ALAARX",
    "BFWARX",
    "BILARX",
    "BVCARX",
    "CBNARX",
    "CSPARX",
    "DENAMT",
    "DENAMT2",
    "DUGARX",
    "FMGBTW",
    "FNTARX",
    "FPLARX",
    "GEEARX",
    "GISBTW",
    "GNNARX",
    "GNNARX2",
    "HPHARX",
    "KNYBTW",
    "LNKGLI",
    "LXNBTW",
    "MDIARX",
    "MFFARX",
    "NBEARX",
    "NLKARX",
    "NTTBTW",
    "OLLBTW",
    "OMAARX",
    "OMABTW",
    "PJTARX",
    "PNCARX",
    "SDAARX",
    "SHRARX",
    "SLGBTW",
    "WHTARX"
  ],
  "SDAARX": [
    "ALAARX",
    "BFWARX",
    "BILARX",
    "BVCARX",
    "CBNARX",
    "CHYARX",
    "CSPARX",
    "DENAMT",
    "DENAMT2",
    "DUGARX",
    "FMGBTW",
    "FNTARX",
    "FPLARX",
    "GISBTW",
    "GNNARX",
    "GNNARX2",
    "HPHARX",
    "KNYBTW",
    "LNKGLI",
    "LXNBTW",
    "MDIARX",
    "MFFARX",
    "NBEARX",
    "NLKARX",
    "NTTBTW",
    "OLLBTW",
    "OMAARX",
    "OMABTW",
    "PJTARX",
    "PNCARX",
    "SCYARX",
    "SHRARX",
    "SLGBTW",
    "WHTARX"
  ],
  "SHRARX": [
    "ALAARX",
    "BFWARX",
    "BILARX",
    "BVCARX",
    "CBNARX",
    "CHYARX",
    "CSPARX",
    "DENAMT",
    "DENAMT2",
    "DUGARX",
    "FMGBTW",
    "FNTARX",
    "FPLARX",
    "GEEARX",
    "GISBTW",
    "GNNARX",
    "GNNARX2",
    "HPHARX",
    "KNYBTW",
    "LNKGLI",
    "LXNBTW",
    "MDIARX",
    "MFFARX",
    "NBEARX",
    "NLKARX",
    "NTTBTW",
    "OLLBTW",
    "OMAARX",
    "OMABTW",
    "PJTARX",
    "PNCARX",
    "SCYARX",
    "SDAARX",
    "SLGBTW",
    "WHTARX"
  ],
  "SLGBTW": [
    "ALAARX",
    "BFWARX",
    "BILARX",
    "BVCARX",
    "CBNARX",
    "CHYARX",
    "CSPARX",
    "DENAMT",
    "DENAMT2",
    "DUGARX",
    "FMGBTW",
    "FNTARX",
    "FPLARX",
    "GEEARX",
    "GISBTW",
    "GNNARX",
    "GNNARX2",
    "HPHARX",
    "KNYBTW",
    "LNKGLI",
    "LXNBTW",
    "MDIARX",
    "MFFARX",
    "NBEARX",
    "NLKARX",
    "NTTBTW",
    "OLLBTW",
    "OMAARX",
    "OMABTW",
    "PJTARX",
    "PNCARX",
    "SCYARX",
    "SDAARX",
    "SHRARX",
    "WHTARX"
  ],
  "WHTARX": [
    "ALAARX",
    "BFWARX",
    "BILARX",
    "BVCARX",
    "CBNARX",
    "CHYARX",
    "CSPARX",
    "DENAMT",
    "DENAMT2",
    "DUGARX",
    "FMGBTW",
    "FNTARX",
    "FPLARX",
    "GEEARX",
    "GISBTW",
    "GNNARX",
    "GNNARX2",
    "HPHARX",
    "KNYBTW",
    "LNKGLI",
    "LXNBTW",
    "MDIARX",
    "MFFARX",
    "NBEARX",
    "NLKARX",
    "NTTBTW",
    "OLLBTW",
    "OMAARX",
    "OMABTW",
    "PJTARX",
    "PNCARX",
    "SCYARX",
    "SDAARX",
    "SHRARX",
    "SLGBTW"
  ]
}