{
  "AMIBTW": [
    "ATCBTW",
    "BNLAMT",
    "BRLBTW",
    "CHIGLI3",
    "CHMAMT",
    "CRRBTW",
    "CTNBTW",
    "DBQBTW",
    "DENAMT2",
    "DPTAMT",
    "DSMAMT",
    "DVIBTW",
    "FMGBTW",
    "FRFBTW",
    "GBBAMT",
    "GBBBTW",
    "GISBTW",
    "GLABTW",
    "GLLBTW",
    "INDAMT",
    "IOWCTC",
    "KEOBTW",
    "KNYBTW",
    "LNKGLI",
    "LXNBTW",
    "MSHBTW",
    "NPVAMT",
    "NTTBTW",
    "OLLBTW",
    "OMABTW",
    "OTTBTW",
    "PERBTW",
    "PIAAMT",
    "QCYBTW",
    "RCKBTW",
    "RKIBTW",
    "SLGBTW",
    "STCBTW",
    "STLAMT",
    "WLTBTW",
    "WRLBTW"
  ],
  "ATCBTW": [
    "AMIBTW",
    "BLGBTW",
    "BNLAMT",
    "BRLBTW",
    "CHIGLI3",
    "CHMAMT",
    "CTNBTW",
    "DBQBTW",
    "DENAMT2",
    "DPTAMT",
    "DSMAMT",
    "DVIBTW",
    "FMGBTW",
    "FRFBTW",
    "GBBAMT",
    "GBBBTW",
    "GISBTW",
    "GLABTW",
    "GLLBTW",
    "HBLBTW",
    "INDAMT",
    "IOWCTC",
    "KEOBTW",
    "KNYBTW",
    "LNKGLI",
    "LXNBTW",
    "NPVAMT",
    "NTTBTW",
    "OLLBTW",
    "OMABTW",
    "OTMAMT",
    "OTTBTW",
    "PERBTW",
    "PIAAMT",
    "QCYBTW",
    "RKIBTW",
    "SLGBTW",
    "STCBTW",
    "STLAMT",
    "STLBTW",
    "TROBTW",
    "WLTBTW",
    "WTZBTW"
  ],
  "BLGBTW": [
    "AMIBTW",
    "ATCBTW",
    "BNLAMT",
    "BRLBTW",
    "CHIGLI3",
    "CHMAMT",
    "CRRBTW",
    "CTNBTW",
    "DBQBTW",
    "DENAMT2",
    "DPTAMT",
    "DSMAMT",
    "DVIBTW",
    "FMGBTW",
    "FRFBTW",
    "GBBAMT",
    "GBBBTW",
    "GISBTW",
    "GLABTW",
    "GLLBTW",
    "HBLBTW",
    "INDAMT",
    "IOWCTC",
    "KEOBTW",
    "KNYBTW",
    "LNKGLI",
    "LXNBTW",
    "MSHBTW",
    "NPVAMT",
    "NTTBTW",
    "OLLBTW",
    "OMABTW",
    "OTMAMT",
    "OTTBTW",
    "PERBTW",
    "PIAAMT",
    "QCYBTW",
    "RCKBTW",
    "RKIBTW",
    "SLGBTW",
    "STCBTW",
    "STLAMT",
    "STLBTW",
    "TROBTW",
    "WLTBTW",
    "WRLBTW",
    "WTZBTW"
  ],
  "BNLAMT": [
    "AMIBTW",
    "ATCBTW",
    "BLGBTW",
    "BRLBTW",
    "CHIGLI3",
    "CHMAMT",
    "CRRBTW",
    "CTNBTW",
    "DBQBTW",
    "DENAMT2",
    "DPTAMT",
    "DSMAMT",
    "DVIBTW",
    "FMGBTW",
    "FRFBTW",
    "GBBAMT",
    "GBBBTW",
    "GISBTW",
    "GLABTW",
    "GLLBTW",
    "HBLBTW",
    "INDAMT",
    "IOWCTC",
    "KEOBTW",
    "KNYBTW",
    "LNKGLI",
    "LXNBTW",
    "MSHBTW",
    "NPVAMT",
    "NTTBTW",
    "OLLBTW",
    "OMABTW",
    "OTMAMT",
    "OTTBTW",
    "PIAAMT",
    "QCYBTW",
    "RCKBTW",
    "RKIBTW",
    "SLGBTW",
    "STCBTW",
    "STLAMT",
    "STLBTW",
    "TROBTW",
    "WLTBTW",
    "WRLBTW",
    "WTZBTW"
  ],
  "BRLBTW": [
    "AMIBTW",
    "ATCBTW",
    "BLGBTW",
    "BNLAMT",
    "CHIGLI3",
    "CHMAMT",
    "CRRBTW",
    "CTNBTW",
    "DBQBTW",
    "DENAMT2",
    "DPTAMT",
    "DSMAMT",
    "DVIBTW",
    "FMGBTW",
    "FRFBTW",
    "GBBAMT",
    "GBBBTW",
    "GISBTW",
    "GLABTW",
    "GLLBTW",
    "HBLBTW",
    "INDAMT",
    "IOWCTC",
    "KEOBTW",
    "KNYBTW",
    "LNKGLI",
    "LXNBTW",
    "MSHBTW",
    "NPVAMT",
    "NTTBTW",
    "OLLBTW",
    "OMABTW",
    "OTMAMT",
    "PIAAMT",
    "QCYBTW",
    "RCKBTW",
    "RKIBTW",
    "SLGBTW",
    "STCBTW",
    "STLAMT",
    "STLBTW",
    "TROBTW",
    "WLTBTW",
    "WRLBTW",
    "WTZBTW"
  ],
  "CHIGLI3": [
    "AMIBTW",
    "ATCBTW",
    "BLGBTW",
    "BRLBTW",
    "CRRBTW",
    "CTNBTW",
    "DBQBTW",
    "DENAMT2",
    "DPTAMT",
    "DSMAMT",
    "FMGBTW",
    "FRFBTW",
    "GBBAMT",
    "GBBBTW",
    "GISBTW",
    "GLABTW",
    "GLLBTW",
    "HBLBTW",
    "IOWCTC",
    "KEOBTW",
    "KNYBTW",
    "LNKGLI",
    "LXNBTW",
    "MSHBTW",
    "NPVAMT",
    "NTTBTW",
    "OLLBTW",
    "OMABTW",
    "OTMAMT",
    "OTTBTW",
    "PERBTW",
    "QCYBTW",
    "RCKBTW",
    "RKIBTW",
    "SLGBTW",
    "STCBTW",
    "TROBTW",
    "WLTBTW",
    "WRLBTW"
  ],
  "CHMAMT": [
    "AMIBTW",
    "ATCBTW",
    "BNLAMT",
    "BRLBTW",
    "CRRBTW",
    "CTNBTW",
    "DENAMT2",
    "DPTAMT",
    "DSMAMT",
    "DVIBTW",
    "FMGBTW",
    "FRFBTW",
    "GBBAMT",
    "GBBBTW",
    "GISBTW",
    "GLLBTW",
    "HBLBTW",
    "INDAMT",
    "IOWCTC",
    "KEOBTW",
    "KNYBTW",
    "LNKGLI",
    "LXNBTW",
    "NTTBTW",
    "OLLBTW",
    "OMABTW",
    "OTMAMT",
    "PIAAMT",
    "QCYBTW",
    "RKIBTW",
    "SLGBTW",
    "WLTBTW"
  ],
  "CRRBTW": [
    "AMIBTW",
    "ATCBTW",
    "BLGBTW",
    "BNLAMT",
    "BRLBTW",
    "CHIGLI3",
    "CHMAMT",
    "CTNBTW",
    "DBQBTW",
    "DENAMT2",
    "DPTAMT",
    "DSMAMT",
    "DVIBTW",
    "FMGBTW",
    "FRFBTW",
    "GBBAMT",
    "GBBBTW",
    "GISBTW",
    "GLABTW",
    "GLLBTW",
    "HBLBTW",
    "INDAMT",
    "IOWCTC",
    "KEOBTW",
    "KNYBTW",
    "LNKGLI",
    "LXNBTW",
    "MSHBTW",
    "NPVAMT",
    "NTTBTW",
    "OLLBTW",
    "OMABTW",
    "OTMAMT",
    "OTTBTW",
    "PIAAMT",
    "QCYBTW",
    "RCKBTW",
    "RKIBTW",
    "SLGBTW",
    "STCBTW",
    "STLAMT",
    "STLBTW",
    "TROBTW",
    "WLTBTW",
    "WRLBTW",
    "WTZBTW"
  ],
  "CTNBTW": [
    "AMIBTW",
    "ATCBTW",
    "BLGBTW",
    "BNLAMT",
    "BRLBTW",
    "CHIGLI3",
    "CHMAMT",
    "CRRBTW",
    "DBQBTW",
    "DENAMT2",
    "DPTAMT",
    "DSMAMT",
    "DVIBTW",
    "FMGBTW",
    "FRFBTW",
    "GBBAMT",
    "GBBBTW",
    "GISBTW",
    "GLABTW",
    "GLLBTW",
    "HBLBTW",
    "INDAMT",
    "IOWCTC",
    "KEOBTW",
    "KNYBTW",
    "LNKGLI",
    "LXNBTW",
    "MSHBTW",
    "NPVAMT",
    "NTTBTW",
    "OLLBTW",
    "OMABTW",
    "OTMAMT",
    "OTTBTW",
    "PERBTW",
    "PIAAMT",
    "QCYBTW",
    "RCKBTW",
    "RKIBTW",
    "SLGBTW",
    "STCBTW",
    "STLAMT",
    "STLBTW",
    "TROBTW",
    "WLTBTW",
    "WRLBTW",
    "WTZBTW"
  ],
  "DBQBTW": [
    "AMIBTW",
    "ATCBTW",
    "BLGBTW",
    "BNLAMT",
    "BRLBTW",
    "CHIGLI3",
    "CHMAMT",
    "CRRBTW",
    "CTNBTW",
    "DENAMT2",
    "DPTAMT",
    "DSMAMT",
    "DVIBTW",
    "FMGBTW",
    "FRFBTW",
    "GBBAMT",
    "GBBBTW",
    "GISBTW",
    "GLABTW",
    "GLLBTW",
    "HBLBTW",
    "INDAMT",
    "IOWCTC",
    "KEOBTW",
    "KNYBTW",
    "LNKGLI",
    "LXNBTW",
    "MSHBTW",
    "NPVAMT",
    "NTTBTW",
    "OLLBTW",
    "OMABTW",
    "OTMAMT",
    "OTTBTW",
    "PERBTW",
    "PIAAMT",
    "QCYBTW",
    "RCKBTW",
    "RKIBTW",
    "SLGBTW",
    "STCBTW",
    "STLAMT",
    "STLBTW",
    "TROBTW",
    "WLTBTW",
    "WRLBTW",
    "WTZBTW"
  ],
  "DENAMT2": [
    "AMIBTW",
    "ATCBTW",
    "BLGBTW",
    "BNLAMT",
    "BRLBTW",
    "CHIGLI3",
    "CHMAMT",
    "CRRBTW",
    "CTNBTW",
    "DBQBTW",
    "DPTAMT",
    "DSMAMT",
    "DVIBTW",
    "FMGBTW",
    "FRFBTW",
    "GBBAMT",
    "GBBBTW",
    "GISBTW",
    "GLABTW",
    "HBLBTW",
    "INDAMT",
    "IOWCTC",
    "KEOBTW",
    "KNYBTW",
    "LNKGLI",
    "LXNBTW",
    "MSHBTW",
    "NPVAMT",
    "NTTBTW",
    "OLLBTW",
    "OMABTW",
    "OTMAMT",
    "PIAAMT",
    "QCYBTW",
    "RCKBTW",
    "RKIBTW",
    "SLGBTW",
    "STCBTW",
    "TROBTW",
    "WLTBTW",
    "WRLBTW",
    "WTZBTW"
  ],
  "DPTAMT": [
    "AMIBTW",
    "ATCBTW",
    "BLGBTW",
    "BNLAMT",
    "BRLBTW",
    "CHIGLI3",
    "CHMAMT",
    "CRRBTW",
    "CTNBTW",
    "DBQBTW",
    "DENAMT2",
    "DSMAMT",
    "FMGBTW",
    "FRFBTW",
    "GBBAMT",
    "GBBBTW",
    "GISBTW",
    "GLABTW",
    "GLLBTW",
    "HBLBTW",
    "INDAMT",
    "IOWCTC",
    "KEOBTW",
    "KNYBTW",
    "LNKGLI",
    "LXNBTW",
    "MSHBTW",
    "NPVAMT",
    "NTTBTW",
    "OLLBTW",
    "OMABTW",
    "OTMAMT",
    "OTTBTW",
    "PERBTW",
    "PIAAMT",
    "QCYBTW",
    "RCKBTW",
    "RKIBTW",
    "SLGBTW",
    "STCBTW",
    "STLAMT",
    "STLBTW",
    "TROBTW",
    "WLTBTW",
    "WRLBTW",
    "WTZBTW"
  ],
  "DSMAMT": [
    "AMIBTW",
    "ATCBTW",
    "BLGBTW",
    "BNLAMT",
    "BRLBTW",
    "CHIGLI3",
    "CHMAMT",
    "CRRBTW",
    "CTNBTW",
    "DBQBTW",
    "DENAMT2",
    "DPTAMT",
    "DVIBTW",
    "FMGBTW",
    "FRFBTW",
    "GBBAMT",
    "GBBBTW",
    "GISBTW",
    "GLABTW",
    "GLLBTW",
    "HBLBTW",
    "INDAMT",
    "IOWCTC",
    "KEOBTW",
    "KNYBTW",
    "LNKGLI",
    "LXNBTW",
    "MSHBTW",
    "NPVAMT",
    "NTTBTW",
    "OLLBTW",
    "OMABTW",
    "OTMAMT",
    "OTTBTW",
    "PERBTW",
    "PIAAMT",
    "QCYBTW",
    "RCKBTW",
    "RKIBTW",
    "SLGBTW",
    "STCBTW",
    "STLAMT",
    "STLBTW",
    "TROBTW",
    "WLTBTW",
    "WRLBTW",
    "WTZBTW"
  ],
  "DVIBTW": [
    "AMIBTW",
    "ATCBTW",
    "BLGBTW",
    "BNLAMT",
    "BRLBTW",
    "CHIGLI3",
    "CHMAMT",
    "CRRBTW",
    "CTNBTW",
    "DBQBTW",
    "DENAMT2",
    "DPTAMT",
    "DSMAMT",
    "FMGBTW",
    "FRFBTW",
    "GBBAMT",
    "GBBBTW",
    "GISBTW",
    "GLABTW",
    "GLLBTW",
    "HBLBTW",
    "INDAMT",
    "IOWCTC",
    "KEOBTW",
    "KNYBTW",
    "LNKGLI",
    "LXNBTW",
    "MSHBTW",
    "NPVAMT",
    "NTTBTW",
    "OLLBTW",
    "OMABTW",
    "OTMAMT",
    "OTTBTW",
    "PERBTW",
    "PIAAMT",
    "QCYBTW",
    "RCKBTW",
    "RKIBTW",
    "SLGBTW",
    "STCBTW",
    "STLAMT",
    "STLBTW",
    "TROBTW",
    "WLTBTW",
    "WRLBTW",
    "WTZBTW"
  ],
  "FMGBTW": [
    "AMIBTW",
    "ATCBTW",
    "BLGBTW",
    "BNLAMT",
    "BRLBTW",
    "CHIGLI3",
    "CHMAMT",
    "CRRBTW",
    "CTNBTW",
    "DBQBTW",
    "DENAMT2",
    "DPTAMT",
    "DSMAMT",
    "DVIBTW",
    "FRFBTW",
    "GBBAMT",
    "GBBBTW",
    "GISBTW",
    "GLABTW",
    "GLLBTW",
    "HBLBTW",
    "INDAMT",
    "IOWCTC",
    "KEOBTW",
    "KNYBTW",
    "LNKGLI",
    "LXNBTW",
    "MSHBTW",
    "NPVAMT",
    "NTTBTW",
    "OLLBTW",
    "OMABTW",
    "OTMAMT",
    "PIAAMT",
    "QCYBTW",
    "RCKBTW",
    "RKIBTW",
    "SLGBTW",
    "STCBTW",
    "STLAMT",
    "STLBTW",
    "TROBTW",
    "WLTBTW",
    "WRLBTW",
    "WTZBTW"
  ],
  "FRFBTW": [
    "AMIBTW",
    "ATCBTW",
    "BLGBTW",
    "BNLAMT",
    "BRLBTW",
    "CHIGLI3",
    "CHMAMT",
    "CRRBTW",
    "CTNBTW",
    "DBQBTW",
    "DENAMT2",
    "DPTAMT",
    "DSMAMT",
    "DVIBTW",
    "FMGBTW",
    "GBBAMT",
    "GBBBTW",
    "GISBTW",
    "GLABTW",
    "GLLBTW",
    "HBLBTW",
    "INDAMT",
    "IOWCTC",
    "KEOBTW",
    "KNYBTW",
    "LNKGLI",
    "LXNBTW",
    "MSHBTW",
    "NPVAMT",
    "NTTBTW",
    "OLLBTW",
    "OMABTW",
    "OTMAMT",
    "OTTBTW",
    "PERBTW",
    "PIAAMT",
    "QCYBTW",
    "RCKBTW",
    "RKIBTW",
    "SLGBTW",
    "STCBTW",
    "STLAMT",
    "STLBTW",
    "TROBTW",
    "WLTBTW",
    "WRLBTW",
    "WTZBTW"
  ],
  "GBBAMT": [
    "AMIBTW",
    "ATCBTW",
    "BLGBTW",
    "BNLAMT",
    "BRLBTW",
    "CHIGLI3",
    "CHMAMT",
    "CRRBTW",
    "CTNBTW",
    "DBQBTW",
    "DENAMT2",
    "DPTAMT",
    "DSMAMT",
    "DVIBTW",
    "FMGBTW",
    "FRFBTW",
    "GBBBTW",
    "GISBTW",
    "GLABTW",
    "GLLBTW",
    "HBLBTW",
    "INDAMT",
    "IOWCTC",
    "KEOBTW",
    "KNYBTW",
    "LNKGLI",
    "LXNBTW",
    "MSHBTW",
    "NPVAMT",
    "NTTBTW",
    "OLLBTW",
    "OMABTW",
    "OTMAMT",
    "OTTBTW",
    "PERBTW",
    "PIAAMT",
    "QCYBTW",
    "RCKBTW",
    "RKIBTW",
    "SLGBTW",
    "STCBTW",
    "STLAMT",
    "STLBTW",
    "TROBTW",
    "WLTBTW",
    "WRLBTW",
    "WTZBTW"
  ],
  "GBBBTW": [
    "AMIBTW",
    "ATCBTW",
    "BLGBTW",
    "BNLAMT",
    "BRLBTW",
    "CHIGLI3",
    "CHMAMT",
    "CRRBTW",
    "CTNBTW",
    "DBQBTW",
    "DENAMT2",
    "DPTAMT",
    "DSMAMT",
    "DVIBTW",
    "FMGBTW",
    "FRFBTW",
    "GBBAMT",
    "GISBTW",
    "GLABTW",
    "GLLBTW",
    "HBLBTW",
    "INDAMT",
    "IOWCTC",
    "KEOBTW",
    "KNYBTW",
    "LNKGLI",
    "LXNBTW",
    "MSHBTW",
    "NPVAMT",
    "NTTBTW",
    "OLLBTW",
    "OMABTW",
    "OTMAMT",
    "OTTBTW",
    "PERBTW",
    "PIAAMT",
    "QCYBTW",
    "RCKBTW",
    "RKIBTW",
    "SLGBTW",
    "STCBTW",
    "STLAMT",
    "STLBTW",
    "TROBTW",
    "WLTBTW",
    "WRLBTW",
    "WTZBTW"
  ],
  "GISBTW": [
    "AMIBTW",
    "ATCBTW",
    "BLGBTW",
    "BNLAMT",
    "BRLBTW",
    "CHIGLI3",
    "CHMAMT",
    "CRRBTW",
    "CTNBTW",
    "DBQBTW",
    "DENAMT2",
    "DPTAMT",
    "DSMAMT",
    "DVIBTW",
    "FMGBTW",
    "FRFBTW",
    "GBBAMT",
    "GBBBTW",
    "GLABTW",
    "GLLBTW",
    "HBLBTW",
    "INDAMT",
    "IOWCTC",
    "KEOBTW",
    "KNYBTW",
    "LNKGLI",
    "LXNBTW",
    "MSHBTW",
    "NPVAMT",
    "NTTBTW",
    "OLLBTW",
    "OMABTW",
    "OTMAMT",
    "PIAAMT",
    "QCYBTW",
    "RCKBTW",
    "RKIBTW",
    "SLGBTW",
    "STCBTW",
    "STLAMT",
    "STLBTW",
    "TROBTW",
    "WLTBTW",
    "WRLBTW",
    "WTZBTW"
  ],
  "GLABTW": [
    "AMIBTW",
    "ATCBTW",
    "BLGBTW",
    "BNLAMT",
    "BRLBTW",
    "CHIGLI3",
    "CHMAMT",
    "CRRBTW",
    "CTNBTW",
    "DBQBTW",
    "DENAMT2",
    "DPTAMT",
    "DSMAMT",
    "DVIBTW",
    "FMGBTW",
    "FRFBTW",
    "GBBAMT",
    "GBBBTW",
    "GISBTW",
    "GLLBTW",
    "HBLBTW",
    "INDAMT",
    "IOWCTC",
    "KEOBTW",
    "KNYBTW",
    "LNKGLI",
    "LXNBTW",
    "MSHBTW",
    "NPVAMT",
    "NTTBTW",
    "OLLBTW",
    "OMABTW",
    "OTMAMT",
    "OTTBTW",
    "PERBTW",
    "PIAAMT",
    "QCYBTW",
    "RCKBTW",
    "RKIBTW",
    "SLGBTW",
    "STCBTW",
    "STLAMT",
    "STLBTW",
    "TROBTW",
    "WLTBTW",
    "WRLBTW",
    "WTZBTW"
  ],
  "GLLBTW": [
    "AMIBTW",
    "ATCBTW",
    "CHIGLI3",
    "DBQBTW",
    "DENAMT2",
    "DPTAMT",
    "DSMAMT",
    "DVIBTW",
    "FMGBTW",
    "GISBTW",
    "GLABTW",
    "INDAMT",
    "IOWCTC",
    "KNYBTW",
    "LNKGLI",
    "LXNBTW",
    "NPVAMT",
    "NTTBTW",
    "OLLBTW",
    "OMABTW",
    "OTTBTW",
    "PERBTW",
    "RCKBTW",
    "SLGBTW",
    "STCBTW",
    "STLAMT",
    "STLBTW",
    "WLTBTW",
    "WTZBTW"
  ],
  "HBLBTW": [
    "AMIBTW",
    "ATCBTW",
    "BLGBTW",
    "BNLAMT",
    "BRLBTW",
    "CHIGLI3",
    "CHMAMT",
    "CRRBTW",
    "CTNBTW",
    "DBQBTW",
    "DENAMT2",
    "DPTAMT",
    "DSMAMT",
    "DVIBTW",
    "FMGBTW",
    "FRFBTW",
    "GBBAMT",
    "GBBBTW",
    "GISBTW",
    "GLABTW",
    "GLLBTW",
    "INDAMT",
    "IOWCTC",
    "KEOBTW",
    "KNYBTW",
    "LNKGLI",
    "LXNBTW",
    "MSHBTW",
    "NPVAMT",
    "NTTBTW",
    "OLLBTW",
    "OMABTW",
    "OTMAMT",
    "OTTBTW",
    "PERBTW",
    "PIAAMT",
    "QCYBTW",
    "RCKBTW",
    "RKIBTW",
    "SLGBTW",
    "STCBTW",
    "STLAMT",
    "STLBTW",
    "TROBTW",
    "WLTBTW",
    "WRLBTW",
    "WTZBTW"
  ],
  "INDAMT": [
    "AMIBTW",
    "ATCBTW",
    "BNLAMT",
    "BRLBTW",
    "CHMAMT",
    "CRRBTW",
    "CTNBTW",
    "DENAMT2",
    "DPTAMT",
    "DSMAMT",
    "DVIBTW",
    "FMGBTW",
    "FRFBTW",
    "GBBAMT",
    "GBBBTW",
    "GISBTW",
    "HBLBTW",
    "IOWCTC",
    "KEOBTW",
    "KNYBTW",
    "LNKGLI",
    "LXNBTW",
    "NTTBTW",
    "OLLBTW",
    "OMABTW",
    "OTMAMT",
    "PIAAMT",
    "QCYBTW",
    "RKIBTW",
    "SLGBTW",
    "STLAMT",
    "WLTBTW"
  ],
  "IOWCTC": [
    "AMIBTW",
    "ATCBTW",
    "BLGBTW",
    "BNLAMT",
    "BRLBTW",
    "CHIGLI3",
    "CHMAMT",
    "CRRBTW",
    "CTNBTW",
    "DBQBTW",
    "DENAMT2",
    "DPTAMT",
    "DSMAMT",
    "DVIBTW",
    "FMGBTW",
    "FRFBTW",
    "GBBAMT",
    "GBBBTW",
    "GISBTW",
    "GLABTW",
    "GLLBTW",
    "HBLBTW",
    "INDAMT",
    "KEOBTW",
    "KNYBTW",
    "LNKGLI",
    "LXNBTW",
    "MSHBTW",
    "NPVAMT",
    "NTTBTW",
    "OLLBTW",
    "OMABTW",
    "OTMAMT",
    "OTTBTW",
    "PERBTW",
    "PIAAMT",
    "QCYBTW",
    "RCKBTW",
    "RKIBTW",
    "SLGBTW",
    "STCBTW",
    "STLAMT",
    "STLBTW",
    "TROBTW",
    "WLTBTW",
    "WRLBTW",
    "WTZBTW"
  ],
  "KEOBTW": [
    "AMIBTW",
    "ATCBTW",
    "BLGBTW",
    "BNLAMT",
    "BRLBTW",
    "CHIGLI3",
    "CHMAMT",
    "CRRBTW",
    "CTNBTW",
    "DBQBTW",
    "DENAMT2",
    "DPTAMT",
    "DSMAMT",
    "DVIBTW",
    "FMGBTW",
    "FRFBTW",
    "GBBAMT",
    "GBBBTW",
    "GISBTW",
    "GLABTW",
    "GLLBTW",
    "HBLBTW",
    "INDAMT",
    "IOWCTC",
    "KNYBTW",
    "LNKGLI",
    "LXNBTW",
    "MSHBTW",
    "NPVAMT",
    "NTTBTW",
    "OLLBTW",
    "OMABTW",
    "OTMAMT",
    "OTTBTW",
    "PERBTW",
    "PIAAMT",
    "QCYBTW",
    "RCKBTW",
    "RKIBTW",
    "SLGBTW",
    "STCBTW",
    "STLAMT",
    "STLBTW",
    "TROBTW",
    "WLTBTW",
    "WRLBTW",
    "WTZBTW"
  ],
  "KNYBTW": [
    "AMIBTW",
    "ATCBTW",
    "BLGBTW",
    "BNLAMT",
    "BRLBTW",
    "CHIGLI3",
    "CHMAMT",
    "CRRBTW",
    "CTNBTW",
    "DBQBTW",
    "DENAMT2",
    "DPTAMT",
    "DSMAMT",
    "DVIBTW",
    "FMGBTW",
    "FRFBTW",
    "GBBAMT",
    "GBBBTW",
    "GISBTW",
    "GLABTW",
    "GLLBTW",
    "HBLBTW",
    "INDAMT",
    "IOWCTC",
    "KEOBTW",
    "LNKGLI",
    "LXNBTW",
    "MSHBTW",
    "NPVAMT",
    "NTTBTW",
    "OLLBTW",
    "OMABTW",
    "OTMAMT",
    "PIAAMT",
    "QCYBTW",
    "RCKBTW",
    "RKIBTW",
    "SLGBTW",
    "STCBTW",
    "STLAMT",
    "STLBTW",
    "TROBTW",
    "WLTBTW",
    "WRLBTW",
    "WTZBTW"
  ],
  "LNKGLI": [
    "AMIBTW",
    "ATCBTW",
    "BLGBTW",
    "BNLAMT",
    "BRLBTW",
    "CHIGLI3",
    "CHMAMT",
    "CRRBTW",
    "CTNBTW",
    "DBQBTW",
    "DENAMT2",
    "DPTAMT",
    "DSMAMT",
    "DVIBTW",
    "FMGBTW",
    "FRFBTW",
    "GBBAMT",
    "GBBBTW",
    "GISBTW",
    "GLABTW",
    "GLLBTW",
    "HBLBTW",
    "INDAMT",
    "IOWCTC",
    "KEOBTW",
    "KNYBTW",
    "LXNBTW",
    "MSHBTW",
    "NPVAMT",
    "NTTBTW",
    "OLLBTW",
    "OMABTW",
    "OTMAMT",
    "PIAAMT",
    "QCYBTW",
    "RCKBTW",
    "RKIBTW",
    "SLGBTW",
    "STCBTW",
    "STLAMT",
    "STLBTW",
    "TROBTW",
    "WLTBTW",
    "WRLBTW",
    "WTZBTW"
  ],
  "LXNBTW": [
    "AMIBTW",
    "ATCBTW",
    "BLGBTW",
    "BNLAMT",
    "BRLBTW",
    "CHIGLI3",
    "CHMAMT",
    "CRRBTW",
    "CTNBTW",
    "DBQBTW",
    "DENAMT2",
    "DPTAMT",
    "DSMAMT",
    "DVIBTW",
    "FMGBTW",
    "FRFBTW",
    "GBBAMT",
    "GBBBTW",
    "GISBTW",
    "GLABTW",
    "GLLBTW",
    "HBLBTW",
    "INDAMT",
    "IOWCTC",
    "KEOBTW",
    "KNYBTW",
    "LNKGLI",
    "MSHBTW",
    "NPVAMT",
    "NTTBTW",
    "OLLBTW",
    "OMABTW",
    "OTMAMT",
    "PIAAMT",
    "QCYBTW",
    "RCKBTW",
    "RKIBTW",
    "SLGBTW",
    "STCBTW",
    "STLAMT",
    "STLBTW",
    "TROBTW",
    "WLTBTW",
    "WRLBTW",
    "WTZBTW"
  ],
  "MSHBTW": [
    "AMIBTW",
    "ATCBTW",
    "BLGBTW",
    "BNLAMT",
    "BRLBTW",
    "CHIGLI3",
    "CHMAMT",
    "CRRBTW",
    "CTNBTW",
    "DBQBTW",
    "DENAMT2",
    "DPTAMT",
    "DSMAMT",
    "DVIBTW",
    "FMGBTW",
    "FRFBTW",
    "GBBAMT",
    "GBBBTW",
    "GISBTW",
    "GLABTW",
    "GLLBTW",
    "HBLBTW",
    "INDAMT",
    "IOWCTC",
    "KEOBTW",
    "KNYBTW",
    "LNKGLI",
    "LXNBTW",
    "NPVAMT",
    "NTTBTW",
    "OLLBTW",
    "OMABTW",
    "OTTBTW",
    "PERBTW",
    "PIAAMT",
    "QCYBTW",
    "RCKBTW",
    "RKIBTW",
    "SLGBTW",
    "STCBTW",
    "STLAMT",
    "STLBTW",
    "TROBTW",
    "WLTBTW",
    "WRLBTW",
    "WTZBTW"
  ],
  "NPVAMT": [
    "AMIBTW",
    "ATCBTW",
    "BLGBTW",
    "BNLAMT",
    "BRLBTW",
    "CRRBTW",
    "CTNBTW",
    "DBQBTW",
    "DENAMT2",
    "DPTAMT",
    "DSMAMT",
    "FMGBTW",
    "FRFBTW",
    "GBBAMT",
    "GBBBTW",
    "GISBTW",
    "GLABTW",
    "GLLBTW",
    "HBLBTW",
    "INDAMT",
    "IOWCTC",
    "KEOBTW",
    "KNYBTW",
    "LNKGLI",
    "LXNBTW",
    "MSHBTW",
    "NTTBTW",
    "OLLBTW",
    "OMABTW",
    "OTMAMT",
    "PIAAMT",
    "QCYBTW",
    "RKIBTW",
    "SLGBTW",
    "STCBTW",
    "STLAMT",
    "STLBTW",
    "TROBTW",
    "WLTBTW",
    "WRLBTW",
    "WTZBTW"
  ],
  "NTTBTW": [
    "AMIBTW",
    "ATCBTW",
    "BLGBTW",
    "BNLAMT",
    "BRLBTW",
    "CHIGLI3",
    "CHMAMT",
    "CRRBTW",
    "CTNBTW",
    "DBQBTW",
    "DENAMT2",
    "DPTAMT",
    "DSMAMT",
    "DVIBTW",
    "FMGBTW",
    "FRFBTW",
    "GBBAMT",
    "GBBBTW",
    "GISBTW",
    "GLABTW",
    "GLLBTW",
    "HBLBTW",
    "INDAMT",
    "IOWCTC",
    "KEOBTW",
    "KNYBTW",
    "LNKGLI",
    "LXNBTW",
    "MSHBTW",
    "NPVAMT",
    "OLLBTW",
    "OMABTW",
    "OTMAMT",
    "PIAAMT",
    "QCYBTW",
    "RCKBTW",
    "RKIBTW",
    "SLGBTW",
    "STCBTW",
    "STLAMT",
    "STLBTW",
    "TROBTW",
    "WLTBTW",
    "WRLBTW",
    "WTZBTW"
  ],
  "OLLBTW": [
    "AMIBTW",
    "ATCBTW",
    "BLGBTW",
    "BNLAMT",
    "BRLBTW",
    "CHIGLI3",
    "CHMAMT",
    "CRRBTW",
    "CTNBTW",
    "DBQBTW",
    "DENAMT2",
    "DPTAMT",
    "DSMAMT",
    "DVIBTW",
    "FMGBTW",
    "FRFBTW",
    "GBBAMT",
    "GBBBTW",
    "GISBTW",
    "GLABTW",
    "GLLBTW",
    "HBLBTW",
    "INDAMT",
    "IOWCTC",
    "KEOBTW",
    "KNYBTW",
    "LNKGLI",
    "LXNBTW",
    "MSHBTW",
    "NPVAMT",
    "NTTBTW",
    "OMABTW",
    "OTMAMT",
    "PIAAMT",
    "QCYBTW",
    "RCKBTW",
    "RKIBTW",
    "SLGBTW",
    "STCBTW",
    "STLAMT",
    "STLBTW",
    "TROBTW",
    "WLTBTW",
    "WRLBTW",
    "WTZBTW"
  ],
  "OMABTW": [
    "AMIBTW",
    "ATCBTW",
    "BLGBTW",
    "BNLAMT",
    "BRLBTW",
    "CHIGLI3",
    "CHMAMT",
    "CRRBTW",
    "CTNBTW",
    "DBQBTW",
    "DENAMT2",
    "DPTAMT",
    "DSMAMT",
    "DVIBTW",
    "FMGBTW",
    "FRFBTW",
    "GBBAMT",
    "GBBBTW",
    "GISBTW",
    "GLLBTW",
    "HBLBTW",
    "INDAMT",
    "IOWCTC",
    "KEOBTW",
    "KNYBTW",
    "LNKGLI",
    "LXNBTW",
    "MSHBTW",
    "NPVAMT",
    "NTTBTW",
    "OLLBTW",
    "OTMAMT",
    "OTTBTW",
    "PERBTW",
    "PIAAMT",
    "QCYBTW",
    "RCKBTW",
    "RKIBTW",
    "SLGBTW",
    "STCBTW",
    "STLAMT",
    "STLBTW",
    "TROBTW",
    "WLTBTW",
    "WRLBTW",
    "WTZBTW"
  ],
  "OTMAMT": [
    "AMIBTW",
    "ATCBTW",
    "BLGBTW",
    "BNLAMT",
    "BRLBTW",
    "CHIGLI3",
    "CHMAMT",
    "CRRBTW",
    "CTNBTW",
    "DBQBTW",
    "DENAMT2",
    "DPTAMT",
    "DSMAMT",
    "DVIBTW",
    "FMGBTW",
    "FRFBTW",
    "GBBAMT",
    "GBBBTW",
    "GISBTW",
    "GLABTW",
    "GLLBTW",
    "HBLBTW",
    "INDAMT",
    "IOWCTC",
    "KEOBTW",
    "KNYBTW",
    "LNKGLI",
    "LXNBTW",
    "NPVAMT",
    "NTTBTW",
    "OLLBTW",
    "OMABTW",
    "OTTBTW",
    "PERBTW",
    "PIAAMT",
    "QCYBTW",
    "RCKBTW",
    "RKIBTW",
    "SLGBTW",
    "STCBTW",
    "STLAMT",
    "STLBTW",
    "TROBTW",
    "WLTBTW",
    "WTZBTW"
  ],
  "OTTBTW": [
    "AMIBTW",
    "ATCBTW",
    "BLGBTW",
    "BNLAMT",
    "BRLBTW",
    "CHIGLI3",
    "CRRBTW",
    "CTNBTW",
    "DBQBTW",
    "DENAMT2",
    "DPTAMT",
    "DSMAMT",
    "DVIBTW",
    "FMGBTW",
    "FRFBTW",
    "GBBAMT",
    "GBBBTW",
    "GISBTW",
    "GLABTW",
    "GLLBTW",
    "HBLBTW",
    "INDAMT",
    "IOWCTC",
    "KEOBTW",
    "KNYBTW",
    "LNKGLI",
    "LXNBTW",
    "MSHBTW",
    "NPVAMT",
    "NTTBTW",
    "OLLBTW",
    "OMABTW",
    "OTMAMT",
    "PERBTW",
    "PIAAMT",
    "QCYBTW",
    "RCKBTW",
    "RKIBTW",
    "SLGBTW",
    "STCBTW",
    "STLAMT",
    "STLBTW",
    "TROBTW",
    "WLTBTW",
    "WRLBTW",
    "WTZBTW"
  ],
  "PERBTW": [
    "AMIBTW",
    "ATCBTW",
    "BLGBTW",
    "BNLAMT",
    "BRLBTW",
    "CHIGLI3",
    "CHMAMT",
    "CTNBTW",
    "DBQBTW",
    "DENAMT2",
    "DPTAMT",
    "DSMAMT",
    "DVIBTW",
    "FMGBTW",
    "FRFBTW",
    "GBBAMT",
    "GBBBTW",
    "GISBTW",
    "GLABTW",
    "GLLBTW",
    "HBLBTW",
    "INDAMT",
    "IOWCTC",
    "KEOBTW",
    "KNYBTW",
    "LNKGLI",
    "LXNBTW",
    "MSHBTW",
    "NPVAMT",
    "NTTBTW",
    "OLLBTW",
    "OMABTW",
    "OTMAMT",
    "OTTBTW",
    "PIAAMT",
    "QCYBTW",
    "RCKBTW",
    "RKIBTW",
    "SLGBTW",
    "STCBTW",
    "STLAMT",
    "STLBTW",
    "TROBTW",
    "WLTBTW",
    "WRLBTW",
    "WTZBTW"
  ],
  "PIAAMT": [
    "AMIBTW",
    "ATCBTW",
    "BLGBTW",
    "BNLAMT",
    "BRLBTW",
    "CHIGLI3",
    "CHMAMT",
    "CRRBTW",
    "CTNBTW",
    "DBQBTW",
    "DENAMT2",
    "DPTAMT",
    "DSMAMT",
    "DVIBTW",
    "FMGBTW",
    "FRFBTW",
    "GBBAMT",
    "GBBBTW",
    "GISBTW",
    "GLABTW",
    "GLLBTW",
    "HBLBTW",
    "INDAMT",
    "IOWCTC",
    "KEOBTW",
    "KNYBTW",
    "LNKGLI",
    "LXNBTW",
    "MSHBTW",
    "NPVAMT",
    "NTTBTW",
    "OLLBTW",
    "OMABTW",
    "OTMAMT",
    "OTTBTW",
    "PERBTW",
    "QCYBTW",
    "RCKBTW",
    "RKIBTW",
    "SLGBTW",
    "STCBTW",
    "STLAMT",
    "STLBTW",
    "TROBTW",
    "WLTBTW",
    "WRLBTW",
    "WTZBTW"
  ],
  "QCYBTW": [
    "AMIBTW",
    "ATCBTW",
    "BLGBTW",
    "BNLAMT",
    "BRLBTW",
    "CHIGLI3",
    "CHMAMT",
    "CRRBTW",
    "CTNBTW",
    "DBQBTW",
    "DENAMT2",
    "DPTAMT",
    "DSMAMT",
    "DVIBTW",
    "FMGBTW",
    "FRFBTW",
    "GBBAMT",
    "GBBBTW",
    "GISBTW",
    "GLABTW",
    "GLLBTW",
    "HBLBTW",
    "INDAMT",
    "IOWCTC",
    "KEOBTW",
    "KNYBTW",
    "LNKGLI",
    "LXNBTW",
    "MSHBTW",
    "NPVAMT",
    "NTTBTW",
    "OLLBTW",
    "OMABTW",
    "OTMAMT",
    "OTTBTW",
    "PERBTW",
    "PIAAMT",
    "RCKBTW",
    "RKIBTW",
    "SLGBTW",
    "STCBTW",
    "STLAMT",
    "STLBTW",
    "TROBTW",
    "WLTBTW",
    "WRLBTW",
    "WTZBTW"
  ],
  "RCKBTW": [
    "AMIBTW",
    "ATCBTW",
    "BLGBTW",
    "BNLAMT",
    "BRLBTW",
    "CHIGLI3",
    "CHMAMT",
    "CRRBTW",
    "CTNBTW",
    "DBQBTW",
    "DENAMT2",
    "DPTAMT",
    "DSMAMT",
    "DVIBTW",
    "FMGBTW",
    "FRFBTW",
    "GBBAMT",
    "GBBBTW",
    "GISBTW",
    "GLABTW",
    "GLLBTW",
    "HBLBTW",
    "INDAMT",
    "IOWCTC",
    "KEOBTW",
    "KNYBTW",
    "LNKGLI",
    "LXNBTW",
    "MSHBTW",
    "NPVAMT",
    "NTTBTW",
    "OLLBTW",
    "OMABTW",
    "OTMAMT",
    "OTTBTW",
    "PERBTW",
    "PIAAMT",
    "QCYBTW",
    "RKIBTW",
    "SLGBTW",
    "STCBTW",
    "STLAMT",
    "STLBTW",
    "TROBTW",
    "WLTBTW",
    "WRLBTW",
    "WTZBTW"
  ],
  "RKIBTW": [
    "AMIBTW",
    "ATCBTW",
    "BLGBTW",
    "BNLAMT",
    "CHIGLI3",
    "CHMAMT",
    "CRRBTW",
    "CTNBTW",
    "DBQBTW",
    "DENAMT2",
    "DPTAMT",
    "DSMAMT",
    "DVIBTW",
    "FMGBTW",
    "GBBAMT",
    "GBBBTW",
    "GISBTW",
    "GLABTW",
    "GLLBTW",
    "HBLBTW",
    "INDAMT",
    "IOWCTC",
    "KEOBTW",
    "KNYBTW",
    "LNKGLI",
    "LXNBTW",
    "MSHBTW",
    "NPVAMT",
    "NTTBTW",
    "OLLBTW",
    "OMABTW",
    "OTTBTW",
    "PERBTW",
    "PIAAMT",
    "QCYBTW",
    "RCKBTW",
    "SLGBTW",
    "STCBTW",
    "STLAMT",
    "STLBTW",
    "TROBTW",
    "WLTBTW",
    "WRLBTW",
    "WTZBTW"
  ],
  "SLGBTW": [
    "AMIBTW",
    "ATCBTW",
    "BLGBTW",
    "BNLAMT",
    "BRLBTW",
    "CHIGLI3",
    "CHMAMT",
    "CRRBTW",
    "CTNBTW",
    "DBQBTW",
    "DENAMT2",
    "DPTAMT",
    "DSMAMT",
    "DVIBTW",
    "FMGBTW",
    "FRFBTW",
    "GBBAMT",
    "GBBBTW",
    "GISBTW",
    "GLABTW",
    "GLLBTW",
    "HBLBTW",
    "INDAMT",
    "IOWCTC",
    "KEOBTW",
    "KNYBTW",
    "LNKGLI",
    "LXNBTW",
    "MSHBTW",
    "NPVAMT",
    "NTTBTW",
    "OLLBTW",
    "OMABTW",
    "OTMAMT",
    "PIAAMT",
    "QCYBTW",
    "RCKBTW",
    "RKIBTW",
    "STCBTW",
    "STLAMT",
    "STLBTW",
    "TROBTW",
    "WLTBTW",
    "WRLBTW",
    "WTZBTW"
  ],
  "STCBTW": [
    "AMIBTW",
    "ATCBTW",
    "BLGBTW",
    "BNLAMT",
    "BRLBTW",
    "CHIGLI3",
    "CHMAMT",
    "CRRBTW",
    "CTNBTW",
    "DBQBTW",
    "DENAMT2",
    "DPTAMT",
    "DSMAMT",
    "DVIBTW",
    "FMGBTW",
    "FRFBTW",
    "GBBAMT",
    "GBBBTW",
    "GISBTW",
    "GLABTW",
    "GLLBTW",
    "HBLBTW",
    "INDAMT",
    "IOWCTC",
    "KEOBTW",
    "KNYBTW",
    "LNKGLI",
    "LXNBTW",
    "MSHBTW",
    "NPVAMT",
    "NTTBTW",
    "OLLBTW",
    "OMABTW",
    "OTMAMT",
    "OTTBTW",
    "PERBTW",
    "PIAAMT",
    "QCYBTW",
    "RCKBTW",
    "RKIBTW",
    "SLGBTW",
    "STLAMT",
    "STLBTW",
    "TROBTW",
    "WLTBTW",
    "WRLBTW",
    "WTZBTW"
  ],
  "STLAMT": [
    "ATCBTW",
    "BLGBTW",
    "BRLBTW",
    "CRRBTW",
    "CTNBTW",
    "DPTAMT",
    "DSMAMT",
    "FRFBTW",
    "GBBAMT",
    "GBBBTW",
    "GLLBTW",
    "HBLBTW",
    "IOWCTC",
    "KEOBTW",
    "OTMAMT",
    "PIAAMT",
    "QCYBTW",
    "RKIBTW",
    "STLBTW",
    "TROBTW",
    "WLTBTW",
    "WTZBTW"
  ],
  "STLBTW": [
    "AMIBTW",
    "ATCBTW",
    "BLGBTW",
    "BRLBTW",
    "CRRBTW",
    "CTNBTW",
    "DPTAMT",
    "DSMAMT",
    "DVIBTW",
    "FMGBTW",
    "FRFBTW",
    "GBBAMT",
    "GBBBTW",
    "GISBTW",
    "GLLBTW",
    "HBLBTW",
    "IOWCTC",
    "KEOBTW",
    "KNYBTW",
    "LNKGLI",
    "LXNBTW",
    "MSHBTW",
    "NTTBTW",
    "OLLBTW",
    "OMABTW",
    "OTMAMT",
    "PIAAMT",
    "QCYBTW",
    "RKIBTW",
    "SLGBTW",
    "TROBTW",
    "WLTBTW",
    "WTZBTW"
  ],
  "TROBTW": [
    "AMIBTW",
    "ATCBTW",
    "BLGBTW",
    "BNLAMT",
    "BRLBTW",
    "CHIGLI3",
    "CHMAMT",
    "CRRBTW",
    "CTNBTW",
    "DBQBTW",
    "DENAMT2",
    "DPTAMT",
    "DSMAMT",
    "DVIBTW",
    "FMGBTW",
    "FRFBTW",
    "GBBAMT",
    "GBBBTW",
    "GISBTW",
    "GLABTW",
    "GLLBTW",
    "HBLBTW",
    "INDAMT",
    "IOWCTC",
    "KEOBTW",
    "KNYBTW",
    "LNKGLI",
    "LXNBTW",
    "MSHBTW",
    "NPVAMT",
    "NTTBTW",
    "OLLBTW",
    "OMABTW",
    "OTMAMT",
    "OTTBTW",
    "PERBTW",
    "PIAAMT",
    "QCYBTW",
    "RCKBTW",
    "RKIBTW",
    "SLGBTW",
    "STCBTW",
    "STLAMT",
    "STLBTW",
    "WLTBTW",
    "WRLBTW",
    "WTZBTW"
  ],
  "WLTBTW": [
    "AMIBTW",
    "ATCBTW",
    "BLGBTW",
    "BNLAMT",
    "BRLBTW",
    "CHIGLI3",
    "CHMAMT",
    "CTNBTW",
    "DBQBTW",
    "DENAMT2",
    "DPTAMT",
    "DSMAMT",
    "DVIBTW",
    "FMGBTW",
    "FRFBTW",
    "GBBAMT",
    "GBBBTW",
    "GISBTW",
    "GLABTW",
    "HBLBTW",
    "INDAMT",
    "IOWCTC",
    "KEOBTW",
    "KNYBTW",
    "LNKGLI",
    "LXNBTW",
    "MSHBTW",
    "NPVAMT",
    "NTTBTW",
    "OLLBTW",
    "OMABTW",
    "OTMAMT",
    "OTTBTW",
    "PERBTW",
    "PIAAMT",
    "QCYBTW",
    "RCKBTW",
    "RKIBTW",
    "SLGBTW",
    "STCBTW",
    "STLAMT",
    "STLBTW",
    "TROBTW",
    "WTZBTW"
  ],
  "WRLBTW": [
    "AMIBTW",
    "ATCBTW",
    "BLGBTW",
    "BNLAMT",
    "BRLBTW",
    "CHIGLI3",
    "CHMAMT",
    "CRRBTW",
    "CTNBTW",
    "DBQBTW",
    "DENAMT2",
    "DPTAMT",
    "DSMAMT",
    "DVIBTW",
    "FMGBTW",
    "FRFBTW",
    "GBBAMT",
    "GBBBTW",
    "GISBTW",
    "GLABTW",
    "GLLBTW",
    "HBLBTW",
    "INDAMT",
    "IOWCTC",
    "KEOBTW",
    "KNYBTW",
    "LNKGLI",
    "LXNBTW",
    "MSHBTW",
    "NPVAMT",
    "NTTBTW",
    "OLLBTW",
    "OMABTW",
    "OTMAMT",
    "OTTBTW",
    "PERBTW",
    "PIAAMT",
    "QCYBTW",
    "RCKBTW",
    "RKIBTW",
    "SLGBTW",
    "STCBTW",
    "STLAMT",
    "STLBTW",
    "TROBTW",
    "WLTBTW",
    "WTZBTW"
  ],
  "WTZBTW": [
    "AMIBTW",
    "ATCBTW",
    "BLGBTW",
    "BRLBTW",
    "CHIGLI3",
    "CHMAMT",
    "CRRBTW",
    "CTNBTW",
    "DBQBTW",
    "DENAMT2",
    "DPTAMT",
    "DSMAMT",
    "DVIBTW",
    "FMGBTW",
    "FRFBTW",
    "GBBAMT",
    "GBBBTW",
    "GISBTW",
    "GLABTW",
    "GLLBTW",
    "HBLBTW",
    "INDAMT",
    "IOWCTC",
    "KEOBTW",
    "KNYBTW",
    "LNKGLI",
    "LXNBTW",
    "MSHBTW",
    "NPVAMT",
    "NTTBTW",
    "OLLBTW",
    "OMABTW",
    "OTMAMT",
    "PIAAMT",
    "QCYBTW",
    "RCKBTW",
    "RKIBTW",
    "SLGBTW",
    "STCBTW",
    "STLAMT",
    "STLBTW",
    "TROBTW",
    "WLTBTW",
    "WRLBTW"
  ]
}