{
  "AUGCCC1": [
    "BANCCC1",
    "BLNINH",
    "BOSLOGA",
    "BOSSST",
    "BRKBVC",
    "CAYFSD",
    "CNHCTC",
    "CTHVCW",
    "FNCNWH",
    "GHMAMC",
    "GHMIRV",
    "JKSCCC",
    "LNNTFS",
    "LTLNWH",
    "MRDAHP",
    "NCWESI",
    "NHNTFS",
    "NLDNTC",
    "ORNUNM",
    "PMOCSM",
    "PORAMT",
    "SLMSTC",
    "TLTEXM",
    "WOSWGS",
    "WTVCBC"
  ],
  "BANCCC1": [
    "AUGCCC1",
    "BATMIF",
    "BFTCCK",
    "BLNINH",
    "BOSLOGA",
    "BOSSST",
    "BRKBVC",
    "CAYFSD",
    "CDNMFM",
    "CNHCTC",
    "CTHVCW",
    "DAMWZP",
    "FNCNWH",
    "GHMAMC",
    "GHMIRV",
    "JKSCCC",
    "LCVUPO",
    "LNNTFS",
    "LTLNWH",
    "MRDAHP",
    "NCWESI",
    "NHNTFS",
    "NLDNTC",
    "ORNUNM",
    "PMOCSM",
    "PORAMT",
    "RODMSF",
    "SLMSTC",
    "SRTSBG",
    "TLTEXM",
    "WDRBAS",
    "WOSWGS",
    "WSTHBM",
    "WTVCBC"
  ],
  "BATMIF": [
    "BANCCC1",
    "BFTCCK",
    "BOSLOGA",
    "BOSSST",
    "BRKBVC",
    "CDNMFM",
    "DAMWZP",
    "LCVUPO",
    "PORAMT",
    "RODMSF",
    "SRTSBG",
    "WDRBAS",
    "WSTHBM"
  ],
  "BFTCCK": [
    "BANCCC1",
    "BATMIF",
    "BOSLOGA",
    "BOSSST",
    "BRKBVC",
    "CDNMFM",
    "DAMWZP",
    "LCVUPO",
    "PORAMT",
    "RODMSF",
    "SRTSBG",
    "WDRBAS",
    "WSTHBM"
  ],
  "BLNINH": [
    "AUGCCC1",
    "BANCCC1",
    "BOSLOGA",
    "BOSSST",
    "CAYFSD",
    "CNHCTC",
    "CTHVCW",
    "GHMAMC",
    "GHMIRV",
    "JKSCCC",
    "MHTMTC",
    "MRDAHP",
    "NCWESI",
    "NHNTFS",
    "NLDNTC",
    "ORNUNM",
    "PORAMT",
    "SLMSTC",
    "WOSWGS"
  ],
  "BOSLOGB": [
    "AUGCCC1",
    "BANCCC1",
    "BATMIF",
    "BFTCCK",
    "BLNINH",
    "BOSSST",
    "BRKBVC",
    "CAYFSD",
    "CDNMFM",
    "CNHCTC",
    "CTHVCW",
    "DAMWZP",
    "FNCNWH",
    "GHMAMC",
    "GHMIRV",
    "JKSCCC",
    "LCVUPO",
    "LNNTFS",
    "LTLNWH",
    "MHTMTC",
    "MRDAHP",
    "NCWESI",
    "NHNTFS",
    "NLDNTC",
    "ORNUNM",
    "PMOCSM",
    "PORAMT",
    "RODMSF",
    "SLMSTC",
    "SRTSBG",
    "TLTEXM",
    "WDRBAS",
    "WOSWGS",
    "WSTHBM",
    "WTVCBC"
  ],
  "BOSSST": [
    "AUGCCC1",
    "BANCCC1",
    "BATMIF",
    "BFTCCK",
    "BLNINH",
    "BOSLOGA",
    "BRKBVC",
    "CAYFSD",
    "CDNMFM",
    "CNHCTC",
    "CTHVCW",
    "DAMWZP",
    "FNCNWH",
    "GHMAMC",
    "GHMIRV",
    "JKSCCC",
    "LCVUPO",
    "LNNTFS",
    "LTLNWH",
    "MHTMTC",
    "MRDAHP",
    "NCWESI",
    "NHNTFS",
    "NLDNTC",
    "ORNUNM",
    "PMOCSM",
    "PORAMT",
    "RODMSF",
    "SLMSTC",
    "SRTSBG",
    "TLTEXM",
    "WDRBAS",
    "WOSWGS",
    "WSTHBM",
    "WTVCBC"
  ],
  "BRKBVC": [
    "BANCCC1",
    "BATMIF",
    "BFTCCK",
    "BOSLOGA",
    "BOSSST",
    "CDNMFM",
    "CNHCTC",
    "DAMWZP",
    "FNCNWH",
    "LCVUPO",
    "LNNTFS",
    "LTLNWH",
    "PMOCSM",
    "PORAMT",
    "RODMSF",
    "SRTSBG",
    "TLTEXM",
    "WDRBAS",
    "WSTHBM"
  ],
  "CAYFSD": [
    "AUGCCC1",
    "BANCCC1",
    "BLNINH",
    "BOSLOGA",
    "BOSSST",
    "CNHCTC",
    "CTHVCW",
    "GHMAMC",
    "GHMIRV",
    "JKSCCC",
    "MHTMTC",
    "MRDAHP",
    "NCWESI",
    "NHNTFS",
    "NLDNTC",
    "ORNUNM",
    "PORAMT",
    "SLMSTC",
    "TLTEXM",
    "WOSWGS"
  ],
  "CDNMFM": [
    "BANCCC1",
    "BATMIF",
    "BFTCCK",
    "BOSLOGA",
    "BOSSST",
    "BRKBVC",
    "DAMWZP",
    "LCVUPO",
    "PORAMT",
    "RODMSF",
    "SRTSBG",
    "WDRBAS",
    "WSTHBM"
  ],
  "CNHCTC": [
    "AUGCCC1",
    "BANCCC1",
    "BATMIF",
    "BFTCCK",
    "BLNINH",
    "BOSLOGA",
    "BOSSST",
    "BRKBVC",
    "CAYFSD",
    "CDNMFM",
    "CTHVCW",
    "DAMWZP",
    "FNCNWH",
    "GHMAMC",
    "GHMIRV",
    "JKSCCC",
    "LCVUPO",
    "LNNTFS",
    "LTLNWH",
    "MHTMTC",
    "MRDAHP",
    "NCWESI",
    "NHNTFS",
    "NLDNTC",
    "ORNUNM",
    "PMOCSM",
    "PORAMT",
    "RODMSF",
    "SLMSTC",
    "SRTSBG",
    "TLTEXM",
    "WDRBAS",
    "WOSWGS",
    "WSTHBM"
  ],
  "CTHVCW": [
    "AUGCCC1",
    "BANCCC1",
    "BLNINH",
    "BOSLOGA",
    "BOSSST",
    "CAYFSD",
    "CNHCTC",
    "GHMAMC",
    "GHMIRV",
    "JKSCCC",
    "MHTMTC",
    "MRDAHP",
    "NCWESI",
    "NHNTFS",
    "NLDNTC",
    "ORNUNM",
    "PORAMT",
    "SLMSTC",
    "TLTEXM",
    "WOSWGS"
  ],
  "DAMWZP": [
    "BANCCC1",
    "BATMIF",
    "BFTCCK",
    "BOSLOGA",
    "BOSSST",
    "BRKBVC",
    "CDNMFM",
    "LCVUPO",
    "PORAMT",
    "RODMSF",
    "SRTSBG",
    "WDRBAS",
    "WSTHBM"
  ],
  "FNCNWH": [
    "AUGCCC1",
    "BANCCC1",
    "BATMIF",
    "BFTCCK",
    "BOSLOGA",
    "BOSSST",
    "BRKBVC",
    "CDNMFM",
    "CNHCTC",
    "DAMWZP",
    "LCVUPO",
    "LNNTFS",
    "MHTMTC",
    "NLDNTC",
    "ORNUNM",
    "PMOCSM",
    "PORAMT",
    "RODMSF",
    "SLMSTC",
    "SRTSBG",
    "TLTEXM",
    "WDRBAS",
    "WSTHBM"
  ],
  "GHMAMC": [
    "AUGCCC1",
    "BANCCC1",
    "BOSLOGA",
    "BOSSST",
    "CAYFSD",
    "CNHCTC",
    "CTHVCW",
    "JKSCCC",
    "MHTMTC",
    "MRDAHP",
    "NCWESI",
    "NHNTFS",
    "NLDNTC",
    "ORNUNM",
    "PORAMT",
    "SLMSTC",
    "WOSWGS"
  ],
  "GHMIRV": [
    "AUGCCC1",
    "BANCCC1",
    "BLNINH",
    "BOSLOGA",
    "BOSSST",
    "CAYFSD",
    "CNHCTC",
    "CTHVCW",
    "GHMAMC",
    "JKSCCC",
    "MHTMTC",
    "MRDAHP",
    "NCWESI",
    "NHNTFS",
    "NLDNTC",
    "ORNUNM",
    "PORAMT",
    "SLMSTC",
    "WOSWGS"
  ],
  "JKSCCC": [
    "AUGCCC1",
    "BANCCC1",
    "BLNINH",
    "BOSLOGA",
    "BOSSST",
    "CAYFSD",
    "CNHCTC",
    "CTHVCW",
    "GHMAMC",
    "GHMIRV",
    "MHTMTC",
    "MRDAHP",
    "NCWESI",
    "NHNTFS",
    "NLDNTC",
    "ORNUNM",
    "PORAMT",
    "SLMSTC",
    "WOSWGS"
  ],
  "LCVUPO": [
    "BANCCC1",
    "BATMIF",
    "BFTCCK",
    "BOSLOGA",
    "BOSSST",
    "BRKBVC",
    "CDNMFM",
    "DAMWZP",
    "PORAMT",
    "RODMSF",
    "SRTSBG",
    "WDRBAS",
    "WSTHBM"
  ],
  "LNNTFS": [
    "AUGCCC1",
    "BANCCC1",
    "BATMIF",
    "BFTCCK",
    "BOSLOGA",
    "BOSSST",
    "BRKBVC",
    "CDNMFM",
    "CNHCTC",
    "DAMWZP",
    "FNCNWH",
    "LCVUPO",
    "LTLNWH",
    "MHTMTC",
    "NLDNTC",
    "ORNUNM",
    "PMOCSM",
    "PORAMT",
    "RODMSF",
    "SLMSTC",
    "SRTSBG",
    "TLTEXM",
    "WDRBAS",
    "WSTHBM"
  ],
  "LTLNWH": [
    "AUGCCC1",
    "BANCCC1",
    "BATMIF",
    "BFTCCK",
    "BOSLOGA",
    "BOSSST",
    "BRKBVC",
    "CDNMFM",
    "CNHCTC",
    "DAMWZP",
    "FNCNWH",
    "LCVUPO",
    "LNNTFS",
    "MHTMTC",
    "NLDNTC",
    "ORNUNM",
    "PMOCSM",
    "PORAMT",
    "RODMSF",
    "SLMSTC",
    "SRTSBG",
    "TLTEXM",
    "WDRBAS",
    "WSTHBM"
  ],
  "MHTMTC": [
    "AUGCCC1",
    "BANCCC1",
    "BATMIF",
    "BFTCCK",
    "BLNINH",
    "BOSLOGA",
    "BOSSST",
    "BRKBVC",
    "CAYFSD",
    "CDNMFM",
    "CNHCTC",
    "CTHVCW",
    "DAMWZP",
    "FNCNWH",
    "GHMAMC",
    "GHMIRV",
    "JKSCCC",
    "LCVUPO",
    "LNNTFS",
    "LTLNWH",
    "MRDAHP",
    "NCWESI",
    "NHNTFS",
    "NLDNTC",
    "ORNUNM",
    "PMOCSM",
    "PORAMT",
    "RODMSF",
    "SLMSTC",
    "SRTSBG",
    "TLTEXM",
    "WDRBAS",
    "WOSWGS",
    "WSTHBM"
  ],
  "MRDAHP": [
    "AUGCCC1",
    "BANCCC1",
    "BOSLOGA",
    "BOSSST",
    "CAYFSD",
    "CNHCTC",
    "CTHVCW",
    "MHTMTC",
    "NCWESI",
    "NHNTFS",
    "NLDNTC",
    "ORNUNM",
    "PORAMT",
    "SLMSTC",
    "TLTEXM",
    "WOSWGS"
  ],
  "NCWESI": [
    "AUGCCC1",
    "BANCCC1",
    "BLNINH",
    "BOSLOGA",
    "BOSSST",
    "CAYFSD",
    "CNHCTC",
    "CTHVCW",
    "GHMAMC",
    "GHMIRV",
    "JKSCCC",
    "MHTMTC",
    "MRDAHP",
    "NHNTFS",
    "NLDNTC",
    "ORNUNM",
    "PORAMT",
    "SLMSTC",
    "TLTEXM",
    "WOSWGS"
  ],
  "NHNTFS": [
    "AUGCCC1",
    "BANCCC1",
    "BLNINH",
    "BOSLOGA",
    "BOSSST",
    "CAYFSD",
    "CNHCTC",
    "CTHVCW",
    "GHMAMC",
    "GHMIRV",
    "JKSCCC",
    "MHTMTC",
    "MRDAHP",
    "NCWESI",
    "NLDNTC",
    "ORNUNM",
    "PORAMT",
    "SLMSTC",
    "TLTEXM",
    "WOSWGS"
  ],
  "NLDNTC": [
    "AUGCCC1",
    "BANCCC1",
    "BATMIF",
    "BFTCCK",
    "BLNINH",
    "BOSLOGA",
    "BOSSST",
    "BRKBVC",
    "CAYFSD",
    "CDNMFM",
    "CNHCTC",
    "CTHVCW",
    "DAMWZP",
    "FNCNWH",
    "GHMAMC",
    "GHMIRV",
    "JKSCCC",
    "LCVUPO",
    "LNNTFS",
    "LTLNWH",
    "MHTMTC",
    "MRDAHP",
    "NCWESI",
    "NHNTFS",
    "ORNUNM",
    "PMOCSM",
    "PORAMT",
    "RODMSF",
    "SLMSTC",
    "SRTSBG",
    "TLTEXM",
    "WDRBAS",
    "WOSWGS",
    "WSTHBM"
  ],
  "ORNUNM": [
    "AUGCCC1",
    "BANCCC1",
    "BLNINH",
    "BOSLOGA",
    "BOSSST",
    "CAYFSD",
    "CNHCTC",
    "CTHVCW",
    "FNCNWH",
    "GHMAMC",
    "GHMIRV",
    "JKSCCC",
    "LNNTFS",
    "LTLNWH",
    "MRDAHP",
    "NCWESI",
    "NHNTFS",
    "PMOCSM",
    "PORAMT",
    "TLTEXM",
    "WOSWGS",
    "WTVCBC"
  ],
  "PMOCSM": [
    "AUGCCC1",
    "BANCCC1",
    "BATMIF",
    "BFTCCK",
    "BOSLOGA",
    "BOSSST",
    "BRKBVC",
    "CDNMFM",
    "CNHCTC",
    "DAMWZP",
    "FNCNWH",
    "LCVUPO",
    "LNNTFS",
    "LTLNWH",
    "MHTMTC",
    "NLDNTC",
    "ORNUNM",
    "PORAMT",
    "RODMSF",
    "SLMSTC",
    "SRTSBG",
    "TLTEXM",
    "WDRBAS",
    "WSTHBM"
  ],
  "PORAMT": [
    "AUGCCC1",
    "BANCCC1",
    "BATMIF",
    "BFTCCK",
    "BLNINH",
    "BOSLOGA",
    "BOSSST",
    "BRKBVC",
    "CAYFSD",
    "CDNMFM",
    "CNHCTC",
    "CTHVCW",
    "DAMWZP",
    "FNCNWH",
    "GHMAMC",
    "GHMIRV",
    "JKSCCC",
    "LCVUPO",
    "LNNTFS",
    "LTLNWH",
    "MHTMTC",
    "MRDAHP",
    "NCWESI",
    "NHNTFS",
    "NLDNTC",
    "ORNUNM",
    "PMOCSM",
    "RODMSF",
    "SLMSTC",
    "SRTSBG",
    "TLTEXM",
    "WDRBAS",
    "WOSWGS",
    "WSTHBM",
    "WTVCBC"
  ],
  "RODMSF": [
    "BANCCC1",
    "BATMIF",
    "BFTCCK",
    "BOSLOGA",
    "BOSSST",
    "BRKBVC",
    "CDNMFM",
    "DAMWZP",
    "LCVUPO",
    "PORAMT",
    "SRTSBG",
    "WDRBAS",
    "WSTHBM"
  ],
  "SLMSTC": [
    "AUGCCC1",
    "BANCCC1",
    "BATMIF",
    "BFTCCK",
    "BLNINH",
    "BOSLOGA",
    "BOSSST",
    "BRKBVC",
    "CAYFSD",
    "CDNMFM",
    "CNHCTC",
    "CTHVCW",
    "DAMWZP",
    "FNCNWH",
    "GHMAMC",
    "GHMIRV",
    "JKSCCC",
    "LCVUPO",
    "LNNTFS",
    "LTLNWH",
    "MHTMTC",
    "MRDAHP",
    "NCWESI",
    "NHNTFS",
    "NLDNTC",
    "ORNUNM",
    "PMOCSM",
    "PORAMT",
    "RODMSF",
    "SRTSBG",
    "TLTEXM",
    "WDRBAS",
    "WOSWGS",
    "WSTHBM"
  ],
  "SRTSBG": [
    "BANCCC1",
    "BATMIF",
    "BFTCCK",
    "BOSLOGA",
    "BOSSST",
    "BRKBVC",
    "CDNMFM",
    "DAMWZP",
    "LCVUPO",
    "PORAMT",
    "RODMSF",
    "WDRBAS",
    "WSTHBM"
  ],
  "TLTEXM": [
    "AUGCCC1",
    "BANCCC1",
    "BATMIF",
    "BFTCCK",
    "BLNINH",
    "BOSLOGA",
    "BOSSST",
    "BRKBVC",
    "CAYFSD",
    "CDNMFM",
    "CNHCTC",
    "CTHVCW",
    "DAMWZP",
    "FNCNWH",
    "GHMAMC",
    "GHMIRV",
    "JKSCCC",
    "LCVUPO",
    "LNNTFS",
    "LTLNWH",
    "MHTMTC",
    "MRDAHP",
    "NCWESI",
    "NHNTFS",
    "NLDNTC",
    "ORNUNM",
    "PMOCSM",
    "PORAMT",
    "RODMSF",
    "SLMSTC",
    "SRTSBG",
    "WDRBAS",
    "WOSWGS",
    "WSTHBM"
  ],
  "WDRBAS": [
    "BANCCC1",
    "BATMIF",
    "BFTCCK",
    "BOSLOGA",
    "BOSSST",
    "BRKBVC",
    "CDNMFM",
    "DAMWZP",
    "LCVUPO",
    "PORAMT",
    "RODMSF",
    "SRTSBG",
    "WSTHBM"
  ],
  "WOSWGS": [
    "AUGCCC1",
    "BANCCC1",
    "BLNINH",
    "BOSLOGA",
    "BOSSST",
    "CAYFSD",
    "CNHCTC",
    "CTHVCW",
    "GHMAMC",
    "GHMIRV",
    "JKSCCC",
    "MHTMTC",
    "MRDAHP",
    "NCWESI",
    "NHNTFS",
    "NLDNTC",
    "ORNUNM",
    "PORAMT",
    "SLMSTC",
    "TLTEXM"
  ],
  "WSTHBM": [
    "BANCCC1",
    "BATMIF",
    "BFTCCK",
    "BOSLOGA",
    "BOSSST",
    "BRKBVC",
    "CDNMFM",
    "DAMWZP",
    "LCVUPO",
    "PORAMT",
    "RODMSF",
    "SRTSBG",
    "WDRBAS"
  ],
  "WTVCBC": [
    "AUGCCC1",
    "BOSLOGA",
    "BOSSST",
    "BRKBVC",
    "PORAMT"
  ]
}