{
  "ALBPPA": [
    "ALBPPL",
    "AMMPPL1",
    "AMMPPL2",
    "AMMPPL3",
    "BOSLOG",
    "BOUPPL",
    "BOUPPL2",
    "BRNPPL",
    "BRPGLI",
    "BUZPPL",
    "CLSPPL",
    "CMTPPL",
    "CNAPPL",
    "CNHCTC",
    "DNBPPL",
    "DRFPPL",
    "EVTPPL",
    "FALMEG",
    "FLMPPL",
    "FMTPPL",
    "FRAGLI",
    "GBRPPL",
    "GRFPPL",
    "HLYPPL1",
    "HLYPPL2",
    "HYAPPL",
    "LEOPPL",
    "LMAPPL",
    "LNXPPL",
    "LWLPPL",
    "MDLPPL",
    "MHTMTC",
    "MNSPPL",
    "NBDPPL",
    "NDMPPL",
    "NHVUST",
    "NSHPPL",
    "NTHPPL",
    "NWBPPL",
    "NWPPPL",
    "PITAMT",
    "PTMPPL",
    "PVDGLI",
    "PVDPPL",
    "SBFPPL",
    "SBRPPL",
    "SCTPPL",
    "SHFPPL",
    "SOMPPL",
    "SPGGLI",
    "STBPPL",
    "TRRPPL",
    "TRYPPL1",
    "TRYPPL2",
    "WBYPPL",
    "WDSPPL",
    "WHMPPL",
    "WLMPPL",
    "WORAMT",
    "WSDPPL",
    "WWKPPL"
  ],
  "ALBPPL": [
    "ALBPPA",
    "AMMPPL1",
    "AMMPPL2",
    "AMMPPL3",
    "BALGLI",
    "BOSLOG",
    "BOSSST",
    "BOUPPL",
    "BOUPPL2",
    "BRNPPL",
    "BRPGLI",
    "BUZPPL",
    "CATORMEG",
    "CLSPPL",
    "CMTPPL",
    "CNAPPL",
    "CNHCTC",
    "DCAUST",
    "DNBPPL",
    "DRFPPL",
    "EVTPPL",
    "FALMEG",
    "FLMPPL",
    "FMTPPL",
    "FRAGLI",
    "GBRPPL",
    "GRFPPL",
    "HFDOUP",
    "HLYPPL1",
    "HLYPPL2",
    "HYAPPL",
    "LEOPPL",
    "LMAPPL",
    "LNXPPL",
    "LWLPPL",
    "MDLPPL",
    "MHTMTC",
    "MLRGLI",
    "MNSPPL",
    "NBDPPL",
    "NCRAMT",
    "NDMPPL",
    "NHVUST",
    "NSHPPL",
    "NTHPPL",
    "NWBPPL",
    "NWKPNS",
    "NWPPPL",
    "NYCPAS",
    "PHLGLI",
    "PITAMT",
    "PTMPPL",
    "PVDGLI",
    "PVDPPL",
    "SBFPPL",
    "SBRPPL",
    "SCTPPL",
    "SHFPPL",
    "SOHPPL",
    "SOMPPL",
    "SPGGLI",
    "STBPPL",
    "SVSGLI",
    "TRRPPL",
    "TRYPPL1",
    "TRYPPL2",
    "WBYPPL",
    "WDSPPL",
    "WHMPPL",
    "WILAMT",
    "WLMPPL",
    "WORAMT",
    "WSDPPL",
    "WWKPPL"
  ],
  "AMMPPL1": [
    "ALBPPA",
    "ALBPPL",
    "AMMPPL2",
    "AMMPPL3",
    "BALGLI",
    "BOSLOG",
    "BOSSST",
    "BOUPPL",
    "BOUPPL2",
    "BRNPPL",
    "BRPGLI",
    "BUZPPL",
    "CATORMEG",
    "CLSPPL",
    "CMTPPL",
    "CNAPPL",
    "CNHCTC",
    "DCAUST",
    "DNBPPL",
    "DRFPPL",
    "EVTPPL",
    "FALMEG",
    "FLMPPL",
    "FMTPPL",
    "FRAGLI",
    "GBRPPL",
    "GRFPPL",
    "HLYPPL1",
    "HLYPPL2",
    "HYAPPL",
    "LEOPPL",
    "LMAPPL",
    "LNXPPL",
    "LWLPPL",
    "MDLPPL",
    "MHTMTC",
    "MLRGLI",
    "MNSPPL",
    "NBDPPL",
    "NCRAMT",
    "NDMPPL",
    "NHVUST",
    "NSHPPL",
    "NTHPPL",
    "NWBPPL",
    "NWKPNS",
    "NWPPPL",
    "PHLGLI",
    "PITAMT",
    "PTMPPL",
    "PVDGLI",
    "PVDPPL",
    "SBFPPL",
    "SBRPPL",
    "SCTPPL",
    "SHFPPL",
    "SOHPPL",
    "SOMPPL",
    "SPGGLI",
    "STBPPL",
    "SVSGLI",
    "TRRPPL",
    "TRYPPL1",
    "TRYPPL2",
    "WBYPPL",
    "WDSPPL",
    "WHMPPL",
    "WILAMT",
    "WLMPPL",
    "WORAMT",
    "WSDPPL",
    "WWKPPL"
  ],
  "AMMPPL2": [
    "ALBPPA",
    "ALBPPL",
    "AMMPPL1",
    "AMMPPL3",
    "BALGLI",
    "BOSLOG",
    "BOSSST",
    "BOUPPL",
    "BOUPPL2",
    "BRNPPL",
    "BRPGLI",
    "BUZPPL",
    "CATORMEG",
    "CLSPPL",
    "CMTPPL",
    "CNAPPL",
    "CNHCTC",
    "DCAUST",
    "DNBPPL",
    "DRFPPL",
    "EVTPPL",
    "FALMEG",
    "FLMPPL",
    "FMTPPL",
    "FRAGLI",
    "GBRPPL",
    "GRFPPL",
    "HLYPPL1",
    "HLYPPL2",
    "HYAPPL",
    "LEOPPL",
    "LMAPPL",
    "LNXPPL",
    "LWLPPL",
    "MDLPPL",
    "MHTMTC",
    "MLRGLI",
    "MNSPPL",
    "NBDPPL",
    "NCRAMT",
    "NDMPPL",
    "NHVUST",
    "NSHPPL",
    "NTHPPL",
    "NWBPPL",
    "NWKPNS",
    "NWPPPL",
    "PHLGLI",
    "PITAMT",
    "PTMPPL",
    "PVDGLI",
    "PVDPPL",
    "SBFPPL",
    "SBRPPL",
    "SCTPPL",
    "SHFPPL",
    "SOHPPL",
    "SOMPPL",
    "SPGGLI",
    "STBPPL",
    "SVSGLI",
    "TRRPPL",
    "TRYPPL1",
    "TRYPPL2",
    "WBYPPL",
    "WDSPPL",
    "WHMPPL",
    "WILAMT",
    "WLMPPL",
    "WORAMT",
    "WSDPPL",
    "WWKPPL"
  ],
  "AMMPPL3": [
    "ALBPPA",
    "ALBPPL",
    "AMMPPL1",
    "AMMPPL2",
    "BALGLI",
    "BOSLOG",
    "BOSSST",
    "BOUPPL",
    "BOUPPL2",
    "BRNPPL",
    "BRPGLI",
    "BUZPPL",
    "CATORMEG",
    "CLSPPL",
    "CNAPPL",
    "CNHCTC",
    "DCAUST",
    "DNBPPL",
    "DRFPPL",
    "EVTPPL",
    "FALMEG",
    "FLMPPL",
    "FMTPPL",
    "FRAGLI",
    "GBRPPL",
    "GRFPPL",
    "HLYPPL1",
    "HLYPPL2",
    "HYAPPL",
    "LEOPPL",
    "LMAPPL",
    "LNXPPL",
    "LWLPPL",
    "MDLPPL",
    "MHTMTC",
    "MLRGLI",
    "MNSPPL",
    "NBDPPL",
    "NCRAMT",
    "NHVUST",
    "NSHPPL",
    "NTHPPL",
    "NWBPPL",
    "NWKPNS",
    "NWPPPL",
    "PHLGLI",
    "PITAMT",
    "PTMPPL",
    "PVDGLI",
    "PVDPPL",
    "SBRPPL",
    "SCTPPL",
    "SHFPPL",
    "SOHPPL",
    "SOMPPL",
    "SPGGLI",
    "STBPPL",
    "SVSGLI",
    "TRRPPL",
    "WBYPPL",
    "WDSPPL",
    "WHMPPL",
    "WILAMT",
    "WLMPPL",
    "WORAMT",
    "WSDPPL",
    "WWKPPL"
  ],
  "BALGLI": [
    "ALBPPL",
    "AMMPPL1",
    "AMMPPL2",
    "AMMPPL3",
    "BOSLOG",
    "BOUPPL",
    "BOUPPL2",
    "BRNPPL",
    "BUZPPL",
    "CLSPPL",
    "CMTPPL",
    "CNAPPL",
    "DNBPPL",
    "DRFPPL",
    "EVTPPL",
    "FALMEG",
    "FLMPPL",
    "FMTPPL",
    "FRAGLI",
    "GBRPPL",
    "GRFPPL",
    "HFDOUP",
    "HLYPPL1",
    "HLYPPL2",
    "HYAPPL",
    "LMAPPL",
    "LNXPPL",
    "MDLPPL",
    "MNSPPL",
    "NBDPPL",
    "NDMPPL",
    "NTHPPL",
    "NWPPPL",
    "PITAMT",
    "PTMPPL",
    "PVDGLI",
    "PVDPPL",
    "SBFPPL",
    "SBRPPL",
    "SCTPPL",
    "SHFPPL",
    "SOHPPL",
    "SOMPPL",
    "STBPPL",
    "TRRPPL",
    "TRYPPL1",
    "TRYPPL2",
    "WBYPPL",
    "WDSPPL",
    "WHMPPL",
    "WLMPPL",
    "WORAMT",
    "WSDPPL",
    "WWKPPL"
  ],
  "BOSLOG": [
    "ALBPPA",
    "ALBPPL",
    "AMMPPL1",
    "AMMPPL2",
    "AMMPPL3",
    "BALGLI",
    "BOSSST",
    "BOUPPL",
    "BOUPPL2",
    "BRNPPL",
    "BRPGLI",
    "BUZPPL",
    "CLSPPL",
    "CMTPPL",
    "CNAPPL",
    "DCAUST",
    "DNBPPL",
    "DRFPPL",
    "EVTPPL",
    "FALMEG",
    "FLMPPL",
    "FMTPPL",
    "GBRPPL",
    "GRFPPL",
    "HLYPPL1",
    "HLYPPL2",
    "HYAPPL",
    "LMAPPL",
    "LNXPPL",
    "MDLPPL",
    "MLRGLI",
    "MNSPPL",
    "NBDPPL",
    "NCRAMT",
    "NDMPPL",
    "NHVUST",
    "NTHPPL",
    "NWBPPL",
    "NWKPNS",
    "NWPPPL",
    "PHLGLI",
    "PITAMT",
    "PTMPPL",
    "PVDGLI",
    "PVDPPL",
    "SBFPPL",
    "SBRPPL",
    "SCTPPL",
    "SHFPPL",
    "SOHPPL",
    "SOMPPL",
    "SPGGLI",
    "STBPPL",
    "SVSGLI",
    "TRRPPL",
    "TRYPPL1",
    "TRYPPL2",
    "WBYPPL",
    "WDSPPL",
    "WHMPPL",
    "WILAMT",
    "WLMPPL",
    "WSDPPL",
    "WWKPPL"
  ],
  "BOSSST": [
    "ALBPPA",
    "ALBPPL",
    "AMMPPL1",
    "AMMPPL2",
    "AMMPPL3",
    "BOSLOG",
    "BOUPPL",
    "BOUPPL2",
    "BRNPPL",
    "BUZPPL",
    "CLSPPL",
    "CMTPPL",
    "DRFPPL",
    "EVTPPL",
    "FALMEG",
    "FLMPPL",
    "GBRPPL",
    "GRFPPL",
    "HLYPPL1",
    "HLYPPL2",
    "HYAPPL",
    "LMAPPL",
    "LNXPPL",
    "MDLPPL",
    "MNSPPL",
    "NBDPPL",
    "NDMPPL",
    "NHVUST",
    "NTHPPL",
    "NWPPPL",
    "PITAMT",
    "PTMPPL",
    "PVDGLI",
    "PVDPPL",
    "SBFPPL",
    "SHFPPL",
    "SOHPPL",
    "SOMPPL",
    "SPGGLI",
    "STBPPL",
    "TRYPPL1",
    "TRYPPL2",
    "WDSPPL",
    "WHMPPL",
    "WLMPPL",
    "WWKPPL"
  ],
  "BOUPPL": [
    "ALBPPA",
    "ALBPPL",
    "AMMPPL1",
    "AMMPPL2",
    "AMMPPL3",
    "BALGLI",
    "BOSLOG",
    "BOSSST",
    "BOUPPL2",
    "BRNPPL",
    "BRPGLI",
    "BUZPPL",
    "CATORMEG",
    "CLSPPL",
    "CMTPPL",
    "CNAPPL",
    "CNHCTC",
    "DCAUST",
    "DNBPPL",
    "DRFPPL",
    "EVTPPL",
    "FALMEG",
    "FLMPPL",
    "FMTPPL",
    "GBRPPL",
    "GRFPPL",
    "HLYPPL1",
    "HLYPPL2",
    "HYAPPL",
    "LMAPPL",
    "LNXPPL",
    "MDLPPL",
    "MLRGLI",
    "MNSPPL",
    "NBDPPL",
    "NCRAMT",
    "NDMPPL",
    "NHVUST",
    "NTHPPL",
    "NWBPPL",
    "NWKPNS",
    "NWPPPL",
    "NYCPAS",
    "PHLGLI",
    "PITAMT",
    "PTMPPL",
    "PVDGLI",
    "PVDPPL",
    "SBFPPL",
    "SBRPPL",
    "SCTPPL",
    "SHFPPL",
    "SOHPPL",
    "SOMPPL",
    "SPGGLI",
    "STBPPL",
    "SVSGLI",
    "TRRPPL",
    "TRYPPL1",
    "TRYPPL2",
    "WBYPPL",
    "WDSPPL",
    "WHMPPL",
    "WILAMT",
    "WLMPPL",
    "WSDPPL",
    "WWKPPL"
  ],
  "BOUPPL2": [
    "ALBPPA",
    "ALBPPL",
    "AMMPPL1",
    "AMMPPL2",
    "AMMPPL3",
    "BALGLI",
    "BOSLOG",
    "BOSSST",
    "BOUPPL",
    "BRNPPL",
    "BRPGLI",
    "BUZPPL",
    "CATORMEG",
    "CLSPPL",
    "CMTPPL",
    "CNAPPL",
    "DCAUST",
    "DNBPPL",
    "DRFPPL",
    "EVTPPL",
    "FALMEG",
    "FLMPPL",
    "FMTPPL",
    "FRAGLI",
    "GBRPPL",
    "GRFPPL",
    "HFDOUP",
    "HLYPPL1",
    "HLYPPL2",
    "HYAPPL",
    "LEOPPL",
    "LMAPPL",
    "LNXPPL",
    "LWLPPL",
    "MDLPPL",
    "MLRGLI",
    "MNSPPL",
    "NBDPPL",
    "NDMPPL",
    "NHVUST",
    "NSHPPL",
    "NTHPPL",
    "NWBPPL",
    "NWKPNS",
    "NWPPPL",
    "NYCPAS",
    "PHLGLI",
    "PITAMT",
    "PTMPPL",
    "PVDGLI",
    "PVDPPL",
    "SBFPPL",
    "SBRPPL",
    "SCTPPL",
    "SHFPPL",
    "SOHPPL",
    "SOMPPL",
    "SPGGLI",
    "STBPPL",
    "SVSGLI",
    "TRRPPL",
    "TRYPPL1",
    "TRYPPL2",
    "WBYPPL",
    "WDSPPL",
    "WHMPPL",
    "WILAMT",
    "WLMPPL",
    "WORAMT",
    "WSDPPL",
    "WWKPPL"
  ],
  "BRNPPL": [
    "ALBPPA",
    "ALBPPL",
    "AMMPPL1",
    "AMMPPL2",
    "AMMPPL3",
    "BALGLI",
    "BOSLOG",
    "BOUPPL",
    "BOUPPL2",
    "BRPGLI",
    "BUZPPL",
    "CLSPPL",
    "CMTPPL",
    "CNAPPL",
    "DCAUST",
    "DNBPPL",
    "DRFPPL",
    "EVTPPL",
    "FALMEG",
    "FLMPPL",
    "FMTPPL",
    "FRAGLI",
    "GBRPPL",
    "GRFPPL",
    "HLYPPL1",
    "HLYPPL2",
    "LMAPPL",
    "LNXPPL",
    "MDLPPL",
    "MLRGLI",
    "MNSPPL",
    "NBDPPL",
    "NCRAMT",
    "NDMPPL",
    "NHVUST",
    "NTHPPL",
    "NWBPPL",
    "NWKPNS",
    "NWPPPL",
    "NYCPAS",
    "PHLGLI",
    "PITAMT",
    "PTMPPL",
    "PVDGLI",
    "PVDPPL",
    "SBFPPL",
    "SBRPPL",
    "SCTPPL",
    "SHFPPL",
    "SOHPPL",
    "SOMPPL",
    "SPGGLI",
    "STBPPL",
    "SVSGLI",
    "TRRPPL",
    "TRYPPL1",
    "TRYPPL2",
    "WBYPPL",
    "WDSPPL",
    "WHMPPL",
    "WILAMT",
    "WLMPPL",
    "WORAMT",
    "WSDPPL",
    "WWKPPL"
  ],
  "BRPGLI": [
    "ALBPPA",
    "ALBPPL",
    "AMMPPL1",
    "AMMPPL2",
    "AMMPPL3",
    "BOSLOG",
    "BOUPPL",
    "BOUPPL2",
    "BRNPPL",
    "BUZPPL",
    "CLSPPL",
    "CNAPPL",
    "DNBPPL",
    "DRFPPL",
    "EVTPPL",
    "FALMEG",
    "FLMPPL",
    "FMTPPL",
    "FRAGLI",
    "GBRPPL",
    "GRFPPL",
    "HLYPPL1",
    "HLYPPL2",
    "HYAPPL",
    "LEOPPL",
    "LMAPPL",
    "LNXPPL",
    "LWLPPL",
    "MDLPPL",
    "MHTMTC",
    "MNSPPL",
    "NBDPPL",
    "NSHPPL",
    "NTHPPL",
    "NWPPPL",
    "PITAMT",
    "PTMPPL",
    "PVDGLI",
    "PVDPPL",
    "SBRPPL",
    "SCTPPL",
    "SHFPPL",
    "SOHPPL",
    "SOMPPL",
    "STBPPL",
    "TRRPPL",
    "TRYPPL1",
    "TRYPPL2",
    "WBYPPL",
    "WDSPPL",
    "WHMPPL",
    "WLMPPL",
    "WORAMT",
    "WSDPPL",
    "WWKPPL"
  ],
  "BUZPPL": [
    "ALBPPA",
    "ALBPPL",
    "AMMPPL1",
    "AMMPPL2",
    "AMMPPL3",
    "BALGLI",
    "BOSLOG",
    "BOSSST",
    "BOUPPL",
    "BOUPPL2",
    "BRNPPL",
    "BRPGLI",
    "CATORMEG",
    "CLSPPL",
    "CMTPPL",
    "CNAPPL",
    "DCAUST",
    "DNBPPL",
    "DRFPPL",
    "EVTPPL",
    "FALMEG",
    "FLMPPL",
    "FMTPPL",
    "GBRPPL",
    "GRFPPL",
    "HLYPPL1",
    "HLYPPL2",
    "HYAPPL",
    "LMAPPL",
    "LNXPPL",
    "MDLPPL",
    "MLRGLI",
    "MNSPPL",
    "NBDPPL",
    "NCRAMT",
    "NDMPPL",
    "NHVUST",
    "NTHPPL",
    "NWBPPL",
    "NWKPNS",
    "NWPPPL",
    "NYCPAS",
    "PHLGLI",
    "PITAMT",
    "PTMPPL",
    "PVDGLI",
    "PVDPPL",
    "SBFPPL",
    "SBRPPL",
    "SCTPPL",
    "SHFPPL",
    "SOHPPL",
    "SOMPPL",
    "SPGGLI",
    "STBPPL",
    "SVSGLI",
    "TRRPPL",
    "TRYPPL1",
    "TRYPPL2",
    "WBYPPL",
    "WDSPPL",
    "WHMPPL",
    "WILAMT",
    "WLMPPL",
    "WSDPPL",
    "WWKPPL"
  ],
  "CATORMEG": [
    "ALBPPL",
    "AMMPPL1",
    "AMMPPL2",
    "AMMPPL3",
    "BOSLOG",
    "BOUPPL",
    "BOUPPL2",
    "BRNPPL",
    "CLSPPL",
    "CMTPPL",
    "CNAPPL",
    "CNHCTC",
    "DNBPPL",
    "DRFPPL",
    "EVTPPL",
    "FALMEG",
    "FLMPPL",
    "FMTPPL",
    "GBRPPL",
    "GRFPPL",
    "HFDOUP",
    "HLYPPL1",
    "HLYPPL2",
    "HYAPPL",
    "LEOPPL",
    "LMAPPL",
    "LNXPPL",
    "LWLPPL",
    "MDLPPL",
    "MHTMTC",
    "MNSPPL",
    "NBDPPL",
    "NDMPPL",
    "NHVUST",
    "NSHPPL",
    "NTHPPL",
    "NWBPPL",
    "NWPPPL",
    "PITAMT",
    "PTMPPL",
    "PVDGLI",
    "PVDPPL",
    "SBFPPL",
    "SBRPPL",
    "SCTPPL",
    "SHFPPL",
    "SOHPPL",
    "SOMPPL",
    "SPGGLI",
    "STBPPL",
    "TRRPPL",
    "TRYPPL1",
    "TRYPPL2",
    "WBYPPL",
    "WDSPPL",
    "WLMPPL",
    "WSDPPL",
    "WWKPPL"
  ],
  "CLSPPL": [
    "ALBPPA",
    "ALBPPL",
    "AMMPPL1",
    "AMMPPL2",
    "AMMPPL3",
    "BALGLI",
    "BOSLOG",
    "BOSSST",
    "BOUPPL",
    "BOUPPL2",
    "BRNPPL",
    "BRPGLI",
    "BUZPPL",
    "CATORMEG",
    "CMTPPL",
    "CNAPPL",
    "DCAUST",
    "DNBPPL",
    "DRFPPL",
    "EVTPPL",
    "FALMEG",
    "FLMPPL",
    "FMTPPL",
    "GBRPPL",
    "GRFPPL",
    "HLYPPL1",
    "HLYPPL2",
    "HYAPPL",
    "LMAPPL",
    "LNXPPL",
    "MDLPPL",
    "MLRGLI",
    "MNSPPL",
    "NBDPPL",
    "NCRAMT",
    "NDMPPL",
    "NHVUST",
    "NTHPPL",
    "NWBPPL",
    "NWKPNS",
    "NWPPPL",
    "NYCPAS",
    "PHLGLI",
    "PITAMT",
    "PTMPPL",
    "PVDGLI",
    "PVDPPL",
    "SBFPPL",
    "SBRPPL",
    "SCTPPL",
    "SHFPPL",
    "SOHPPL",
    "SOMPPL",
    "SPGGLI",
    "STBPPL",
    "SVSGLI",
    "TRRPPL",
    "TRYPPL1",
    "TRYPPL2",
    "WBYPPL",
    "WDSPPL",
    "WHMPPL",
    "WILAMT",
    "WLMPPL",
    "WSDPPL",
    "WWKPPL"
  ],
  "CMTPPL": [
    "ALBPPA",
    "ALBPPL",
    "AMMPPL1",
    "AMMPPL2",
    "AMMPPL3",
    "BALGLI",
    "BOSLOG",
    "BOSSST",
    "BOUPPL",
    "BOUPPL2",
    "BRNPPL",
    "BRPGLI",
    "BUZPPL",
    "CATORMEG",
    "CLSPPL",
    "CNAPPL",
    "CNHCTC",
    "DCAUST",
    "DNBPPL",
    "DRFPPL",
    "EVTPPL",
    "FALMEG",
    "FLMPPL",
    "FMTPPL",
    "FRAGLI",
    "GBRPPL",
    "GRFPPL",
    "HFDOUP",
    "HLYPPL1",
    "HLYPPL2",
    "HYAPPL",
    "LEOPPL",
    "LMAPPL",
    "LNXPPL",
    "LWLPPL",
    "MDLPPL",
    "MHTMTC",
    "MLRGLI",
    "MNSPPL",
    "NBDPPL",
    "NCRAMT",
    "NDMPPL",
    "NHVUST",
    "NSHPPL",
    "NTHPPL",
    "NWBPPL",
    "NWKPNS",
    "NWPPPL",
    "NYCPAS",
    "PHLGLI",
    "PITAMT",
    "PTMPPL",
    "PVDGLI",
    "PVDPPL",
    "SBFPPL",
    "SBRPPL",
    "SCTPPL",
    "SHFPPL",
    "SOHPPL",
    "SOMPPL",
    "SPGGLI",
    "STBPPL",
    "SVSGLI",
    "TRRPPL",
    "TRYPPL1",
    "TRYPPL2",
    "WBYPPL",
    "WDSPPL",
    "WILAMT",
    "WLMPPL",
    "WORAMT",
    "WSDPPL",
    "WWKPPL"
  ],
  "CNAPPL": [
    "ALBPPA",
    "ALBPPL",
    "AMMPPL1",
    "AMMPPL2",
    "AMMPPL3",
    "BALGLI",
    "BOSLOG",
    "BOUPPL",
    "BOUPPL2",
    "BRNPPL",
    "BRPGLI",
    "BUZPPL",
    "CATORMEG",
    "CLSPPL",
    "CMTPPL",
    "DCAUST",
    "DNBPPL",
    "DRFPPL",
    "EVTPPL",
    "FALMEG",
    "FLMPPL",
    "FMTPPL",
    "GBRPPL",
    "GRFPPL",
    "HLYPPL1",
    "HLYPPL2",
    "HYAPPL",
    "LMAPPL",
    "LNXPPL",
    "MDLPPL",
    "MLRGLI",
    "MNSPPL",
    "NBDPPL",
    "NCRAMT",
    "NDMPPL",
    "NHVUST",
    "NTHPPL",
    "NWBPPL",
    "NWKPNS",
    "NWPPPL",
    "NYCPAS",
    "PHLGLI",
    "PITAMT",
    "PTMPPL",
    "PVDGLI",
    "PVDPPL",
    "SBFPPL",
    "SBRPPL",
    "SCTPPL",
    "SHFPPL",
    "SOHPPL",
    "SOMPPL",
    "SPGGLI",
    "STBPPL",
    "SVSGLI",
    "TRRPPL",
    "TRYPPL1",
    "TRYPPL2",
    "WBYPPL",
    "WDSPPL",
    "WHMPPL",
    "WILAMT",
    "WLMPPL",
    "WSDPPL",
    "WWKPPL"
  ],
  "CNHCTC": [
    "ALBPPA",
    "ALBPPL",
    "AMMPPL1",
    "AMMPPL2",
    "BALGLI",
    "BOUPPL2",
    "BRNPPL",
    "CATORMEG",
    "CMTPPL",
    "DCAUST",
    "DNBPPL",
    "DRFPPL",
    "FMTPPL",
    "HLYPPL1",
    "HLYPPL2",
    "LEOPPL",
    "LMAPPL",
    "LNXPPL",
    "LWLPPL",
    "MHTMTC",
    "MLRGLI",
    "NBDPPL",
    "NDMPPL",
    "NHVUST",
    "NSHPPL",
    "NTHPPL",
    "NWBPPL",
    "NWKPNS",
    "NWPPPL",
    "NYCPAS",
    "PHLGLI",
    "PITAMT",
    "SBFPPL",
    "SBRPPL",
    "SOHPPL",
    "SPGGLI",
    "SVSGLI",
    "TRRPPL",
    "TRYPPL1",
    "TRYPPL2",
    "WBYPPL",
    "WILAMT",
    "WORAMT"
  ],
  "DCAUST": [
    "ALBPPL",
    "AMMPPL1",
    "AMMPPL2",
    "AMMPPL3",
    "BOSLOG",
    "BOUPPL",
    "BOUPPL2",
    "BRNPPL",
    "CLSPPL",
    "CMTPPL",
    "CNAPPL",
    "DNBPPL",
    "DRFPPL",
    "EVTPPL",
    "FALMEG",
    "FLMPPL",
    "FMTPPL",
    "FRAGLI",
    "GBRPPL",
    "GRFPPL",
    "HFDOUP",
    "HLYPPL1",
    "HLYPPL2",
    "HYAPPL",
    "LMAPPL",
    "LNXPPL",
    "MDLPPL",
    "MHTMTC",
    "MNSPPL",
    "NBDPPL",
    "NDMPPL",
    "NTHPPL",
    "NWPPPL",
    "PITAMT",
    "PTMPPL",
    "PVDGLI",
    "PVDPPL",
    "SBFPPL",
    "SBRPPL",
    "SCTPPL",
    "SHFPPL",
    "SOHPPL",
    "SOMPPL",
    "STBPPL",
    "TRRPPL",
    "TRYPPL1",
    "TRYPPL2",
    "WBYPPL",
    "WDSPPL",
    "WHMPPL",
    "WLMPPL",
    "WORAMT",
    "WSDPPL",
    "WWKPPL"
  ],
  "DNBPPL": [
    "ALBPPA",
    "ALBPPL",
    "AMMPPL1",
    "AMMPPL2",
    "AMMPPL3",
    "BALGLI",
    "BOSLOG",
    "BOUPPL",
    "BOUPPL2",
    "BRNPPL",
    "BRPGLI",
    "BUZPPL",
    "CATORMEG",
    "CLSPPL",
    "CMTPPL",
    "CNAPPL",
    "DCAUST",
    "DRFPPL",
    "EVTPPL",
    "FALMEG",
    "FLMPPL",
    "FMTPPL",
    "GBRPPL",
    "GRFPPL",
    "HFDOUP",
    "HLYPPL1",
    "HLYPPL2",
    "HYAPPL",
    "LMAPPL",
    "LNXPPL",
    "MDLPPL",
    "MLRGLI",
    "MNSPPL",
    "NBDPPL",
    "NCRAMT",
    "NDMPPL",
    "NHVUST",
    "NTHPPL",
    "NWBPPL",
    "NWKPNS",
    "NWPPPL",
    "NYCPAS",
    "PHLGLI",
    "PITAMT",
    "PTMPPL",
    "PVDGLI",
    "PVDPPL",
    "SBFPPL",
    "SBRPPL",
    "SCTPPL",
    "SHFPPL",
    "SOHPPL",
    "SOMPPL",
    "STBPPL",
    "SVSGLI",
    "TRRPPL",
    "TRYPPL1",
    "TRYPPL2",
    "WBYPPL",
    "WDSPPL",
    "WHMPPL",
    "WILAMT",
    "WLMPPL",
    "WSDPPL",
    "WWKPPL"
  ],
  "DRFPPL": [
    "ALBPPA",
    "ALBPPL",
    "AMMPPL1",
    "AMMPPL2",
    "AMMPPL3",
    "BALGLI",
    "BOSLOG",
    "BOSSST",
    "BOUPPL",
    "BOUPPL2",
    "BRNPPL",
    "BRPGLI",
    "BUZPPL",
    "CATORMEG",
    "CLSPPL",
    "CMTPPL",
    "CNAPPL",
    "CNHCTC",
    "DCAUST",
    "DNBPPL",
    "EVTPPL",
    "FALMEG",
    "FLMPPL",
    "FMTPPL",
    "FRAGLI",
    "GBRPPL",
    "GRFPPL",
    "HLYPPL1",
    "HLYPPL2",
    "HYAPPL",
    "LEOPPL",
    "LMAPPL",
    "LNXPPL",
    "LWLPPL",
    "MDLPPL",
    "MHTMTC",
    "MLRGLI",
    "MNSPPL",
    "NBDPPL",
    "NCRAMT",
    "NDMPPL",
    "NHVUST",
    "NSHPPL",
    "NTHPPL",
    "NWBPPL",
    "NWKPNS",
    "NWPPPL",
    "NYCPAS",
    "PHLGLI",
    "PITAMT",
    "PTMPPL",
    "PVDGLI",
    "PVDPPL",
    "SBFPPL",
    "SBRPPL",
    "SCTPPL",
    "SHFPPL",
    "SOHPPL",
    "SOMPPL",
    "SPGGLI",
    "STBPPL",
    "SVSGLI",
    "TRRPPL",
    "TRYPPL1",
    "TRYPPL2",
    "WBYPPL",
    "WDSPPL",
    "WHMPPL",
    "WILAMT",
    "WLMPPL",
    "WORAMT",
    "WSDPPL",
    "WWKPPL"
  ],
  "EVTPPL": [
    "ALBPPA",
    "ALBPPL",
    "AMMPPL1",
    "AMMPPL2",
    "AMMPPL3",
    "BALGLI",
    "BOSLOG",
    "BOSSST",
    "BOUPPL",
    "BOUPPL2",
    "BRNPPL",
    "BRPGLI",
    "BUZPPL",
    "CATORMEG",
    "CLSPPL",
    "CMTPPL",
    "CNAPPL",
    "DCAUST",
    "DNBPPL",
    "DRFPPL",
    "FALMEG",
    "FLMPPL",
    "FMTPPL",
    "FRAGLI",
    "GBRPPL",
    "GRFPPL",
    "HLYPPL1",
    "HLYPPL2",
    "HYAPPL",
    "LMAPPL",
    "LNXPPL",
    "MDLPPL",
    "MLRGLI",
    "MNSPPL",
    "NBDPPL",
    "NCRAMT",
    "NDMPPL",
    "NHVUST",
    "NTHPPL",
    "NWBPPL",
    "NWKPNS",
    "NWPPPL",
    "NYCPAS",
    "PHLGLI",
    "PITAMT",
    "PTMPPL",
    "PVDGLI",
    "PVDPPL",
    "SBFPPL",
    "SBRPPL",
    "SCTPPL",
    "SHFPPL",
    "SOHPPL",
    "SOMPPL",
    "SPGGLI",
    "STBPPL",
    "SVSGLI",
    "TRRPPL",
    "TRYPPL1",
    "TRYPPL2",
    "WBYPPL",
    "WDSPPL",
    "WHMPPL",
    "WILAMT",
    "WLMPPL",
    "WSDPPL",
    "WWKPPL"
  ],
  "FALMEG": [
    "ALBPPA",
    "ALBPPL",
    "AMMPPL1",
    "AMMPPL2",
    "AMMPPL3",
    "BALGLI",
    "BOSLOG",
    "BOSSST",
    "BOUPPL",
    "BOUPPL2",
    "BRNPPL",
    "BRPGLI",
    "BUZPPL",
    "CATORMEG",
    "CLSPPL",
    "CMTPPL",
    "CNAPPL",
    "DCAUST",
    "DNBPPL",
    "DRFPPL",
    "EVTPPL",
    "FLMPPL",
    "FMTPPL",
    "GBRPPL",
    "GRFPPL",
    "HLYPPL1",
    "HLYPPL2",
    "HYAPPL",
    "LMAPPL",
    "LNXPPL",
    "MDLPPL",
    "MLRGLI",
    "MNSPPL",
    "NBDPPL",
    "NCRAMT",
    "NDMPPL",
    "NHVUST",
    "NTHPPL",
    "NWBPPL",
    "NWKPNS",
    "NWPPPL",
    "NYCPAS",
    "PHLGLI",
    "PITAMT",
    "PTMPPL",
    "PVDGLI",
    "PVDPPL",
    "SBFPPL",
    "SBRPPL",
    "SCTPPL",
    "SHFPPL",
    "SOHPPL",
    "SOMPPL",
    "SPGGLI",
    "STBPPL",
    "SVSGLI",
    "TRRPPL",
    "TRYPPL1",
    "TRYPPL2",
    "WBYPPL",
    "WDSPPL",
    "WHMPPL",
    "WILAMT",
    "WLMPPL",
    "WSDPPL",
    "WWKPPL"
  ],
  "FLMPPL": [
    "ALBPPA",
    "ALBPPL",
    "AMMPPL1",
    "AMMPPL2",
    "AMMPPL3",
    "BALGLI",
    "BOSLOG",
    "BOSSST",
    "BOUPPL",
    "BOUPPL2",
    "BRNPPL",
    "BRPGLI",
    "BUZPPL",
    "CATORMEG",
    "CLSPPL",
    "CMTPPL",
    "CNAPPL",
    "DCAUST",
    "DNBPPL",
    "DRFPPL",
    "EVTPPL",
    "FALMEG",
    "FMTPPL",
    "GBRPPL",
    "GRFPPL",
    "HLYPPL1",
    "HLYPPL2",
    "HYAPPL",
    "LMAPPL",
    "LNXPPL",
    "MDLPPL",
    "MLRGLI",
    "MNSPPL",
    "NBDPPL",
    "NCRAMT",
    "NDMPPL",
    "NHVUST",
    "NTHPPL",
    "NWBPPL",
    "NWKPNS",
    "NWPPPL",
    "NYCPAS",
    "PHLGLI",
    "PITAMT",
    "PTMPPL",
    "PVDGLI",
    "PVDPPL",
    "SBFPPL",
    "SBRPPL",
    "SCTPPL",
    "SHFPPL",
    "SOHPPL",
    "SOMPPL",
    "SPGGLI",
    "STBPPL",
    "SVSGLI",
    "TRRPPL",
    "TRYPPL1",
    "TRYPPL2",
    "WBYPPL",
    "WDSPPL",
    "WHMPPL",
    "WILAMT",
    "WLMPPL",
    "WSDPPL",
    "WWKPPL"
  ],
  "FMTPPL": [
    "ALBPPA",
    "ALBPPL",
    "AMMPPL1",
    "AMMPPL2",
    "AMMPPL3",
    "BALGLI",
    "BOSLOG",
    "BOUPPL",
    "BOUPPL2",
    "BRNPPL",
    "BRPGLI",
    "BUZPPL",
    "CATORMEG",
    "CLSPPL",
    "CMTPPL",
    "CNAPPL",
    "DCAUST",
    "DNBPPL",
    "DRFPPL",
    "EVTPPL",
    "FALMEG",
    "FLMPPL",
    "GBRPPL",
    "GRFPPL",
    "HLYPPL1",
    "HLYPPL2",
    "HYAPPL",
    "LMAPPL",
    "LNXPPL",
    "MDLPPL",
    "MLRGLI",
    "MNSPPL",
    "NBDPPL",
    "NCRAMT",
    "NDMPPL",
    "NHVUST",
    "NTHPPL",
    "NWBPPL",
    "NWKPNS",
    "NWPPPL",
    "NYCPAS",
    "PHLGLI",
    "PITAMT",
    "PTMPPL",
    "PVDGLI",
    "PVDPPL",
    "SBFPPL",
    "SBRPPL",
    "SCTPPL",
    "SHFPPL",
    "SOHPPL",
    "SOMPPL",
    "SPGGLI",
    "STBPPL",
    "SVSGLI",
    "TRRPPL",
    "TRYPPL1",
    "TRYPPL2",
    "WBYPPL",
    "WDSPPL",
    "WHMPPL",
    "WILAMT",
    "WLMPPL",
    "WSDPPL",
    "WWKPPL"
  ],
  "FRAGLI": [
    "ALBPPA",
    "ALBPPL",
    "AMMPPL1",
    "AMMPPL2",
    "AMMPPL3",
    "BALGLI",
    "BOSLOG",
    "BOSSST",
    "BOUPPL",
    "BOUPPL2",
    "BRNPPL",
    "BRPGLI",
    "BUZPPL",
    "CATORMEG",
    "CLSPPL",
    "CMTPPL",
    "CNAPPL",
    "DCAUST",
    "DRFPPL",
    "EVTPPL",
    "FALMEG",
    "FLMPPL",
    "GBRPPL",
    "GRFPPL",
    "HLYPPL1",
    "HLYPPL2",
    "HYAPPL",
    "LMAPPL",
    "LNXPPL",
    "MDLPPL",
    "MLRGLI",
    "MNSPPL",
    "NBDPPL",
    "NCRAMT",
    "NDMPPL",
    "NHVUST",
    "NTHPPL",
    "NWBPPL",
    "NWKPNS",
    "NWPPPL",
    "PHLGLI",
    "PITAMT",
    "PTMPPL",
    "PVDGLI",
    "PVDPPL",
    "SBFPPL",
    "SCTPPL",
    "SHFPPL",
    "SOHPPL",
    "SOMPPL",
    "SPGGLI",
    "STBPPL",
    "SVSGLI",
    "TRRPPL",
    "TRYPPL1",
    "TRYPPL2",
    "WDSPPL",
    "WHMPPL",
    "WILAMT",
    "WLMPPL",
    "WORAMT",
    "WSDPPL",
    "WWKPPL"
  ],
  "GBRPPL": [
    "ALBPPA",
    "ALBPPL",
    "AMMPPL1",
    "AMMPPL2",
    "AMMPPL3",
    "BALGLI",
    "BOSLOG",
    "BOSSST",
    "BOUPPL",
    "BOUPPL2",
    "BRNPPL",
    "BRPGLI",
    "BUZPPL",
    "CATORMEG",
    "CLSPPL",
    "CMTPPL",
    "CNAPPL",
    "DCAUST",
    "DNBPPL",
    "DRFPPL",
    "EVTPPL",
    "FALMEG",
    "FLMPPL",
    "GRFPPL",
    "HFDOUP",
    "HLYPPL1",
    "HLYPPL2",
    "HYAPPL",
    "LMAPPL",
    "LNXPPL",
    "MDLPPL",
    "MLRGLI",
    "MNSPPL",
    "NBDPPL",
    "NCRAMT",
    "NDMPPL",
    "NHVUST",
    "NTHPPL",
    "NWBPPL",
    "NWKPNS",
    "NWPPPL",
    "NYCPAS",
    "PHLGLI",
    "PITAMT",
    "PTMPPL",
    "PVDGLI",
    "PVDPPL",
    "SBFPPL",
    "SBRPPL",
    "SCTPPL",
    "SHFPPL",
    "SOHPPL",
    "SOMPPL",
    "SPGGLI",
    "STBPPL",
    "SVSGLI",
    "TRRPPL",
    "TRYPPL1",
    "TRYPPL2",
    "WBYPPL",
    "WDSPPL",
    "WHMPPL",
    "WILAMT",
    "WLMPPL",
    "WSDPPL",
    "WWKPPL"
  ],
  "GRFPPL": [
    "ALBPPA",
    "ALBPPL",
    "AMMPPL1",
    "AMMPPL2",
    "AMMPPL3",
    "BALGLI",
    "BOSLOG",
    "BOSSST",
    "BOUPPL",
    "BOUPPL2",
    "BRNPPL",
    "BRPGLI",
    "BUZPPL",
    "CLSPPL",
    "CMTPPL",
    "CNAPPL",
    "DCAUST",
    "DNBPPL",
    "DRFPPL",
    "EVTPPL",
    "FALMEG",
    "FLMPPL",
    "FMTPPL",
    "FRAGLI",
    "GBRPPL",
    "HLYPPL1",
    "HLYPPL2",
    "HYAPPL",
    "LEOPPL",
    "LMAPPL",
    "LNXPPL",
    "LWLPPL",
    "MDLPPL",
    "MLRGLI",
    "MNSPPL",
    "NBDPPL",
    "NCRAMT",
    "NDMPPL",
    "NHVUST",
    "NSHPPL",
    "NTHPPL",
    "NWBPPL",
    "NWPPPL",
    "PHLGLI",
    "PITAMT",
    "PTMPPL",
    "PVDGLI",
    "PVDPPL",
    "SBFPPL",
    "SBRPPL",
    "SCTPPL",
    "SHFPPL",
    "SOHPPL",
    "SOMPPL",
    "SPGGLI",
    "STBPPL",
    "SVSGLI",
    "TRRPPL",
    "TRYPPL1",
    "TRYPPL2",
    "WBYPPL",
    "WDSPPL",
    "WHMPPL",
    "WILAMT",
    "WLMPPL",
    "WORAMT",
    "WSDPPL",
    "WWKPPL"
  ],
  "HFDOUP": [
    "BALGLI",
    "BOUPPL",
    "BOUPPL2",
    "BRNPPL",
    "BUZPPL",
    "CATORMEG",
    "CNAPPL",
    "DCAUST",
    "DNBPPL",
    "FALMEG",
    "FLMPPL",
    "FMTPPL",
    "GBRPPL",
    "HYAPPL",
    "MDLPPL",
    "MLRGLI",
    "MNSPPL",
    "NBDPPL",
    "NCRAMT",
    "NWKPNS",
    "NWPPPL",
    "PHLGLI",
    "PVDGLI",
    "PVDPPL",
    "SBRPPL",
    "SCTPPL",
    "SHFPPL",
    "SVSGLI",
    "TRRPPL",
    "WBYPPL",
    "WDSPPL",
    "WHMPPL",
    "WILAMT",
    "WWKPPL"
  ],
  "HLYPPL1": [
    "ALBPPA",
    "ALBPPL",
    "AMMPPL1",
    "AMMPPL2",
    "AMMPPL3",
    "BALGLI",
    "BOSLOG",
    "BOSSST",
    "BOUPPL",
    "BOUPPL2",
    "BRNPPL",
    "BRPGLI",
    "BUZPPL",
    "CATORMEG",
    "CLSPPL",
    "CNAPPL",
    "CNHCTC",
    "DCAUST",
    "DNBPPL",
    "DRFPPL",
    "EVTPPL",
    "FALMEG",
    "FLMPPL",
    "FMTPPL",
    "FRAGLI",
    "GBRPPL",
    "GRFPPL",
    "HLYPPL2",
    "HYAPPL",
    "LEOPPL",
    "LMAPPL",
    "LNXPPL",
    "LWLPPL",
    "MDLPPL",
    "MHTMTC",
    "MLRGLI",
    "MNSPPL",
    "NBDPPL",
    "NCRAMT",
    "NHVUST",
    "NSHPPL",
    "NTHPPL",
    "NWBPPL",
    "NWKPNS",
    "NWPPPL",
    "PHLGLI",
    "PITAMT",
    "PTMPPL",
    "PVDGLI",
    "PVDPPL",
    "SBRPPL",
    "SCTPPL",
    "SHFPPL",
    "SOHPPL",
    "SOMPPL",
    "SPGGLI",
    "STBPPL",
    "SVSGLI",
    "TRRPPL",
    "WBYPPL",
    "WDSPPL",
    "WHMPPL",
    "WILAMT",
    "WLMPPL",
    "WORAMT",
    "WSDPPL",
    "WWKPPL"
  ],
  "HLYPPL2": [
    "ALBPPA",
    "ALBPPL",
    "AMMPPL1",
    "AMMPPL2",
    "AMMPPL3",
    "BALGLI",
    "BOSLOG",
    "BOSSST",
    "BOUPPL",
    "BOUPPL2",
    "BRNPPL",
    "BRPGLI",
    "BUZPPL",
    "CATORMEG",
    "CLSPPL",
    "CMTPPL",
    "CNAPPL",
    "CNHCTC",
    "DCAUST",
    "DNBPPL",
    "DRFPPL",
    "EVTPPL",
    "FALMEG",
    "FLMPPL",
    "FMTPPL",
    "FRAGLI",
    "GBRPPL",
    "GRFPPL",
    "HLYPPL1",
    "HYAPPL",
    "LEOPPL",
    "LMAPPL",
    "LNXPPL",
    "LWLPPL",
    "MDLPPL",
    "MHTMTC",
    "MLRGLI",
    "MNSPPL",
    "NBDPPL",
    "NCRAMT",
    "NDMPPL",
    "NHVUST",
    "NSHPPL",
    "NTHPPL",
    "NWBPPL",
    "NWKPNS",
    "NWPPPL",
    "PHLGLI",
    "PITAMT",
    "PTMPPL",
    "PVDGLI",
    "PVDPPL",
    "SBFPPL",
    "SBRPPL",
    "SCTPPL",
    "SHFPPL",
    "SOHPPL",
    "SOMPPL",
    "SPGGLI",
    "STBPPL",
    "SVSGLI",
    "TRRPPL",
    "TRYPPL1",
    "TRYPPL2",
    "WBYPPL",
    "WDSPPL",
    "WHMPPL",
    "WILAMT",
    "WLMPPL",
    "WORAMT",
    "WSDPPL",
    "WWKPPL"
  ],
  "HYAPPL": [
    "ALBPPA",
    "ALBPPL",
    "AMMPPL1",
    "AMMPPL2",
    "AMMPPL3",
    "BALGLI",
    "BOSLOG",
    "BOSSST",
    "BOUPPL",
    "BOUPPL2",
    "BRNPPL",
    "BRPGLI",
    "BUZPPL",
    "CATORMEG",
    "CLSPPL",
    "CMTPPL",
    "CNAPPL",
    "DCAUST",
    "DNBPPL",
    "DRFPPL",
    "EVTPPL",
    "FALMEG",
    "FLMPPL",
    "FMTPPL",
    "FRAGLI",
    "GBRPPL",
    "GRFPPL",
    "HFDOUP",
    "HLYPPL1",
    "HLYPPL2",
    "LMAPPL",
    "LNXPPL",
    "MDLPPL",
    "MLRGLI",
    "MNSPPL",
    "NBDPPL",
    "NCRAMT",
    "NDMPPL",
    "NHVUST",
    "NTHPPL",
    "NWBPPL",
    "NWKPNS",
    "NWPPPL",
    "NYCPAS",
    "PHLGLI",
    "PITAMT",
    "PTMPPL",
    "PVDGLI",
    "PVDPPL",
    "SBFPPL",
    "SBRPPL",
    "SCTPPL",
    "SHFPPL",
    "SOMPPL",
    "SPGGLI",
    "STBPPL",
    "SVSGLI",
    "TRRPPL",
    "TRYPPL1",
    "TRYPPL2",
    "WBYPPL",
    "WDSPPL",
    "WHMPPL",
    "WILAMT",
    "WLMPPL",
    "WORAMT",
    "WSDPPL",
    "WWKPPL"
  ],
  "LEOPPL": [
    "ALBPPA",
    "ALBPPL",
    "AMMPPL1",
    "AMMPPL2",
    "AMMPPL3",
    "BALGLI",
    "BOUPPL",
    "BOUPPL2",
    "BRNPPL",
    "BRPGLI",
    "BUZPPL",
    "CATORMEG",
    "CLSPPL",
    "CMTPPL",
    "CNAPPL",
    "CNHCTC",
    "DCAUST",
    "DNBPPL",
    "DRFPPL",
    "EVTPPL",
    "FALMEG",
    "FLMPPL",
    "FMTPPL",
    "GBRPPL",
    "GRFPPL",
    "HLYPPL1",
    "HLYPPL2",
    "HYAPPL",
    "LMAPPL",
    "LNXPPL",
    "LWLPPL",
    "MDLPPL",
    "MHTMTC",
    "MLRGLI",
    "MNSPPL",
    "NBDPPL",
    "NCRAMT",
    "NDMPPL",
    "NHVUST",
    "NSHPPL",
    "NTHPPL",
    "NWBPPL",
    "NWKPNS",
    "NWPPPL",
    "NYCPAS",
    "PHLGLI",
    "PITAMT",
    "PTMPPL",
    "PVDGLI",
    "PVDPPL",
    "SBFPPL",
    "SBRPPL",
    "SCTPPL",
    "SHFPPL",
    "SOHPPL",
    "SOMPPL",
    "SPGGLI",
    "STBPPL",
    "SVSGLI",
    "TRRPPL",
    "TRYPPL1",
    "TRYPPL2",
    "WBYPPL",
    "WDSPPL",
    "WHMPPL",
    "WILAMT",
    "WLMPPL",
    "WORAMT",
    "WSDPPL",
    "WWKPPL"
  ],
  "LMAPPL": [
    "ALBPPA",
    "ALBPPL",
    "AMMPPL1",
    "AMMPPL2",
    "AMMPPL3",
    "BALGLI",
    "BOSLOG",
    "BOSSST",
    "BOUPPL",
    "BOUPPL2",
    "BRNPPL",
    "BRPGLI",
    "BUZPPL",
    "CATORMEG",
    "CLSPPL",
    "CMTPPL",
    "CNAPPL",
    "CNHCTC",
    "DCAUST",
    "DNBPPL",
    "DRFPPL",
    "EVTPPL",
    "FALMEG",
    "FLMPPL",
    "FMTPPL",
    "FRAGLI",
    "GBRPPL",
    "GRFPPL",
    "HFDOUP",
    "HLYPPL1",
    "HLYPPL2",
    "HYAPPL",
    "LEOPPL",
    "LNXPPL",
    "LWLPPL",
    "MDLPPL",
    "MHTMTC",
    "MLRGLI",
    "MNSPPL",
    "NBDPPL",
    "NCRAMT",
    "NDMPPL",
    "NHVUST",
    "NSHPPL",
    "NTHPPL",
    "NWBPPL",
    "NWKPNS",
    "NWPPPL",
    "NYCPAS",
    "PHLGLI",
    "PITAMT",
    "PTMPPL",
    "PVDGLI",
    "PVDPPL",
    "SBFPPL",
    "SBRPPL",
    "SCTPPL",
    "SHFPPL",
    "SOHPPL",
    "SOMPPL",
    "SPGGLI",
    "STBPPL",
    "SVSGLI",
    "TRRPPL",
    "TRYPPL1",
    "TRYPPL2",
    "WBYPPL",
    "WDSPPL",
    "WHMPPL",
    "WILAMT",
    "WLMPPL",
    "WORAMT",
    "WSDPPL",
    "WWKPPL"
  ],
  "LNXPPL": [
    "ALBPPA",
    "ALBPPL",
    "AMMPPL1",
    "AMMPPL2",
    "AMMPPL3",
    "BALGLI",
    "BOSLOG",
    "BOSSST",
    "BOUPPL",
    "BOUPPL2",
    "BRNPPL",
    "BRPGLI",
    "BUZPPL",
    "CATORMEG",
    "CLSPPL",
    "CMTPPL",
    "CNAPPL",
    "CNHCTC",
    "DCAUST",
    "DNBPPL",
    "DRFPPL",
    "EVTPPL",
    "FALMEG",
    "FLMPPL",
    "FMTPPL",
    "FRAGLI",
    "GBRPPL",
    "GRFPPL",
    "HFDOUP",
    "HLYPPL1",
    "HLYPPL2",
    "HYAPPL",
    "LEOPPL",
    "LMAPPL",
    "LWLPPL",
    "MDLPPL",
    "MHTMTC",
    "MLRGLI",
    "MNSPPL",
    "NBDPPL",
    "NCRAMT",
    "NDMPPL",
    "NHVUST",
    "NSHPPL",
    "NTHPPL",
    "NWBPPL",
    "NWKPNS",
    "NWPPPL",
    "NYCPAS",
    "PHLGLI",
    "PITAMT",
    "PTMPPL",
    "PVDGLI",
    "PVDPPL",
    "SBFPPL",
    "SBRPPL",
    "SCTPPL",
    "SHFPPL",
    "SOMPPL",
    "SPGGLI",
    "STBPPL",
    "SVSGLI",
    "TRRPPL",
    "TRYPPL1",
    "TRYPPL2",
    "WBYPPL",
    "WDSPPL",
    "WHMPPL",
    "WILAMT",
    "WLMPPL",
    "WORAMT",
    "WSDPPL",
    "WWKPPL"
  ],
  "LWLPPL": [
    "ALBPPA",
    "ALBPPL",
    "AMMPPL1",
    "AMMPPL2",
    "AMMPPL3",
    "BALGLI",
    "BOUPPL",
    "BOUPPL2",
    "BRNPPL",
    "BRPGLI",
    "BUZPPL",
    "CATORMEG",
    "CLSPPL",
    "CMTPPL",
    "CNAPPL",
    "CNHCTC",
    "DCAUST",
    "DNBPPL",
    "DRFPPL",
    "EVTPPL",
    "FALMEG",
    "FLMPPL",
    "FMTPPL",
    "GBRPPL",
    "GRFPPL",
    "HLYPPL1",
    "HLYPPL2",
    "HYAPPL",
    "LEOPPL",
    "LMAPPL",
    "LNXPPL",
    "MDLPPL",
    "MHTMTC",
    "MLRGLI",
    "MNSPPL",
    "NBDPPL",
    "NCRAMT",
    "NDMPPL",
    "NHVUST",
    "NSHPPL",
    "NTHPPL",
    "NWBPPL",
    "NWKPNS",
    "NWPPPL",
    "NYCPAS",
    "PHLGLI",
    "PITAMT",
    "PTMPPL",
    "PVDGLI",
    "PVDPPL",
    "SBFPPL",
    "SBRPPL",
    "SCTPPL",
    "SHFPPL",
    "SOHPPL",
    "SOMPPL",
    "SPGGLI",
    "STBPPL",
    "SVSGLI",
    "TRRPPL",
    "TRYPPL1",
    "TRYPPL2",
    "WBYPPL",
    "WDSPPL",
    "WHMPPL",
    "WILAMT",
    "WLMPPL",
    "WORAMT",
    "WSDPPL",
    "WWKPPL"
  ],
  "MDLPPL": [
    "ALBPPA",
    "ALBPPL",
    "AMMPPL1",
    "AMMPPL2",
    "AMMPPL3",
    "BALGLI",
    "BOSLOG",
    "BOSSST",
    "BOUPPL",
    "BOUPPL2",
    "BRNPPL",
    "BRPGLI",
    "BUZPPL",
    "CATORMEG",
    "CLSPPL",
    "CMTPPL",
    "CNAPPL",
    "CNHCTC",
    "DCAUST",
    "DNBPPL",
    "DRFPPL",
    "EVTPPL",
    "FALMEG",
    "FLMPPL",
    "FMTPPL",
    "GBRPPL",
    "GRFPPL",
    "HLYPPL1",
    "HLYPPL2",
    "HYAPPL",
    "LEOPPL",
    "LMAPPL",
    "LNXPPL",
    "LWLPPL",
    "MHTMTC",
    "MLRGLI",
    "MNSPPL",
    "NBDPPL",
    "NCRAMT",
    "NDMPPL",
    "NHVUST",
    "NSHPPL",
    "NTHPPL",
    "NWBPPL",
    "NWKPNS",
    "NWPPPL",
    "NYCPAS",
    "PHLGLI",
    "PITAMT",
    "PTMPPL",
    "PVDGLI",
    "PVDPPL",
    "SBFPPL",
    "SBRPPL",
    "SCTPPL",
    "SHFPPL",
    "SOHPPL",
    "SOMPPL",
    "SPGGLI",
    "STBPPL",
    "SVSGLI",
    "TRRPPL",
    "TRYPPL1",
    "TRYPPL2",
    "WBYPPL",
    "WDSPPL",
    "WHMPPL",
    "WILAMT",
    "WLMPPL",
    "WSDPPL",
    "WWKPPL"
  ],
  "MHTMTC": [
    "ALBPPA",
    "ALBPPL",
    "AMMPPL1",
    "AMMPPL2",
    "AMMPPL3",
    "BALGLI",
    "BOUPPL",
    "BOUPPL2",
    "BRNPPL",
    "BUZPPL",
    "CATORMEG",
    "CLSPPL",
    "CMTPPL",
    "CNAPPL",
    "CNHCTC",
    "DCAUST",
    "DNBPPL",
    "DRFPPL",
    "EVTPPL",
    "FALMEG",
    "FLMPPL",
    "FMTPPL",
    "GBRPPL",
    "GRFPPL",
    "HLYPPL1",
    "HLYPPL2",
    "HYAPPL",
    "LEOPPL",
    "LMAPPL",
    "LNXPPL",
    "LWLPPL",
    "MDLPPL",
    "MLRGLI",
    "MNSPPL",
    "NBDPPL",
    "NDMPPL",
    "NSHPPL",
    "NTHPPL",
    "NWBPPL",
    "NWPPPL",
    "PITAMT",
    "PTMPPL",
    "PVDGLI",
    "PVDPPL",
    "SBFPPL",
    "SBRPPL",
    "SCTPPL",
    "SHFPPL",
    "SOHPPL",
    "SOMPPL",
    "SPGGLI",
    "STBPPL",
    "SVSGLI",
    "TRRPPL",
    "TRYPPL1",
    "TRYPPL2",
    "WBYPPL",
    "WDSPPL",
    "WHMPPL",
    "WLMPPL",
    "WORAMT",
    "WSDPPL",
    "WWKPPL"
  ],
  "MLRGLI": [
    "ALBPPL",
    "AMMPPL1",
    "AMMPPL2",
    "AMMPPL3",
    "BOSLOG",
    "BOUPPL",
    "BOUPPL2",
    "BRNPPL",
    "BUZPPL",
    "CLSPPL",
    "CMTPPL",
    "CNAPPL",
    "DNBPPL",
    "DRFPPL",
    "EVTPPL",
    "FALMEG",
    "FLMPPL",
    "FMTPPL",
    "FRAGLI",
    "GBRPPL",
    "GRFPPL",
    "HFDOUP",
    "HLYPPL1",
    "HLYPPL2",
    "HYAPPL",
    "LMAPPL",
    "LNXPPL",
    "MDLPPL",
    "MNSPPL",
    "NBDPPL",
    "NDMPPL",
    "NTHPPL",
    "NWPPPL",
    "PITAMT",
    "PTMPPL",
    "PVDGLI",
    "PVDPPL",
    "SBFPPL",
    "SBRPPL",
    "SCTPPL",
    "SHFPPL",
    "SOHPPL",
    "SOMPPL",
    "STBPPL",
    "TRRPPL",
    "TRYPPL1",
    "TRYPPL2",
    "WBYPPL",
    "WDSPPL",
    "WHMPPL",
    "WLMPPL",
    "WORAMT",
    "WSDPPL",
    "WWKPPL"
  ],
  "MNSPPL": [
    "ALBPPA",
    "ALBPPL",
    "AMMPPL1",
    "AMMPPL2",
    "AMMPPL3",
    "BALGLI",
    "BOSLOG",
    "BOUPPL",
    "BOUPPL2",
    "BRNPPL",
    "BRPGLI",
    "BUZPPL",
    "CATORMEG",
    "CLSPPL",
    "CNAPPL",
    "CNHCTC",
    "DCAUST",
    "DNBPPL",
    "DRFPPL",
    "EVTPPL",
    "FALMEG",
    "FLMPPL",
    "FMTPPL",
    "GBRPPL",
    "GRFPPL",
    "HLYPPL1",
    "HLYPPL2",
    "HYAPPL",
    "LEOPPL",
    "LMAPPL",
    "LNXPPL",
    "LWLPPL",
    "MDLPPL",
    "MHTMTC",
    "MLRGLI",
    "NBDPPL",
    "NCRAMT",
    "NHVUST",
    "NSHPPL",
    "NTHPPL",
    "NWBPPL",
    "NWKPNS",
    "NWPPPL",
    "NYCPAS",
    "PHLGLI",
    "PITAMT",
    "PTMPPL",
    "PVDGLI",
    "PVDPPL",
    "SBRPPL",
    "SCTPPL",
    "SHFPPL",
    "SOHPPL",
    "SOMPPL",
    "SPGGLI",
    "STBPPL",
    "SVSGLI",
    "TRRPPL",
    "WBYPPL",
    "WDSPPL",
    "WHMPPL",
    "WILAMT",
    "WLMPPL",
    "WSDPPL",
    "WWKPPL"
  ],
  "NBDPPL": [
    "ALBPPA",
    "ALBPPL",
    "AMMPPL1",
    "AMMPPL2",
    "AMMPPL3",
    "BALGLI",
    "BOSLOG",
    "BOSSST",
    "BOUPPL",
    "BOUPPL2",
    "BRNPPL",
    "BRPGLI",
    "BUZPPL",
    "CATORMEG",
    "CLSPPL",
    "CMTPPL",
    "CNAPPL",
    "DCAUST",
    "DNBPPL",
    "DRFPPL",
    "EVTPPL",
    "FALMEG",
    "FLMPPL",
    "FMTPPL",
    "GBRPPL",
    "GRFPPL",
    "HLYPPL1",
    "HLYPPL2",
    "HYAPPL",
    "LEOPPL",
    "LMAPPL",
    "LNXPPL",
    "LWLPPL",
    "MDLPPL",
    "MHTMTC",
    "MLRGLI",
    "MNSPPL",
    "NCRAMT",
    "NDMPPL",
    "NHVUST",
    "NSHPPL",
    "NTHPPL",
    "NWBPPL",
    "NWKPNS",
    "NWPPPL",
    "NYCPAS",
    "PHLGLI",
    "PITAMT",
    "PTMPPL",
    "PVDGLI",
    "PVDPPL",
    "SBFPPL",
    "SBRPPL",
    "SCTPPL",
    "SHFPPL",
    "SOHPPL",
    "SOMPPL",
    "SPGGLI",
    "STBPPL",
    "SVSGLI",
    "TRRPPL",
    "TRYPPL1",
    "TRYPPL2",
    "WBYPPL",
    "WDSPPL",
    "WHMPPL",
    "WILAMT",
    "WLMPPL",
    "WSDPPL",
    "WWKPPL"
  ],
  "NCRAMT": [
    "ALBPPL",
    "AMMPPL1",
    "AMMPPL2",
    "AMMPPL3",
    "BOSLOG",
    "BOUPPL",
    "BOUPPL2",
    "BRNPPL",
    "CLSPPL",
    "CMTPPL",
    "CNAPPL",
    "DNBPPL",
    "DRFPPL",
    "EVTPPL",
    "FALMEG",
    "FLMPPL",
    "FMTPPL",
    "FRAGLI",
    "GBRPPL",
    "HFDOUP",
    "HLYPPL1",
    "HLYPPL2",
    "HYAPPL",
    "LMAPPL",
    "LNXPPL",
    "MDLPPL",
    "MHTMTC",
    "MNSPPL",
    "NBDPPL",
    "NDMPPL",
    "NTHPPL",
    "NWPPPL",
    "PITAMT",
    "PTMPPL",
    "PVDGLI",
    "PVDPPL",
    "SBFPPL",
    "SBRPPL",
    "SCTPPL",
    "SHFPPL",
    "SOHPPL",
    "SOMPPL",
    "STBPPL",
    "TRRPPL",
    "TRYPPL1",
    "TRYPPL2",
    "WBYPPL",
    "WDSPPL",
    "WHMPPL",
    "WLMPPL",
    "WORAMT",
    "WSDPPL",
    "WWKPPL"
  ],
  "NDMPPL": [
    "ALBPPA",
    "ALBPPL",
    "AMMPPL1",
    "AMMPPL2",
    "AMMPPL3",
    "BALGLI",
    "BOSLOG",
    "BOSSST",
    "BOUPPL",
    "BOUPPL2",
    "BRNPPL",
    "BRPGLI",
    "BUZPPL",
    "CATORMEG",
    "CLSPPL",
    "CMTPPL",
    "CNAPPL",
    "CNHCTC",
    "DCAUST",
    "DNBPPL",
    "DRFPPL",
    "EVTPPL",
    "FALMEG",
    "FLMPPL",
    "FMTPPL",
    "FRAGLI",
    "GBRPPL",
    "GRFPPL",
    "HFDOUP",
    "HLYPPL1",
    "HLYPPL2",
    "HYAPPL",
    "LEOPPL",
    "LMAPPL",
    "LNXPPL",
    "LWLPPL",
    "MDLPPL",
    "MHTMTC",
    "MLRGLI",
    "MNSPPL",
    "NBDPPL",
    "NCRAMT",
    "NHVUST",
    "NSHPPL",
    "NTHPPL",
    "NWBPPL",
    "NWKPNS",
    "NWPPPL",
    "NYCPAS",
    "PHLGLI",
    "PITAMT",
    "PTMPPL",
    "PVDGLI",
    "PVDPPL",
    "SBFPPL",
    "SBRPPL",
    "SCTPPL",
    "SHFPPL",
    "SOHPPL",
    "SOMPPL",
    "SPGGLI",
    "STBPPL",
    "SVSGLI",
    "TRRPPL",
    "TRYPPL1",
    "TRYPPL2",
    "WBYPPL",
    "WDSPPL",
    "WILAMT",
    "WLMPPL",
    "WORAMT",
    "WSDPPL",
    "WWKPPL"
  ],
  "NHVUST": [
    "ALBPPA",
    "AMMPPL1",
    "AMMPPL2",
    "AMMPPL3",
    "BOSLOG",
    "BOUPPL",
    "BOUPPL2",
    "BRNPPL",
    "BUZPPL",
    "CLSPPL",
    "CNAPPL",
    "CNHCTC",
    "DNBPPL",
    "DRFPPL",
    "EVTPPL",
    "FALMEG",
    "FLMPPL",
    "FMTPPL",
    "FRAGLI",
    "GBRPPL",
    "GRFPPL",
    "HLYPPL1",
    "HLYPPL2",
    "HYAPPL",
    "LEOPPL",
    "LMAPPL",
    "LNXPPL",
    "LWLPPL",
    "MNSPPL",
    "NBDPPL",
    "NSHPPL",
    "NTHPPL",
    "PITAMT",
    "PVDGLI",
    "PVDPPL",
    "SBRPPL",
    "SCTPPL",
    "SHFPPL",
    "SOHPPL",
    "STBPPL",
    "TRRPPL",
    "WBYPPL",
    "WDSPPL",
    "WHMPPL",
    "WLMPPL",
    "WORAMT",
    "WSDPPL",
    "WWKPPL"
  ],
  "NSHPPL": [
    "ALBPPA",
    "ALBPPL",
    "AMMPPL1",
    "AMMPPL2",
    "AMMPPL3",
    "BALGLI",
    "BOUPPL",
    "BOUPPL2",
    "BRNPPL",
    "BRPGLI",
    "BUZPPL",
    "CATORMEG",
    "CLSPPL",
    "CMTPPL",
    "CNAPPL",
    "CNHCTC",
    "DCAUST",
    "DNBPPL",
    "DRFPPL",
    "EVTPPL",
    "FALMEG",
    "FLMPPL",
    "FMTPPL",
    "GBRPPL",
    "GRFPPL",
    "HLYPPL1",
    "HLYPPL2",
    "HYAPPL",
    "LEOPPL",
    "LMAPPL",
    "LNXPPL",
    "LWLPPL",
    "MDLPPL",
    "MHTMTC",
    "MLRGLI",
    "MNSPPL",
    "NBDPPL",
    "NCRAMT",
    "NHVUST",
    "NTHPPL",
    "NWBPPL",
    "NWKPNS",
    "NWPPPL",
    "NYCPAS",
    "PHLGLI",
    "PITAMT",
    "PTMPPL",
    "PVDGLI",
    "PVDPPL",
    "SBFPPL",
    "SBRPPL",
    "SCTPPL",
    "SHFPPL",
    "SOHPPL",
    "SOMPPL",
    "SPGGLI",
    "STBPPL",
    "SVSGLI",
    "TRRPPL",
    "TRYPPL1",
    "TRYPPL2",
    "WBYPPL",
    "WDSPPL",
    "WHMPPL",
    "WILAMT",
    "WLMPPL",
    "WORAMT",
    "WSDPPL",
    "WWKPPL"
  ],
  "NTHPPL": [
    "ALBPPA",
    "ALBPPL",
    "AMMPPL1",
    "AMMPPL2",
    "AMMPPL3",
    "BALGLI",
    "BOSLOG",
    "BOSSST",
    "BOUPPL",
    "BOUPPL2",
    "BRNPPL",
    "BRPGLI",
    "BUZPPL",
    "CATORMEG",
    "CLSPPL",
    "CMTPPL",
    "CNAPPL",
    "CNHCTC",
    "DCAUST",
    "DNBPPL",
    "DRFPPL",
    "EVTPPL",
    "FALMEG",
    "FLMPPL",
    "FMTPPL",
    "FRAGLI",
    "GBRPPL",
    "GRFPPL",
    "HLYPPL1",
    "HLYPPL2",
    "HYAPPL",
    "LEOPPL",
    "LMAPPL",
    "LNXPPL",
    "LWLPPL",
    "MDLPPL",
    "MHTMTC",
    "MLRGLI",
    "MNSPPL",
    "NBDPPL",
    "NCRAMT",
    "NDMPPL",
    "NHVUST",
    "NSHPPL",
    "NWBPPL",
    "NWKPNS",
    "NWPPPL",
    "NYCPAS",
    "PHLGLI",
    "PITAMT",
    "PTMPPL",
    "PVDGLI",
    "PVDPPL",
    "SBFPPL",
    "SBRPPL",
    "SCTPPL",
    "SHFPPL",
    "SOHPPL",
    "SOMPPL",
    "SPGGLI",
    "STBPPL",
    "SVSGLI",
    "TRRPPL",
    "TRYPPL1",
    "TRYPPL2",
    "WBYPPL",
    "WDSPPL",
    "WHMPPL",
    "WILAMT",
    "WLMPPL",
    "WORAMT",
    "WSDPPL",
    "WWKPPL"
  ],
  "NWBPPL": [
    "ALBPPA",
    "AMMPPL1",
    "AMMPPL2",
    "AMMPPL3",
    "BALGLI",
    "BOSLOG",
    "BOUPPL",
    "BOUPPL2",
    "BRNPPL",
    "BUZPPL",
    "CLSPPL",
    "CNAPPL",
    "CNHCTC",
    "DNBPPL",
    "DRFPPL",
    "EVTPPL",
    "FALMEG",
    "FLMPPL",
    "FMTPPL",
    "FRAGLI",
    "GBRPPL",
    "HLYPPL1",
    "HLYPPL2",
    "HYAPPL",
    "LEOPPL",
    "LMAPPL",
    "LNXPPL",
    "LWLPPL",
    "MDLPPL",
    "MHTMTC",
    "MLRGLI",
    "MNSPPL",
    "NBDPPL",
    "NSHPPL",
    "NTHPPL",
    "NWPPPL",
    "PHLGLI",
    "PITAMT",
    "PTMPPL",
    "PVDGLI",
    "PVDPPL",
    "SBRPPL",
    "SCTPPL",
    "SHFPPL",
    "SOHPPL",
    "SOMPPL",
    "STBPPL",
    "SVSGLI",
    "TRRPPL",
    "WBYPPL",
    "WDSPPL",
    "WHMPPL",
    "WLMPPL",
    "WORAMT",
    "WSDPPL",
    "WWKPPL"
  ],
  "NWKPNS": [
    "ALBPPL",
    "AMMPPL1",
    "AMMPPL2",
    "AMMPPL3",
    "BOSLOG",
    "BOUPPL",
    "BOUPPL2",
    "BRNPPL",
    "BUZPPL",
    "CLSPPL",
    "CMTPPL",
    "CNAPPL",
    "DNBPPL",
    "DRFPPL",
    "EVTPPL",
    "FALMEG",
    "FLMPPL",
    "FMTPPL",
    "FRAGLI",
    "GBRPPL",
    "GRFPPL",
    "HFDOUP",
    "HLYPPL1",
    "HLYPPL2",
    "HYAPPL",
    "LMAPPL",
    "LNXPPL",
    "MDLPPL",
    "MHTMTC",
    "MNSPPL",
    "NBDPPL",
    "NDMPPL",
    "NTHPPL",
    "NWPPPL",
    "PITAMT",
    "PTMPPL",
    "PVDGLI",
    "PVDPPL",
    "SBFPPL",
    "SBRPPL",
    "SCTPPL",
    "SHFPPL",
    "SOHPPL",
    "SOMPPL",
    "STBPPL",
    "TRRPPL",
    "TRYPPL1",
    "TRYPPL2",
    "WBYPPL",
    "WDSPPL",
    "WHMPPL",
    "WLMPPL",
    "WORAMT",
    "WSDPPL",
    "WWKPPL"
  ],
  "NWPPPL": [
    "ALBPPA",
    "ALBPPL",
    "AMMPPL1",
    "AMMPPL2",
    "AMMPPL3",
    "BALGLI",
    "BOSLOG",
    "BOSSST",
    "BOUPPL",
    "BOUPPL2",
    "BRNPPL",
    "BRPGLI",
    "BUZPPL",
    "CATORMEG",
    "CLSPPL",
    "CMTPPL",
    "CNAPPL",
    "DCAUST",
    "DNBPPL",
    "DRFPPL",
    "EVTPPL",
    "FALMEG",
    "FLMPPL",
    "FMTPPL",
    "GBRPPL",
    "GRFPPL",
    "HLYPPL1",
    "HLYPPL2",
    "HYAPPL",
    "LEOPPL",
    "LMAPPL",
    "LNXPPL",
    "LWLPPL",
    "MDLPPL",
    "MHTMTC",
    "MLRGLI",
    "MNSPPL",
    "NBDPPL",
    "NCRAMT",
    "NDMPPL",
    "NHVUST",
    "NSHPPL",
    "NTHPPL",
    "NWBPPL",
    "NWKPNS",
    "NYCPAS",
    "PHLGLI",
    "PITAMT",
    "PTMPPL",
    "PVDGLI",
    "PVDPPL",
    "SBFPPL",
    "SBRPPL",
    "SCTPPL",
    "SHFPPL",
    "SOHPPL",
    "SOMPPL",
    "SPGGLI",
    "STBPPL",
    "SVSGLI",
    "TRRPPL",
    "TRYPPL1",
    "TRYPPL2",
    "WBYPPL",
    "WDSPPL",
    "WHMPPL",
    "WILAMT",
    "WLMPPL",
    "WSDPPL",
    "WWKPPL"
  ],
  "NYCPAS": [
    "ALBPPL",
    "AMMPPL1",
    "AMMPPL2",
    "AMMPPL3",
    "BOSLOG",
    "BOUPPL",
    "BOUPPL2",
    "BRNPPL",
    "BUZPPL",
    "CMTPPL",
    "CNAPPL",
    "CNHCTC",
    "DNBPPL",
    "DRFPPL",
    "FALMEG",
    "FLMPPL",
    "FMTPPL",
    "GBRPPL",
    "GRFPPL",
    "HLYPPL1",
    "HLYPPL2",
    "HYAPPL",
    "LEOPPL",
    "LMAPPL",
    "LNXPPL",
    "LWLPPL",
    "MDLPPL",
    "MNSPPL",
    "NBDPPL",
    "NDMPPL",
    "NSHPPL",
    "NTHPPL",
    "NWPPPL",
    "PITAMT",
    "PTMPPL",
    "PVDGLI",
    "PVDPPL",
    "SBFPPL",
    "SBRPPL",
    "SCTPPL",
    "SHFPPL",
    "SOHPPL",
    "SOMPPL",
    "STBPPL",
    "TRRPPL",
    "TRYPPL1",
    "TRYPPL2",
    "WBYPPL",
    "WDSPPL",
    "WHMPPL",
    "WLMPPL",
    "WSDPPL",
    "WWKPPL"
  ],
  "PHLGLI": [
    "ALBPPL",
    "AMMPPL1",
    "AMMPPL2",
    "AMMPPL3",
    "BOSLOG",
    "BOUPPL",
    "BOUPPL2",
    "BRNPPL",
    "BUZPPL",
    "CLSPPL",
    "CMTPPL",
    "CNAPPL",
    "DNBPPL",
    "DRFPPL",
    "EVTPPL",
    "FALMEG",
    "FLMPPL",
    "FMTPPL",
    "FRAGLI",
    "GBRPPL",
    "GRFPPL",
    "HFDOUP",
    "HLYPPL1",
    "HLYPPL2",
    "HYAPPL",
    "LMAPPL",
    "LNXPPL",
    "MDLPPL",
    "MNSPPL",
    "NBDPPL",
    "NDMPPL",
    "NTHPPL",
    "NWBPPL",
    "NWPPPL",
    "PITAMT",
    "PTMPPL",
    "PVDGLI",
    "PVDPPL",
    "SBFPPL",
    "SBRPPL",
    "SCTPPL",
    "SHFPPL",
    "SOHPPL",
    "SOMPPL",
    "STBPPL",
    "TRRPPL",
    "TRYPPL1",
    "TRYPPL2",
    "WBYPPL",
    "WDSPPL",
    "WHMPPL",
    "WLMPPL",
    "WORAMT",
    "WSDPPL",
    "WWKPPL"
  ],
  "PITAMT": [
    "ALBPPA",
    "ALBPPL",
    "AMMPPL1",
    "AMMPPL2",
    "AMMPPL3",
    "BALGLI",
    "BOSLOG",
    "BOSSST",
    "BOUPPL",
    "BOUPPL2",
    "BRNPPL",
    "BRPGLI",
    "BUZPPL",
    "CATORMEG",
    "CLSPPL",
    "CMTPPL",
    "CNAPPL",
    "CNHCTC",
    "DCAUST",
    "DNBPPL",
    "DRFPPL",
    "EVTPPL",
    "FALMEG",
    "FLMPPL",
    "FMTPPL",
    "FRAGLI",
    "GBRPPL",
    "GRFPPL",
    "HLYPPL1",
    "HLYPPL2",
    "HYAPPL",
    "LEOPPL",
    "LMAPPL",
    "LNXPPL",
    "LWLPPL",
    "MDLPPL",
    "MHTMTC",
    "MLRGLI",
    "MNSPPL",
    "NBDPPL",
    "NCRAMT",
    "NDMPPL",
    "NHVUST",
    "NSHPPL",
    "NTHPPL",
    "NWBPPL",
    "NWKPNS",
    "NWPPPL",
    "NYCPAS",
    "PHLGLI",
    "PTMPPL",
    "PVDGLI",
    "PVDPPL",
    "SBFPPL",
    "SBRPPL",
    "SCTPPL",
    "SHFPPL",
    "SOMPPL",
    "SPGGLI",
    "STBPPL",
    "SVSGLI",
    "TRRPPL",
    "TRYPPL1",
    "TRYPPL2",
    "WBYPPL",
    "WDSPPL",
    "WHMPPL",
    "WILAMT",
    "WLMPPL",
    "WORAMT",
    "WSDPPL",
    "WWKPPL"
  ],
  "PTMPPL": [
    "ALBPPA",
    "ALBPPL",
    "AMMPPL1",
    "AMMPPL2",
    "AMMPPL3",
    "BALGLI",
    "BOSLOG",
    "BOSSST",
    "BOUPPL",
    "BOUPPL2",
    "BRNPPL",
    "BRPGLI",
    "BUZPPL",
    "CATORMEG",
    "CLSPPL",
    "CMTPPL",
    "CNAPPL",
    "DCAUST",
    "DNBPPL",
    "DRFPPL",
    "EVTPPL",
    "FALMEG",
    "FLMPPL",
    "FMTPPL",
    "GBRPPL",
    "GRFPPL",
    "HFDOUP",
    "HLYPPL1",
    "HLYPPL2",
    "HYAPPL",
    "LMAPPL",
    "LNXPPL",
    "MDLPPL",
    "MLRGLI",
    "MNSPPL",
    "NBDPPL",
    "NCRAMT",
    "NDMPPL",
    "NHVUST",
    "NTHPPL",
    "NWBPPL",
    "NWKPNS",
    "NWPPPL",
    "NYCPAS",
    "PHLGLI",
    "PITAMT",
    "PVDGLI",
    "PVDPPL",
    "SBFPPL",
    "SBRPPL",
    "SCTPPL",
    "SHFPPL",
    "SOHPPL",
    "SOMPPL",
    "SPGGLI",
    "STBPPL",
    "SVSGLI",
    "TRRPPL",
    "TRYPPL1",
    "TRYPPL2",
    "WBYPPL",
    "WDSPPL",
    "WHMPPL",
    "WILAMT",
    "WLMPPL",
    "WORAMT",
    "WSDPPL",
    "WWKPPL"
  ],
  "PVDGLI": [
    "ALBPPA",
    "ALBPPL",
    "AMMPPL1",
    "AMMPPL2",
    "AMMPPL3",
    "BALGLI",
    "BOSLOG",
    "BOSSST",
    "BOUPPL",
    "BOUPPL2",
    "BRNPPL",
    "BRPGLI",
    "BUZPPL",
    "CATORMEG",
    "CLSPPL",
    "CMTPPL",
    "CNAPPL",
    "DCAUST",
    "DNBPPL",
    "DRFPPL",
    "EVTPPL",
    "FALMEG",
    "FLMPPL",
    "FMTPPL",
    "GBRPPL",
    "GRFPPL",
    "HFDOUP",
    "HLYPPL1",
    "HLYPPL2",
    "HYAPPL",
    "LMAPPL",
    "LNXPPL",
    "MDLPPL",
    "MLRGLI",
    "MNSPPL",
    "NBDPPL",
    "NCRAMT",
    "NDMPPL",
    "NHVUST",
    "NTHPPL",
    "NWBPPL",
    "NWKPNS",
    "NWPPPL",
    "NYCPAS",
    "PHLGLI",
    "PITAMT",
    "PTMPPL",
    "SBFPPL",
    "SBRPPL",
    "SCTPPL",
    "SHFPPL",
    "SOHPPL",
    "SOMPPL",
    "SPGGLI",
    "STBPPL",
    "SVSGLI",
    "TRRPPL",
    "TRYPPL1",
    "TRYPPL2",
    "WBYPPL",
    "WDSPPL",
    "WHMPPL",
    "WILAMT",
    "WLMPPL",
    "WORAMT",
    "WSDPPL",
    "WWKPPL"
  ],
  "PVDPPL": [
    "ALBPPA",
    "ALBPPL",
    "AMMPPL1",
    "AMMPPL2",
    "AMMPPL3",
    "BALGLI",
    "BOSLOG",
    "BOSSST",
    "BOUPPL",
    "BOUPPL2",
    "BRNPPL",
    "BRPGLI",
    "BUZPPL",
    "CATORMEG",
    "CLSPPL",
    "CMTPPL",
    "CNAPPL",
    "DCAUST",
    "DNBPPL",
    "DRFPPL",
    "EVTPPL",
    "FALMEG",
    "FLMPPL",
    "FMTPPL",
    "GBRPPL",
    "GRFPPL",
    "HFDOUP",
    "HLYPPL1",
    "HLYPPL2",
    "HYAPPL",
    "LMAPPL",
    "LNXPPL",
    "MDLPPL",
    "MLRGLI",
    "MNSPPL",
    "NBDPPL",
    "NCRAMT",
    "NDMPPL",
    "NHVUST",
    "NTHPPL",
    "NWBPPL",
    "NWKPNS",
    "NWPPPL",
    "NYCPAS",
    "PHLGLI",
    "PITAMT",
    "PTMPPL",
    "SBFPPL",
    "SBRPPL",
    "SCTPPL",
    "SHFPPL",
    "SOHPPL",
    "SOMPPL",
    "SPGGLI",
    "STBPPL",
    "SVSGLI",
    "TRRPPL",
    "TRYPPL1",
    "TRYPPL2",
    "WBYPPL",
    "WDSPPL",
    "WHMPPL",
    "WILAMT",
    "WLMPPL",
    "WORAMT",
    "WSDPPL",
    "WWKPPL"
  ],
  "SBFPPL": [
    "ALBPPA",
    "ALBPPL",
    "AMMPPL1",
    "AMMPPL2",
    "AMMPPL3",
    "BALGLI",
    "BOSLOG",
    "BOSSST",
    "BOUPPL",
    "BOUPPL2",
    "BRNPPL",
    "BRPGLI",
    "BUZPPL",
    "CATORMEG",
    "CLSPPL",
    "CMTPPL",
    "CNAPPL",
    "CNHCTC",
    "DCAUST",
    "DNBPPL",
    "DRFPPL",
    "EVTPPL",
    "FALMEG",
    "FLMPPL",
    "FMTPPL",
    "FRAGLI",
    "GBRPPL",
    "GRFPPL",
    "HFDOUP",
    "HLYPPL1",
    "HLYPPL2",
    "HYAPPL",
    "LEOPPL",
    "LMAPPL",
    "LNXPPL",
    "LWLPPL",
    "MDLPPL",
    "MHTMTC",
    "MLRGLI",
    "MNSPPL",
    "NBDPPL",
    "NCRAMT",
    "NDMPPL",
    "NHVUST",
    "NSHPPL",
    "NTHPPL",
    "NWBPPL",
    "NWKPNS",
    "NWPPPL",
    "NYCPAS",
    "PHLGLI",
    "PITAMT",
    "PTMPPL",
    "PVDGLI",
    "PVDPPL",
    "SBRPPL",
    "SCTPPL",
    "SHFPPL",
    "SOHPPL",
    "SOMPPL",
    "SPGGLI",
    "STBPPL",
    "SVSGLI",
    "TRRPPL",
    "TRYPPL1",
    "TRYPPL2",
    "WBYPPL",
    "WDSPPL",
    "WILAMT",
    "WLMPPL",
    "WORAMT",
    "WSDPPL",
    "WWKPPL"
  ],
  "SBRPPL": [
    "ALBPPA",
    "ALBPPL",
    "AMMPPL1",
    "AMMPPL2",
    "AMMPPL3",
    "BALGLI",
    "BOSLOG",
    "BOUPPL",
    "BOUPPL2",
    "BRNPPL",
    "BRPGLI",
    "BUZPPL",
    "CATORMEG",
    "CLSPPL",
    "CMTPPL",
    "CNAPPL",
    "DCAUST",
    "DNBPPL",
    "DRFPPL",
    "EVTPPL",
    "FALMEG",
    "FLMPPL",
    "FMTPPL",
    "GBRPPL",
    "GRFPPL",
    "HFDOUP",
    "HLYPPL1",
    "HLYPPL2",
    "HYAPPL",
    "LEOPPL",
    "LMAPPL",
    "LNXPPL",
    "LWLPPL",
    "MDLPPL",
    "MHTMTC",
    "MLRGLI",
    "MNSPPL",
    "NBDPPL",
    "NCRAMT",
    "NDMPPL",
    "NHVUST",
    "NSHPPL",
    "NTHPPL",
    "NWBPPL",
    "NWKPNS",
    "NWPPPL",
    "NYCPAS",
    "PHLGLI",
    "PITAMT",
    "PTMPPL",
    "PVDGLI",
    "PVDPPL",
    "SBFPPL",
    "SCTPPL",
    "SHFPPL",
    "SOHPPL",
    "SOMPPL",
    "STBPPL",
    "SVSGLI",
    "TRRPPL",
    "TRYPPL1",
    "TRYPPL2",
    "WBYPPL",
    "WDSPPL",
    "WHMPPL",
    "WILAMT",
    "WLMPPL",
    "WSDPPL",
    "WWKPPL"
  ],
  "SCTPPL": [
    "ALBPPA",
    "ALBPPL",
    "AMMPPL1",
    "AMMPPL2",
    "AMMPPL3",
    "BALGLI",
    "BOSLOG",
    "BOUPPL",
    "BOUPPL2",
    "BRNPPL",
    "BRPGLI",
    "BUZPPL",
    "CATORMEG",
    "CLSPPL",
    "CNAPPL",
    "CNHCTC",
    "DCAUST",
    "DNBPPL",
    "DRFPPL",
    "EVTPPL",
    "FALMEG",
    "FLMPPL",
    "FMTPPL",
    "GBRPPL",
    "GRFPPL",
    "HFDOUP",
    "HLYPPL1",
    "HLYPPL2",
    "HYAPPL",
    "LEOPPL",
    "LMAPPL",
    "LNXPPL",
    "LWLPPL",
    "MDLPPL",
    "MHTMTC",
    "MLRGLI",
    "MNSPPL",
    "NBDPPL",
    "NCRAMT",
    "NHVUST",
    "NSHPPL",
    "NTHPPL",
    "NWBPPL",
    "NWKPNS",
    "NWPPPL",
    "NYCPAS",
    "PHLGLI",
    "PITAMT",
    "PTMPPL",
    "PVDGLI",
    "PVDPPL",
    "SBRPPL",
    "SHFPPL",
    "SOHPPL",
    "SOMPPL",
    "STBPPL",
    "SVSGLI",
    "TRRPPL",
    "WBYPPL",
    "WDSPPL",
    "WHMPPL",
    "WILAMT",
    "WLMPPL",
    "WSDPPL",
    "WWKPPL"
  ],
  "SHFPPL": [
    "ALBPPA",
    "ALBPPL",
    "AMMPPL1",
    "AMMPPL2",
    "AMMPPL3",
    "BALGLI",
    "BOSLOG",
    "BOUPPL",
    "BOUPPL2",
    "BRNPPL",
    "BRPGLI",
    "BUZPPL",
    "CATORMEG",
    "CLSPPL",
    "CMTPPL",
    "CNAPPL",
    "DCAUST",
    "DNBPPL",
    "DRFPPL",
    "EVTPPL",
    "FALMEG",
    "FLMPPL",
    "FMTPPL",
    "GBRPPL",
    "GRFPPL",
    "HLYPPL1",
    "HLYPPL2",
    "HYAPPL",
    "LMAPPL",
    "LNXPPL",
    "MDLPPL",
    "MLRGLI",
    "MNSPPL",
    "NBDPPL",
    "NCRAMT",
    "NDMPPL",
    "NHVUST",
    "NTHPPL",
    "NWBPPL",
    "NWKPNS",
    "NWPPPL",
    "NYCPAS",
    "PHLGLI",
    "PITAMT",
    "PTMPPL",
    "PVDGLI",
    "PVDPPL",
    "SBFPPL",
    "SBRPPL",
    "SCTPPL",
    "SOHPPL",
    "SOMPPL",
    "STBPPL",
    "SVSGLI",
    "TRRPPL",
    "TRYPPL1",
    "TRYPPL2",
    "WBYPPL",
    "WDSPPL",
    "WHMPPL",
    "WILAMT",
    "WLMPPL",
    "WSDPPL",
    "WWKPPL"
  ],
  "SOHPPL": [
    "ALBPPA",
    "ALBPPL",
    "AMMPPL1",
    "AMMPPL2",
    "AMMPPL3",
    "BALGLI",
    "BOSLOG",
    "BOSSST",
    "BOUPPL",
    "BOUPPL2",
    "BRNPPL",
    "BRPGLI",
    "BUZPPL",
    "CATORMEG",
    "CLSPPL",
    "CNAPPL",
    "CNHCTC",
    "DCAUST",
    "DNBPPL",
    "DRFPPL",
    "EVTPPL",
    "FALMEG",
    "FLMPPL",
    "FMTPPL",
    "FRAGLI",
    "GBRPPL",
    "GRFPPL",
    "HLYPPL1",
    "HLYPPL2",
    "HYAPPL",
    "LEOPPL",
    "LMAPPL",
    "LNXPPL",
    "LWLPPL",
    "MDLPPL",
    "MHTMTC",
    "MLRGLI",
    "MNSPPL",
    "NBDPPL",
    "NCRAMT",
    "NHVUST",
    "NSHPPL",
    "NTHPPL",
    "NWBPPL",
    "NWKPNS",
    "NWPPPL",
    "NYCPAS",
    "PHLGLI",
    "PITAMT",
    "PTMPPL",
    "PVDGLI",
    "PVDPPL",
    "SBRPPL",
    "SCTPPL",
    "SHFPPL",
    "SOMPPL",
    "SPGGLI",
    "STBPPL",
    "SVSGLI",
    "TRRPPL",
    "WBYPPL",
    "WDSPPL",
    "WHMPPL",
    "WILAMT",
    "WLMPPL",
    "WORAMT",
    "WSDPPL",
    "WWKPPL"
  ],
  "SOMPPL": [
    "ALBPPA",
    "ALBPPL",
    "AMMPPL1",
    "AMMPPL2",
    "AMMPPL3",
    "BOSLOG",
    "BOSSST",
    "BOUPPL",
    "BOUPPL2",
    "BRNPPL",
    "BUZPPL",
    "CATORMEG",
    "CLSPPL",
    "CMTPPL",
    "CNAPPL",
    "DCAUST",
    "DNBPPL",
    "DRFPPL",
    "EVTPPL",
    "FALMEG",
    "FLMPPL",
    "GBRPPL",
    "GRFPPL",
    "HLYPPL1",
    "HLYPPL2",
    "HYAPPL",
    "LMAPPL",
    "LNXPPL",
    "MDLPPL",
    "MNSPPL",
    "NBDPPL",
    "NCRAMT",
    "NDMPPL",
    "NTHPPL",
    "NWPPPL",
    "PITAMT",
    "PTMPPL",
    "PVDGLI",
    "PVDPPL",
    "SBFPPL",
    "SBRPPL",
    "SCTPPL",
    "SHFPPL",
    "SOHPPL",
    "SPGGLI",
    "STBPPL",
    "TRRPPL",
    "TRYPPL1",
    "TRYPPL2",
    "WBYPPL",
    "WDSPPL",
    "WHMPPL",
    "WLMPPL",
    "WSDPPL",
    "WWKPPL"
  ],
  "SPGGLI": [
    "ALBPPA",
    "ALBPPL",
    "AMMPPL1",
    "AMMPPL2",
    "AMMPPL3",
    "BALGLI",
    "BOSLOG",
    "BOSSST",
    "BOUPPL",
    "BOUPPL2",
    "BRNPPL",
    "BUZPPL",
    "CATORMEG",
    "CLSPPL",
    "CMTPPL",
    "CNHCTC",
    "DRFPPL",
    "EVTPPL",
    "FALMEG",
    "FLMPPL",
    "FRAGLI",
    "GBRPPL",
    "GRFPPL",
    "HLYPPL1",
    "HLYPPL2",
    "HYAPPL",
    "LEOPPL",
    "LMAPPL",
    "LNXPPL",
    "LWLPPL",
    "MDLPPL",
    "MHTMTC",
    "MLRGLI",
    "NBDPPL",
    "NDMPPL",
    "NSHPPL",
    "NTHPPL",
    "NWPPPL",
    "PHLGLI",
    "PITAMT",
    "PTMPPL",
    "PVDGLI",
    "PVDPPL",
    "SBFPPL",
    "SHFPPL",
    "SOHPPL",
    "SOMPPL",
    "STBPPL",
    "SVSGLI",
    "TRYPPL1",
    "TRYPPL2",
    "WDSPPL",
    "WHMPPL",
    "WLMPPL",
    "WORAMT",
    "WWKPPL"
  ],
  "STBPPL": [
    "ALBPPA",
    "ALBPPL",
    "AMMPPL1",
    "AMMPPL2",
    "AMMPPL3",
    "BALGLI",
    "BOSLOG",
    "BOUPPL",
    "BOUPPL2",
    "BRNPPL",
    "BRPGLI",
    "BUZPPL",
    "CATORMEG",
    "CLSPPL",
    "CMTPPL",
    "CNAPPL",
    "DCAUST",
    "DNBPPL",
    "DRFPPL",
    "EVTPPL",
    "FALMEG",
    "FLMPPL",
    "FMTPPL",
    "GBRPPL",
    "GRFPPL",
    "HFDOUP",
    "HLYPPL1",
    "HLYPPL2",
    "HYAPPL",
    "LEOPPL",
    "LMAPPL",
    "LNXPPL",
    "LWLPPL",
    "MDLPPL",
    "MHTMTC",
    "MLRGLI",
    "MNSPPL",
    "NBDPPL",
    "NCRAMT",
    "NDMPPL",
    "NHVUST",
    "NSHPPL",
    "NTHPPL",
    "NWBPPL",
    "NWKPNS",
    "NWPPPL",
    "NYCPAS",
    "PHLGLI",
    "PITAMT",
    "PTMPPL",
    "PVDGLI",
    "PVDPPL",
    "SBFPPL",
    "SBRPPL",
    "SCTPPL",
    "SHFPPL",
    "SOHPPL",
    "SOMPPL",
    "SPGGLI",
    "SVSGLI",
    "TRRPPL",
    "TRYPPL1",
    "TRYPPL2",
    "WBYPPL",
    "WDSPPL",
    "WHMPPL",
    "WILAMT",
    "WLMPPL",
    "WSDPPL",
    "WWKPPL"
  ],
  "SVSGLI": [
    "AMMPPL1",
    "AMMPPL2",
    "AMMPPL3",
    "BOSLOG",
    "BOUPPL",
    "BOUPPL2",
    "BRNPPL",
    "BUZPPL",
    "CLSPPL",
    "CNAPPL",
    "DNBPPL",
    "DRFPPL",
    "EVTPPL",
    "FALMEG",
    "FLMPPL",
    "FMTPPL",
    "FRAGLI",
    "GBRPPL",
    "GRFPPL",
    "HFDOUP",
    "HLYPPL1",
    "HLYPPL2",
    "HYAPPL",
    "LMAPPL",
    "LNXPPL",
    "MDLPPL",
    "MNSPPL",
    "NBDPPL",
    "NTHPPL",
    "NWPPPL",
    "PITAMT",
    "PTMPPL",
    "PVDGLI",
    "PVDPPL",
    "SBRPPL",
    "SCTPPL",
    "SHFPPL",
    "SOHPPL",
    "SOMPPL",
    "STBPPL",
    "TRRPPL",
    "WBYPPL",
    "WDSPPL",
    "WHMPPL",
    "WLMPPL",
    "WORAMT",
    "WSDPPL",
    "WWKPPL"
  ],
  "TRRPPL": [
    "ALBPPA",
    "ALBPPL",
    "AMMPPL1",
    "AMMPPL2",
    "AMMPPL3",
    "BALGLI",
    "BOSLOG",
    "BOUPPL",
    "BOUPPL2",
    "BRNPPL",
    "BRPGLI",
    "BUZPPL",
    "CATORMEG",
    "CLSPPL",
    "CMTPPL",
    "CNAPPL",
    "DCAUST",
    "DNBPPL",
    "DRFPPL",
    "EVTPPL",
    "FALMEG",
    "FLMPPL",
    "FMTPPL",
    "FRAGLI",
    "GBRPPL",
    "GRFPPL",
    "HFDOUP",
    "HLYPPL1",
    "HLYPPL2",
    "HYAPPL",
    "LEOPPL",
    "LMAPPL",
    "LNXPPL",
    "LWLPPL",
    "MDLPPL",
    "MHTMTC",
    "MLRGLI",
    "MNSPPL",
    "NBDPPL",
    "NCRAMT",
    "NDMPPL",
    "NHVUST",
    "NSHPPL",
    "NTHPPL",
    "NWBPPL",
    "NWKPNS",
    "NWPPPL",
    "NYCPAS",
    "PHLGLI",
    "PITAMT",
    "PTMPPL",
    "PVDGLI",
    "PVDPPL",
    "SBFPPL",
    "SBRPPL",
    "SCTPPL",
    "SHFPPL",
    "SOHPPL",
    "SOMPPL",
    "STBPPL",
    "SVSGLI",
    "TRYPPL1",
    "TRYPPL2",
    "WBYPPL",
    "WDSPPL",
    "WHMPPL",
    "WILAMT",
    "WLMPPL",
    "WSDPPL",
    "WWKPPL"
  ],
  "TRYPPL1": [
    "ALBPPA",
    "ALBPPL",
    "AMMPPL1",
    "AMMPPL2",
    "AMMPPL3",
    "BALGLI",
    "BOSLOG",
    "BOSSST",
    "BOUPPL",
    "BOUPPL2",
    "BRNPPL",
    "BRPGLI",
    "BUZPPL",
    "CATORMEG",
    "CLSPPL",
    "CMTPPL",
    "CNAPPL",
    "CNHCTC",
    "DCAUST",
    "DNBPPL",
    "DRFPPL",
    "EVTPPL",
    "FALMEG",
    "FLMPPL",
    "FMTPPL",
    "FRAGLI",
    "GBRPPL",
    "GRFPPL",
    "HFDOUP",
    "HLYPPL1",
    "HLYPPL2",
    "HYAPPL",
    "LEOPPL",
    "LMAPPL",
    "LNXPPL",
    "LWLPPL",
    "MDLPPL",
    "MHTMTC",
    "MLRGLI",
    "MNSPPL",
    "NBDPPL",
    "NCRAMT",
    "NDMPPL",
    "NHVUST",
    "NSHPPL",
    "NTHPPL",
    "NWBPPL",
    "NWKPNS",
    "NWPPPL",
    "NYCPAS",
    "PHLGLI",
    "PITAMT",
    "PTMPPL",
    "PVDGLI",
    "PVDPPL",
    "SBFPPL",
    "SBRPPL",
    "SCTPPL",
    "SHFPPL",
    "SOHPPL",
    "SOMPPL",
    "SPGGLI",
    "STBPPL",
    "SVSGLI",
    "TRRPPL",
    "TRYPPL2",
    "WBYPPL",
    "WDSPPL",
    "WILAMT",
    "WLMPPL",
    "WORAMT",
    "WSDPPL",
    "WWKPPL"
  ],
  "TRYPPL2": [
    "ALBPPA",
    "ALBPPL",
    "AMMPPL1",
    "AMMPPL2",
    "AMMPPL3",
    "BALGLI",
    "BOSLOG",
    "BOSSST",
    "BOUPPL",
    "BOUPPL2",
    "BRNPPL",
    "BRPGLI",
    "BUZPPL",
    "CATORMEG",
    "CLSPPL",
    "CMTPPL",
    "CNAPPL",
    "CNHCTC",
    "DCAUST",
    "DNBPPL",
    "DRFPPL",
    "EVTPPL",
    "FALMEG",
    "FLMPPL",
    "FMTPPL",
    "FRAGLI",
    "GBRPPL",
    "GRFPPL",
    "HFDOUP",
    "HLYPPL1",
    "HLYPPL2",
    "HYAPPL",
    "LEOPPL",
    "LMAPPL",
    "LNXPPL",
    "LWLPPL",
    "MDLPPL",
    "MHTMTC",
    "MLRGLI",
    "MNSPPL",
    "NBDPPL",
    "NCRAMT",
    "NDMPPL",
    "NHVUST",
    "NSHPPL",
    "NTHPPL",
    "NWBPPL",
    "NWKPNS",
    "NWPPPL",
    "NYCPAS",
    "PHLGLI",
    "PITAMT",
    "PTMPPL",
    "PVDGLI",
    "PVDPPL",
    "SBFPPL",
    "SBRPPL",
    "SCTPPL",
    "SHFPPL",
    "SOHPPL",
    "SOMPPL",
    "SPGGLI",
    "STBPPL",
    "SVSGLI",
    "TRRPPL",
    "TRYPPL1",
    "WBYPPL",
    "WDSPPL",
    "WILAMT",
    "WLMPPL",
    "WORAMT",
    "WSDPPL",
    "WWKPPL"
  ],
  "WBYPPL": [
    "ALBPPA",
    "ALBPPL",
    "AMMPPL1",
    "AMMPPL2",
    "AMMPPL3",
    "BALGLI",
    "BOSLOG",
    "BOUPPL",
    "BOUPPL2",
    "BRNPPL",
    "BRPGLI",
    "BUZPPL",
    "CATORMEG",
    "CLSPPL",
    "CMTPPL",
    "CNAPPL",
    "DCAUST",
    "DNBPPL",
    "DRFPPL",
    "EVTPPL",
    "FALMEG",
    "FLMPPL",
    "FMTPPL",
    "GBRPPL",
    "GRFPPL",
    "HFDOUP",
    "HLYPPL1",
    "HLYPPL2",
    "HYAPPL",
    "LEOPPL",
    "LMAPPL",
    "LNXPPL",
    "LWLPPL",
    "MDLPPL",
    "MHTMTC",
    "MLRGLI",
    "MNSPPL",
    "NBDPPL",
    "NCRAMT",
    "NDMPPL",
    "NHVUST",
    "NSHPPL",
    "NTHPPL",
    "NWBPPL",
    "NWKPNS",
    "NWPPPL",
    "NYCPAS",
    "PHLGLI",
    "PITAMT",
    "PTMPPL",
    "PVDGLI",
    "PVDPPL",
    "SBFPPL",
    "SBRPPL",
    "SCTPPL",
    "SHFPPL",
    "SOHPPL",
    "SOMPPL",
    "STBPPL",
    "SVSGLI",
    "TRRPPL",
    "TRYPPL1",
    "TRYPPL2",
    "WDSPPL",
    "WHMPPL",
    "WILAMT",
    "WLMPPL",
    "WSDPPL",
    "WWKPPL"
  ],
  "WDSPPL": [
    "ALBPPA",
    "ALBPPL",
    "AMMPPL1",
    "AMMPPL2",
    "AMMPPL3",
    "BALGLI",
    "BOSLOG",
    "BOSSST",
    "BOUPPL",
    "BOUPPL2",
    "BRNPPL",
    "BRPGLI",
    "BUZPPL",
    "CATORMEG",
    "CLSPPL",
    "CMTPPL",
    "CNAPPL",
    "DCAUST",
    "DNBPPL",
    "DRFPPL",
    "EVTPPL",
    "FALMEG",
    "FLMPPL",
    "FMTPPL",
    "FRAGLI",
    "GBRPPL",
    "GRFPPL",
    "HLYPPL1",
    "HLYPPL2",
    "HYAPPL",
    "LMAPPL",
    "LNXPPL",
    "MDLPPL",
    "MLRGLI",
    "MNSPPL",
    "NBDPPL",
    "NCRAMT",
    "NDMPPL",
    "NHVUST",
    "NSHPPL",
    "NTHPPL",
    "NWBPPL",
    "NWKPNS",
    "NWPPPL",
    "NYCPAS",
    "PHLGLI",
    "PITAMT",
    "PTMPPL",
    "PVDGLI",
    "PVDPPL",
    "SBFPPL",
    "SBRPPL",
    "SCTPPL",
    "SHFPPL",
    "SOHPPL",
    "SOMPPL",
    "SPGGLI",
    "STBPPL",
    "SVSGLI",
    "TRRPPL",
    "TRYPPL1",
    "TRYPPL2",
    "WBYPPL",
    "WHMPPL",
    "WILAMT",
    "WLMPPL",
    "WORAMT",
    "WSDPPL",
    "WWKPPL"
  ],
  "WHMPPL": [
    "ALBPPA",
    "ALBPPL",
    "AMMPPL1",
    "AMMPPL2",
    "AMMPPL3",
    "BALGLI",
    "BOSLOG",
    "BOSSST",
    "BOUPPL",
    "BOUPPL2",
    "BRNPPL",
    "BRPGLI",
    "BUZPPL",
    "CATORMEG",
    "CLSPPL",
    "CMTPPL",
    "CNAPPL",
    "DCAUST",
    "DNBPPL",
    "DRFPPL",
    "EVTPPL",
    "FALMEG",
    "FLMPPL",
    "FMTPPL",
    "FRAGLI",
    "GBRPPL",
    "GRFPPL",
    "HFDOUP",
    "HLYPPL1",
    "HLYPPL2",
    "HYAPPL",
    "LMAPPL",
    "LNXPPL",
    "MDLPPL",
    "MLRGLI",
    "MNSPPL",
    "NBDPPL",
    "NCRAMT",
    "NDMPPL",
    "NHVUST",
    "NSHPPL",
    "NTHPPL",
    "NWBPPL",
    "NWKPNS",
    "NWPPPL",
    "NYCPAS",
    "PHLGLI",
    "PITAMT",
    "PTMPPL",
    "PVDGLI",
    "PVDPPL",
    "SBFPPL",
    "SBRPPL",
    "SCTPPL",
    "SHFPPL",
    "SOHPPL",
    "SOMPPL",
    "SPGGLI",
    "STBPPL",
    "SVSGLI",
    "TRRPPL",
    "TRYPPL1",
    "TRYPPL2",
    "WBYPPL",
    "WDSPPL",
    "WILAMT",
    "WLMPPL",
    "WORAMT",
    "WSDPPL",
    "WWKPPL"
  ],
  "WILAMT": [
    "ALBPPL",
    "AMMPPL1",
    "AMMPPL2",
    "AMMPPL3",
    "BOSLOG",
    "BOUPPL",
    "BOUPPL2",
    "BRNPPL",
    "BUZPPL",
    "CLSPPL",
    "CMTPPL",
    "CNAPPL",
    "DNBPPL",
    "DRFPPL",
    "EVTPPL",
    "FALMEG",
    "FLMPPL",
    "FMTPPL",
    "FRAGLI",
    "GBRPPL",
    "GRFPPL",
    "HFDOUP",
    "HLYPPL1",
    "HLYPPL2",
    "HYAPPL",
    "LEOPPL",
    "LMAPPL",
    "LNXPPL",
    "LWLPPL",
    "MDLPPL",
    "MHTMTC",
    "MNSPPL",
    "NBDPPL",
    "NDMPPL",
    "NSHPPL",
    "NTHPPL",
    "NWPPPL",
    "PITAMT",
    "PTMPPL",
    "PVDGLI",
    "PVDPPL",
    "SBFPPL",
    "SBRPPL",
    "SCTPPL",
    "SHFPPL",
    "SOHPPL",
    "SOMPPL",
    "STBPPL",
    "TRRPPL",
    "TRYPPL1",
    "TRYPPL2",
    "WBYPPL",
    "WDSPPL",
    "WHMPPL",
    "WLMPPL",
    "WORAMT",
    "WSDPPL",
    "WWKPPL"
  ],
  "WLMPPL": [
    "ALBPPA",
    "ALBPPL",
    "AMMPPL1",
    "AMMPPL2",
    "AMMPPL3",
    "BALGLI",
    "BOSLOG",
    "BOSSST",
    "BOUPPL",
    "BOUPPL2",
    "BRNPPL",
    "BRPGLI",
    "BUZPPL",
    "CATORMEG",
    "CLSPPL",
    "CMTPPL",
    "CNAPPL",
    "CNHCTC",
    "DCAUST",
    "DNBPPL",
    "DRFPPL",
    "EVTPPL",
    "FALMEG",
    "FLMPPL",
    "FMTPPL",
    "FRAGLI",
    "GBRPPL",
    "GRFPPL",
    "HLYPPL1",
    "HLYPPL2",
    "HYAPPL",
    "LMAPPL",
    "LNXPPL",
    "MDLPPL",
    "MLRGLI",
    "MNSPPL",
    "NBDPPL",
    "NCRAMT",
    "NDMPPL",
    "NHVUST",
    "NSHPPL",
    "NTHPPL",
    "NWBPPL",
    "NWKPNS",
    "NWPPPL",
    "NYCPAS",
    "PHLGLI",
    "PITAMT",
    "PTMPPL",
    "PVDGLI",
    "PVDPPL",
    "SBFPPL",
    "SBRPPL",
    "SCTPPL",
    "SHFPPL",
    "SOMPPL",
    "SPGGLI",
    "STBPPL",
    "SVSGLI",
    "TRRPPL",
    "TRYPPL1",
    "TRYPPL2",
    "WBYPPL",
    "WDSPPL",
    "WHMPPL",
    "WILAMT",
    "WORAMT",
    "WSDPPL",
    "WWKPPL"
  ],
  "WORAMT": [
    "ALBPPA",
    "ALBPPL",
    "AMMPPL1",
    "AMMPPL2",
    "AMMPPL3",
    "BALGLI",
    "BOUPPL",
    "BOUPPL2",
    "BRNPPL",
    "BUZPPL",
    "CMTPPL",
    "CNHCTC",
    "DCAUST",
    "DRFPPL",
    "EVTPPL",
    "FRAGLI",
    "GBRPPL",
    "GRFPPL",
    "HLYPPL1",
    "HLYPPL2",
    "HYAPPL",
    "LEOPPL",
    "LMAPPL",
    "LNXPPL",
    "LWLPPL",
    "MDLPPL",
    "MHTMTC",
    "MLRGLI",
    "NBDPPL",
    "NDMPPL",
    "NHVUST",
    "NSHPPL",
    "NTHPPL",
    "NWBPPL",
    "NWKPNS",
    "NWPPPL",
    "PHLGLI",
    "PITAMT",
    "PTMPPL",
    "PVDGLI",
    "PVDPPL",
    "SBFPPL",
    "SHFPPL",
    "SOHPPL",
    "SOMPPL",
    "SPGGLI",
    "SVSGLI",
    "TRYPPL1",
    "TRYPPL2",
    "WDSPPL",
    "WHMPPL",
    "WILAMT",
    "WLMPPL",
    "WWKPPL"
  ],
  "WSDPPL": [
    "ALBPPA",
    "ALBPPL",
    "AMMPPL1",
    "AMMPPL2",
    "AMMPPL3",
    "BALGLI",
    "BOSLOG",
    "BOUPPL",
    "BOUPPL2",
    "BRNPPL",
    "BRPGLI",
    "BUZPPL",
    "CATORMEG",
    "CLSPPL",
    "CMTPPL",
    "CNAPPL",
    "DCAUST",
    "DNBPPL",
    "DRFPPL",
    "EVTPPL",
    "FALMEG",
    "FLMPPL",
    "FMTPPL",
    "GBRPPL",
    "GRFPPL",
    "HFDOUP",
    "HLYPPL1",
    "HLYPPL2",
    "HYAPPL",
    "LEOPPL",
    "LMAPPL",
    "LNXPPL",
    "LWLPPL",
    "MDLPPL",
    "MHTMTC",
    "MLRGLI",
    "MNSPPL",
    "NBDPPL",
    "NCRAMT",
    "NDMPPL",
    "NHVUST",
    "NSHPPL",
    "NTHPPL",
    "NWBPPL",
    "NWKPNS",
    "NWPPPL",
    "NYCPAS",
    "PHLGLI",
    "PITAMT",
    "PTMPPL",
    "PVDGLI",
    "PVDPPL",
    "SBFPPL",
    "SBRPPL",
    "SCTPPL",
    "SHFPPL",
    "SOHPPL",
    "SOMPPL",
    "STBPPL",
    "SVSGLI",
    "TRRPPL",
    "TRYPPL1",
    "TRYPPL2",
    "WBYPPL",
    "WDSPPL",
    "WHMPPL",
    "WILAMT",
    "WLMPPL",
    "WWKPPL"
  ],
  "WWKPPL": [
    "ALBPPA",
    "ALBPPL",
    "AMMPPL1",
    "AMMPPL2",
    "AMMPPL3",
    "BALGLI",
    "BOSLOG",
    "BOSSST",
    "BOUPPL",
    "BOUPPL2",
    "BRNPPL",
    "BRPGLI",
    "BUZPPL",
    "CATORMEG",
    "CLSPPL",
    "CMTPPL",
    "CNAPPL",
    "DCAUST",
    "DNBPPL",
    "DRFPPL",
    "EVTPPL",
    "FALMEG",
    "FLMPPL",
    "FMTPPL",
    "FRAGLI",
    "GBRPPL",
    "GRFPPL",
    "HFDOUP",
    "HLYPPL1",
    "HLYPPL2",
    "HYAPPL",
    "LMAPPL",
    "LNXPPL",
    "MDLPPL",
    "MLRGLI",
    "MNSPPL",
    "NBDPPL",
    "NCRAMT",
    "NDMPPL",
    "NHVUST",
    "NSHPPL",
    "NTHPPL",
    "NWBPPL",
    "NWKPNS",
    "NWPPPL",
    "NYCPAS",
    "PHLGLI",
    "PITAMT",
    "PTMPPL",
    "PVDGLI",
    "PVDPPL",
    "SBFPPL",
    "SBRPPL",
    "SCTPPL",
    "SHFPPL",
    "SOHPPL",
    "SOMPPL",
    "SPGGLI",
    "STBPPL",
    "SVSGLI",
    "TRRPPL",
    "TRYPPL1",
    "TRYPPL2",
    "WBYPPL",
    "WDSPPL",
    "WHMPPL",
    "WILAMT",
    "WLMPPL",
    "WORAMT",
    "WSDPPL"
  ]
}