{
  "RNOUSSTA": [
    "SLHUSSTA",
    "SLNUSSTA",
    "SLNUSSTA1",
    "SLNUSSTA2",
    "SLNUSSTA3",
    "SLNUSSTA4"
  ],
  "SLHUSSTA": [
    "RNOUSSTA"
  ],
  "SLNUSSTA": [
    "RNOUSSTA"
  ],
  "SLNUSSTA1": [
    "RNOUSSTA"
  ],
  "SLNUSSTA2": [
    "RNOUSSTA"
  ],
  "SLNUSSTA3": [
    "RNOUSSTA"
  ],
  "SLNUSSTA4": [
    "RNOUSSTA"
  ]
}